lab2/lab2_02/simulation/qsim/lab2_02.msim.vcd
$comment
	File created using the following command:
		vcd file lab2_02.msim.vcd -direction
$end
$date
	Sun Oct 02 12:05:31 2022
$end
$version
	ModelSim Version 10.5b
$end
$timescale
	1ps
$end

$scope module lab2_02_vhd_vec_tst $end
$var wire 1 ! Bout $end
$var wire 1 " seg [13] $end
$var wire 1 # seg [12] $end
$var wire 1 $ seg [11] $end
$var wire 1 % seg [10] $end
$var wire 1 & seg [9] $end
$var wire 1 ' seg [8] $end
$var wire 1 ( seg [7] $end
$var wire 1 ) seg [6] $end
$var wire 1 * seg [5] $end
$var wire 1 + seg [4] $end
$var wire 1 , seg [3] $end
$var wire 1 - seg [2] $end
$var wire 1 . seg [1] $end
$var wire 1 / seg [0] $end
$var wire 1 0 x [7] $end
$var wire 1 1 x [6] $end
$var wire 1 2 x [5] $end
$var wire 1 3 x [4] $end
$var wire 1 4 x [3] $end
$var wire 1 5 x [2] $end
$var wire 1 6 x [1] $end
$var wire 1 7 x [0] $end
$var wire 1 8 y [7] $end
$var wire 1 9 y [6] $end
$var wire 1 : y [5] $end
$var wire 1 ; y [4] $end
$var wire 1 < y [3] $end
$var wire 1 = y [2] $end
$var wire 1 > y [1] $end
$var wire 1 ? y [0] $end

$scope module i1 $end
$var wire 1 @ gnd $end
$var wire 1 A vcc $end
$var wire 1 B unknown $end
$var wire 1 C devoe $end
$var wire 1 D devclrn $end
$var wire 1 E devpor $end
$var wire 1 F ww_devoe $end
$var wire 1 G ww_devclrn $end
$var wire 1 H ww_devpor $end
$var wire 1 I ww_x [7] $end
$var wire 1 J ww_x [6] $end
$var wire 1 K ww_x [5] $end
$var wire 1 L ww_x [4] $end
$var wire 1 M ww_x [3] $end
$var wire 1 N ww_x [2] $end
$var wire 1 O ww_x [1] $end
$var wire 1 P ww_x [0] $end
$var wire 1 Q ww_y [7] $end
$var wire 1 R ww_y [6] $end
$var wire 1 S ww_y [5] $end
$var wire 1 T ww_y [4] $end
$var wire 1 U ww_y [3] $end
$var wire 1 V ww_y [2] $end
$var wire 1 W ww_y [1] $end
$var wire 1 X ww_y [0] $end
$var wire 1 Y ww_Bout $end
$var wire 1 Z ww_seg [13] $end
$var wire 1 [ ww_seg [12] $end
$var wire 1 \ ww_seg [11] $end
$var wire 1 ] ww_seg [10] $end
$var wire 1 ^ ww_seg [9] $end
$var wire 1 _ ww_seg [8] $end
$var wire 1 ` ww_seg [7] $end
$var wire 1 a ww_seg [6] $end
$var wire 1 b ww_seg [5] $end
$var wire 1 c ww_seg [4] $end
$var wire 1 d ww_seg [3] $end
$var wire 1 e ww_seg [2] $end
$var wire 1 f ww_seg [1] $end
$var wire 1 g ww_seg [0] $end
$var wire 1 h \Bout~output_o\ $end
$var wire 1 i \seg[0]~output_o\ $end
$var wire 1 j \seg[1]~output_o\ $end
$var wire 1 k \seg[2]~output_o\ $end
$var wire 1 l \seg[3]~output_o\ $end
$var wire 1 m \seg[4]~output_o\ $end
$var wire 1 n \seg[5]~output_o\ $end
$var wire 1 o \seg[6]~output_o\ $end
$var wire 1 p \seg[7]~output_o\ $end
$var wire 1 q \seg[8]~output_o\ $end
$var wire 1 r \seg[9]~output_o\ $end
$var wire 1 s \seg[10]~output_o\ $end
$var wire 1 t \seg[11]~output_o\ $end
$var wire 1 u \seg[12]~output_o\ $end
$var wire 1 v \seg[13]~output_o\ $end
$var wire 1 w \x[6]~input_o\ $end
$var wire 1 x \x[4]~input_o\ $end
$var wire 1 y \y[4]~input_o\ $end
$var wire 1 z \x[3]~input_o\ $end
$var wire 1 { \y[3]~input_o\ $end
$var wire 1 | \x[2]~input_o\ $end
$var wire 1 } \y[2]~input_o\ $end
$var wire 1 ~ \y[1]~input_o\ $end
$var wire 1 !! \x[1]~input_o\ $end
$var wire 1 "! \x[0]~input_o\ $end
$var wire 1 #! \y[0]~input_o\ $end
$var wire 1 $! \stage1|Bout~0_combout\ $end
$var wire 1 %! \stage2|Bout~0_combout\ $end
$var wire 1 &! \stage3|Bout~0_combout\ $end
$var wire 1 '! \stage4|Bout~0_combout\ $end
$var wire 1 (! \x[5]~input_o\ $end
$var wire 1 )! \y[5]~input_o\ $end
$var wire 1 *! \stage5|Bout~0_combout\ $end
$var wire 1 +! \y[6]~input_o\ $end
$var wire 1 ,! \stage6|Bout~0_combout\ $end
$var wire 1 -! \x[7]~input_o\ $end
$var wire 1 .! \y[7]~input_o\ $end
$var wire 1 /! \stage7|Bout~0_combout\ $end
$var wire 1 0! \stage2|d~combout\ $end
$var wire 1 1! \stage1|d~0_combout\ $end
$var wire 1 2! \stage3|d~combout\ $end
$var wire 1 3! \stage0|d~0_combout\ $end
$var wire 1 4! \stage8|g0~0_combout\ $end
$var wire 1 5! \stage8|f0~0_combout\ $end
$var wire 1 6! \stage8|e0~0_combout\ $end
$var wire 1 7! \stage8|d0~0_combout\ $end
$var wire 1 8! \stage8|c0~0_combout\ $end
$var wire 1 9! \stage8|b0~0_combout\ $end
$var wire 1 :! \stage8|a0~0_combout\ $end
$var wire 1 ;! \stage4|d~combout\ $end
$var wire 1 <! \stage5|d~combout\ $end
$var wire 1 =! \stage6|d~combout\ $end
$var wire 1 >! \stage7|d~0_combout\ $end
$var wire 1 ?! \stage7|d~combout\ $end
$var wire 1 @! \stage8|g1~0_combout\ $end
$var wire 1 A! \stage8|f1~0_combout\ $end
$var wire 1 B! \stage8|e1~0_combout\ $end
$var wire 1 C! \stage8|d1~0_combout\ $end
$var wire 1 D! \stage8|c1~0_combout\ $end
$var wire 1 E! \stage8|b1~0_combout\ $end
$var wire 1 F! \stage8|a1~0_combout\ $end
$upscope $end
$upscope $end
$enddefinitions $end
#0
$dumpvars
0!
0@
1A
xB
1C
1D
1E
1F
1G
1H
0Y
0h
1i
0j
0k
0l
0m
0n
0o
1p
0q
0r
0s
0t
0u
0v
0w
0x
0y
0z
0{
0|
0}
0~
0!!
0"!
0#!
0$!
0%!
0&!
0'!
0(!
0)!
0*!
0+!
0,!
0-!
0.!
0/!
00!
01!
02!
03!
14!
05!
06!
07!
08!
09!
0:!
0;!
0<!
0=!
0>!
0?!
1@!
0A!
0B!
0C!
0D!
0E!
0F!
00
01
02
03
04
05
06
07
08
09
0:
0;
0<
0=
0>
0?
0I
0J
0K
0L
0M
0N
0O
0P
0Q
0R
0S
0T
0U
0V
0W
0X
0Z
0[
0\
0]
0^
0_
1`
0a
0b
0c
0d
0e
0f
1g
0"
0#
0$
0%
0&
0'
1(
0)
0*
0+
0,
0-
0.
1/
$end
#10000
17
1=
1>
1P
1W
1V
1}
1~
1"!
13!
1$!
11!
1%!
10!
1&!
12!
00!
15!
16!
17!
04!
05!
06!
07!
19!
1:!
1'!
1;!
1A!
1B!
1C!
1F!
1*!
1<!
1l
1k
1j
0@!
0C!
0F!
1,!
1=!
1?!
1d
1e
1f
1o
1n
0l
0k
0j
0i
1.
1-
1,
0A!
0B!
1C!
1D!
1E!
1/!
1a
1b
0d
0e
0f
0g
1v
1s
1r
1q
0/
0.
0-
0,
1*
1)
1Z
1]
1^
1_
0v
0s
0p
1'
1&
1%
1"
0Z
0]
0`
1h
1u
1t
1s
0r
0q
0(
0%
0"
1Y
1[
1\
1]
0^
0_
1!
0'
0&
1%
1$
1#
#20000
07
0=
0>
16
1?
0P
1O
1X
0W
0V
0}
0~
1#!
1!!
0"!
0$!
01!
10!
15!
09!
0%!
00!
05!
16!
17!
0:!
0&!
02!
14!
15!
1:!
0'!
0;!
0n
1j
0C!
0*!
0<!
0b
1f
0o
1l
1k
0j
1.
0*
1A!
1F!
0,!
0=!
0?!
0a
1d
1e
0f
1o
1j
1i
0.
1-
1,
0)
1@!
0A!
0D!
0E!
0F!
0/!
1a
1f
1g
0s
1/
1.
1)
0]
1v
1q
0%
1Z
1_
0h
0v
0u
0t
0q
1p
1'
1"
0Y
0Z
0[
0\
0_
1`
0!
1(
0'
0$
0#
0"
#30000
17
1=
1>
1P
1W
1V
1}
1~
1"!
03!
1%!
10!
1&!
12!
04!
05!
15!
06!
07!
18!
19!
1'!
1;!
1A!
1B!
1C!
1F!
1*!
1<!
0j
0i
0@!
0C!
0F!
1,!
1=!
1?!
0f
0g
1n
1m
0l
0k
1j
0/
0.
0A!
0B!
1C!
1D!
1E!
1/!
1b
1c
0d
0e
1f
1v
1s
1r
1q
1.
0-
0,
1+
1*
1Z
1]
1^
1_
0v
0s
0p
1'
1&
1%
1"
0Z
0]
0`
1h
1u
1t
1s
0r
0q
0(
0%
0"
1Y
1[
1\
1]
0^
0_
1!
0'
0&
1%
1$
1#
#40000
07
0=
0>
06
0?
15
0P
0O
1N
0X
0W
0V
0}
0~
0#!
1|
0!!
0"!
0%!
0&!
02!
05!
16!
17!
08!
09!
0'!
0;!
0C!
0*!
0<!
1A!
1F!
0,!
0=!
0?!
0n
0m
1l
1k
0j
1@!
0A!
0D!
0E!
0F!
0/!
0b
0c
1d
1e
0f
0s
0.
1-
1,
0+
0*
0]
1v
1q
0%
1Z
1_
0h
0v
0u
0t
0q
1p
1'
1"
0Y
0Z
0[
0\
0_
1`
0!
1(
0'
0$
0#
0"
#50000
17
1=
1>
1P
1W
1V
1}
1~
1"!
13!
1$!
11!
00!
1%!
10!
15!
07!
0:!
14!
17!
1&!
12!
04!
05!
06!
18!
19!
1'!
1;!
0o
0l
1j
1A!
1B!
1C!
1F!
1*!
1<!
0a
0d
1f
1l
1i
1.
0,
0)
0@!
0C!
0F!
1,!
1=!
1?!
1d
1g
1n
1m
0k
0j
0i
1/
1,
0A!
0B!
1C!
1D!
1E!
1/!
1b
1c
0e
0f
0g
1v
1s
1r
1q
0/
0.
0-
1+
1*
1Z
1]
1^
1_
0v
0s
0p
1'
1&
1%
1"
0Z
0]
0`
1h
1u
1t
1s
0r
0q
0(
0%
0"
1Y
1[
1\
1]
0^
0_
1!
0'
0&
1%
1$
1#
#60000
07
0=
0>
16
1?
0P
1O
1X
0W
0V
0}
0~
1#!
1!!
0"!
0$!
01!
0%!
00!
0&!
02!
16!
08!
09!
10!
07!
19!
0'!
0;!
0C!
0*!
0<!
0n
0m
1k
1A!
1F!
0,!
0=!
0?!
0b
0c
1e
1n
0l
1-
0+
0*
1@!
0A!
0D!
0E!
0F!
0/!
1b
0d
0s
0,
1*
0]
1v
1q
0%
1Z
1_
0h
0v
0u
0t
0q
1p
1'
1"
0Y
0Z
0[
0\
0_
1`
0!
1(
0'
0$
0#
0"
#70000
17
1=
1>
1P
1W
1V
1}
1~
1"!
03!
00!
14!
06!
09!
0n
0k
1i
0b
0e
1g
1/
0-
0*
#80000
07
0=
0>
06
0?
05
0P
0O
0N
0X
0W
0V
0}
0~
0#!
0|
0!!
0"!
#90000
17
1=
1>
1P
1W
1V
1}
1~
1"!
13!
1$!
11!
1%!
10!
1&!
12!
00!
15!
16!
17!
04!
05!
06!
07!
19!
1:!
1'!
1;!
1A!
1B!
1C!
1F!
1*!
1<!
1l
1k
1j
0@!
0C!
0F!
1,!
1=!
1?!
1d
1e
1f
1o
1n
0l
0k
0j
0i
1.
1-
1,
0A!
0B!
1C!
1D!
1E!
1/!
1a
1b
0d
0e
0f
0g
1v
1s
1r
1q
0/
0.
0-
0,
1*
1)
1Z
1]
1^
1_
0v
0s
0p
1'
1&
1%
1"
0Z
0]
0`
1h
1u
1t
1s
0r
0q
0(
0%
0"
1Y
1[
1\
1]
0^
0_
1!
0'
0&
1%
1$
1#
#100000
07
0=
0>
16
1?
0P
1O
1X
0W
0V
0}
0~
1#!
1!!
0"!
0$!
01!
10!
15!
09!
0%!
00!
05!
16!
17!
0:!
0&!
02!
14!
15!
1:!
0'!
0;!
0n
1j
0C!
0*!
0<!
0b
1f
0o
1l
1k
0j
1.
0*
1A!
1F!
0,!
0=!
0?!
0a
1d
1e
0f
1o
1j
1i
0.
1-
1,
0)
1@!
0A!
0D!
0E!
0F!
0/!
1a
1f
1g
0s
1/
1.
1)
0]
1v
1q
0%
1Z
1_
0h
0v
0u
0t
0q
1p
1'
1"
0Y
0Z
0[
0\
0_
1`
0!
1(
0'
0$
0#
0"
#110000
17
1=
1>
1P
1W
1V
1}
1~
1"!
03!
1%!
10!
1&!
12!
04!
05!
15!
06!
07!
18!
19!
1'!
1;!
1A!
1B!
1C!
1F!
1*!
1<!
0j
0i
0@!
0C!
0F!
1,!
1=!
1?!
0f
0g
1n
1m
0l
0k
1j
0/
0.
0A!
0B!
1C!
1D!
1E!
1/!
1b
1c
0d
0e
1f
1v
1s
1r
1q
1.
0-
0,
1+
1*
1Z
1]
1^
1_
0v
0s
0p
1'
1&
1%
1"
0Z
0]
0`
1h
1u
1t
1s
0r
0q
0(
0%
0"
1Y
1[
1\
1]
0^
0_
1!
0'
0&
1%
1$
1#
#120000
07
0=
0>
06
0?
15
0P
0O
1N
0X
0W
0V
0}
0~
0#!
1|
0!!
0"!
0%!
0&!
02!
05!
16!
17!
08!
09!
0'!
0;!
0C!
0*!
0<!
1A!
1F!
0,!
0=!
0?!
0n
0m
1l
1k
0j
1@!
0A!
0D!
0E!
0F!
0/!
0b
0c
1d
1e
0f
0s
0.
1-
1,
0+
0*
0]
1v
1q
0%
1Z
1_
0h
0v
0u
0t
0q
1p
1'
1"
0Y
0Z
0[
0\
0_
1`
0!
1(
0'
0$
0#
0"
#130000
17
1=
1>
1P
1W
1V
1}
1~
1"!
13!
1$!
11!
00!
1%!
10!
15!
07!
0:!
14!
17!
1&!
12!
04!
05!
06!
18!
19!
1'!
1;!
0o
0l
1j
1A!
1B!
1C!
1F!
1*!
1<!
0a
0d
1f
1l
1i
1.
0,
0)
0@!
0C!
0F!
1,!
1=!
1?!
1d
1g
1n
1m
0k
0j
0i
1/
1,
0A!
0B!
1C!
1D!
1E!
1/!
1b
1c
0e
0f
0g
1v
1s
1r
1q
0/
0.
0-
1+
1*
1Z
1]
1^
1_
0v
0s
0p
1'
1&
1%
1"
0Z
0]
0`
1h
1u
1t
1s
0r
0q
0(
0%
0"
1Y
1[
1\
1]
0^
0_
1!
0'
0&
1%
1$
1#
#140000
07
0=
0>
16
1?
0P
1O
1X
0W
0V
0}
0~
1#!
1!!
0"!
0$!
01!
0%!
00!
0&!
02!
16!
08!
09!
10!
07!
19!
0'!
0;!
0C!
0*!
0<!
0n
0m
1k
1A!
1F!
0,!
0=!
0?!
0b
0c
1e
1n
0l
1-
0+
0*
1@!
0A!
0D!
0E!
0F!
0/!
1b
0d
0s
0,
1*
0]
1v
1q
0%
1Z
1_
0h
0v
0u
0t
0q
1p
1'
1"
0Y
0Z
0[
0\
0_
1`
0!
1(
0'
0$
0#
0"
#150000
17
1=
1>
1P
1W
1V
1}
1~
1"!
03!
00!
14!
06!
09!
0n
0k
1i
0b
0e
1g
1/
0-
0*
#160000
07
0=
0>
06
0?
05
0P
0O
0N
0X
0W
0V
0}
0~
0#!
0|
0!!
0"!
#170000
17
1=
1>
1P
1W
1V
1}
1~
1"!
13!
1$!
11!
1%!
10!
1&!
12!
00!
15!
16!
17!
04!
05!
06!
07!
19!
1:!
1'!
1;!
1A!
1B!
1C!
1F!
1*!
1<!
1l
1k
1j
0@!
0C!
0F!
1,!
1=!
1?!
1d
1e
1f
1o
1n
0l
0k
0j
0i
1.
1-
1,
0A!
0B!
1C!
1D!
1E!
1/!
1a
1b
0d
0e
0f
0g
1v
1s
1r
1q
0/
0.
0-
0,
1*
1)
1Z
1]
1^
1_
0v
0s
0p
1'
1&
1%
1"
0Z
0]
0`
1h
1u
1t
1s
0r
0q
0(
0%
0"
1Y
1[
1\
1]
0^
0_
1!
0'
0&
1%
1$
1#
#180000
07
0=
0>
16
1?
0P
1O
1X
0W
0V
0}
0~
1#!
1!!
0"!
0$!
01!
10!
15!
09!
0%!
00!
05!
16!
17!
0:!
0&!
02!
14!
15!
1:!
0'!
0;!
0n
1j
0C!
0*!
0<!
0b
1f
0o
1l
1k
0j
1.
0*
1A!
1F!
0,!
0=!
0?!
0a
1d
1e
0f
1o
1j
1i
0.
1-
1,
0)
1@!
0A!
0D!
0E!
0F!
0/!
1a
1f
1g
0s
1/
1.
1)
0]
1v
1q
0%
1Z
1_
0h
0v
0u
0t
0q
1p
1'
1"
0Y
0Z
0[
0\
0_
1`
0!
1(
0'
0$
0#
0"
#190000
17
1=
1>
1P
1W
1V
1}
1~
1"!
03!
1%!
10!
1&!
12!
04!
05!
15!
06!
07!
18!
19!
1'!
1;!
1A!
1B!
1C!
1F!
1*!
1<!
0j
0i
0@!
0C!
0F!
1,!
1=!
1?!
0f
0g
1n
1m
0l
0k
1j
0/
0.
0A!
0B!
1C!
1D!
1E!
1/!
1b
1c
0d
0e
1f
1v
1s
1r
1q
1.
0-
0,
1+
1*
1Z
1]
1^
1_
0v
0s
0p
1'
1&
1%
1"
0Z
0]
0`
1h
1u
1t
1s
0r
0q
0(
0%
0"
1Y
1[
1\
1]
0^
0_
1!
0'
0&
1%
1$
1#
#200000
07
0=
0>
06
0?
15
0P
0O
1N
0X
0W
0V
0}
0~
0#!
1|
0!!
0"!
0%!
0&!
02!
05!
16!
17!
08!
09!
0'!
0;!
0C!
0*!
0<!
1A!
1F!
0,!
0=!
0?!
0n
0m
1l
1k
0j
1@!
0A!
0D!
0E!
0F!
0/!
0b
0c
1d
1e
0f
0s
0.
1-
1,
0+
0*
0]
1v
1q
0%
1Z
1_
0h
0v
0u
0t
0q
1p
1'
1"
0Y
0Z
0[
0\
0_
1`
0!
1(
0'
0$
0#
0"
#210000
17
1=
1>
1P
1W
1V
1}
1~
1"!
13!
1$!
11!
00!
1%!
10!
15!
07!
0:!
14!
17!
1&!
12!
04!
05!
06!
18!
19!
1'!
1;!
0o
0l
1j
1A!
1B!
1C!
1F!
1*!
1<!
0a
0d
1f
1l
1i
1.
0,
0)
0@!
0C!
0F!
1,!
1=!
1?!
1d
1g
1n
1m
0k
0j
0i
1/
1,
0A!
0B!
1C!
1D!
1E!
1/!
1b
1c
0e
0f
0g
1v
1s
1r
1q
0/
0.
0-
1+
1*
1Z
1]
1^
1_
0v
0s
0p
1'
1&
1%
1"
0Z
0]
0`
1h
1u
1t
1s
0r
0q
0(
0%
0"
1Y
1[
1\
1]
0^
0_
1!
0'
0&
1%
1$
1#
#220000
07
0=
0>
16
1?
0P
1O
1X
0W
0V
0}
0~
1#!
1!!
0"!
0$!
01!
0%!
00!
0&!
02!
16!
08!
09!
10!
07!
19!
0'!
0;!
0C!
0*!
0<!
0n
0m
1k
1A!
1F!
0,!
0=!
0?!
0b
0c
1e
1n
0l
1-
0+
0*
1@!
0A!
0D!
0E!
0F!
0/!
1b
0d
0s
0,
1*
0]
1v
1q
0%
1Z
1_
0h
0v
0u
0t
0q
1p
1'
1"
0Y
0Z
0[
0\
0_
1`
0!
1(
0'
0$
0#
0"
#230000
17
1=
1>
1P
1W
1V
1}
1~
1"!
03!
00!
14!
06!
09!
0n
0k
1i
0b
0e
1g
1/
0-
0*
#240000
07
0=
0>
06
0?
05
0P
0O
0N
0X
0W
0V
0}
0~
0#!
0|
0!!
0"!
#250000
17
1=
1>
1P
1W
1V
1}
1~
1"!
13!
1$!
11!
1%!
10!
1&!
12!
00!
15!
16!
17!
04!
05!
06!
07!
19!
1:!
1'!
1;!
1A!
1B!
1C!
1F!
1*!
1<!
1l
1k
1j
0@!
0C!
0F!
1,!
1=!
1?!
1d
1e
1f
1o
1n
0l
0k
0j
0i
1.
1-
1,
0A!
0B!
1C!
1D!
1E!
1/!
1a
1b
0d
0e
0f
0g
1v
1s
1r
1q
0/
0.
0-
0,
1*
1)
1Z
1]
1^
1_
0v
0s
0p
1'
1&
1%
1"
0Z
0]
0`
1h
1u
1t
1s
0r
0q
0(
0%
0"
1Y
1[
1\
1]
0^
0_
1!
0'
0&
1%
1$
1#
#260000
07
0=
0>
16
1?
0P
1O
1X
0W
0V
0}
0~
1#!
1!!
0"!
0$!
01!
10!
15!
09!
0%!
00!
05!
16!
17!
0:!
0&!
02!
14!
15!
1:!
0'!
0;!
0n
1j
0C!
0*!
0<!
0b
1f
0o
1l
1k
0j
1.
0*
1A!
1F!
0,!
0=!
0?!
0a
1d
1e
0f
1o
1j
1i
0.
1-
1,
0)
1@!
0A!
0D!
0E!
0F!
0/!
1a
1f
1g
0s
1/
1.
1)
0]
1v
1q
0%
1Z
1_
0h
0v
0u
0t
0q
1p
1'
1"
0Y
0Z
0[
0\
0_
1`
0!
1(
0'
0$
0#
0"
#270000
17
1=
1>
1P
1W
1V
1}
1~
1"!
03!
1%!
10!
1&!
12!
04!
05!
15!
06!
07!
18!
19!
1'!
1;!
1A!
1B!
1C!
1F!
1*!
1<!
0j
0i
0@!
0C!
0F!
1,!
1=!
1?!
0f
0g
1n
1m
0l
0k
1j
0/
0.
0A!
0B!
1C!
1D!
1E!
1/!
1b
1c
0d
0e
1f
1v
1s
1r
1q
1.
0-
0,
1+
1*
1Z
1]
1^
1_
0v
0s
0p
1'
1&
1%
1"
0Z
0]
0`
1h
1u
1t
1s
0r
0q
0(
0%
0"
1Y
1[
1\
1]
0^
0_
1!
0'
0&
1%
1$
1#
#280000
07
0=
0>
06
0?
15
0P
0O
1N
0X
0W
0V
0}
0~
0#!
1|
0!!
0"!
0%!
0&!
02!
05!
16!
17!
08!
09!
0'!
0;!
0C!
0*!
0<!
1A!
1F!
0,!
0=!
0?!
0n
0m
1l
1k
0j
1@!
0A!
0D!
0E!
0F!
0/!
0b
0c
1d
1e
0f
0s
0.
1-
1,
0+
0*
0]
1v
1q
0%
1Z
1_
0h
0v
0u
0t
0q
1p
1'
1"
0Y
0Z
0[
0\
0_
1`
0!
1(
0'
0$
0#
0"
#290000
17
1=
1>
1P
1W
1V
1}
1~
1"!
13!
1$!
11!
00!
1%!
10!
15!
07!
0:!
14!
17!
1&!
12!
04!
05!
06!
18!
19!
1'!
1;!
0o
0l
1j
1A!
1B!
1C!
1F!
1*!
1<!
0a
0d
1f
1l
1i
1.
0,
0)
0@!
0C!
0F!
1,!
1=!
1?!
1d
1g
1n
1m
0k
0j
0i
1/
1,
0A!
0B!
1C!
1D!
1E!
1/!
1b
1c
0e
0f
0g
1v
1s
1r
1q
0/
0.
0-
1+
1*
1Z
1]
1^
1_
0v
0s
0p
1'
1&
1%
1"
0Z
0]
0`
1h
1u
1t
1s
0r
0q
0(
0%
0"
1Y
1[
1\
1]
0^
0_
1!
0'
0&
1%
1$
1#
#300000
07
0=
0>
16
1?
0P
1O
1X
0W
0V
0}
0~
1#!
1!!
0"!
0$!
01!
0%!
00!
0&!
02!
16!
08!
09!
10!
07!
19!
0'!
0;!
0C!
0*!
0<!
0n
0m
1k
1A!
1F!
0,!
0=!
0?!
0b
0c
1e
1n
0l
1-
0+
0*
1@!
0A!
0D!
0E!
0F!
0/!
1b
0d
0s
0,
1*
0]
1v
1q
0%
1Z
1_
0h
0v
0u
0t
0q
1p
1'
1"
0Y
0Z
0[
0\
0_
1`
0!
1(
0'
0$
0#
0"
#310000
17
1=
1>
1P
1W
1V
1}
1~
1"!
03!
00!
14!
06!
09!
0n
0k
1i
0b
0e
1g
1/
0-
0*
#320000
07
0=
0>
06
0?
05
0P
0O
0N
0X
0W
0V
0}
0~
0#!
0|
0!!
0"!
#330000
17
1=
1>
1P
1W
1V
1}
1~
1"!
13!
1$!
11!
1%!
10!
1&!
12!
00!
15!
16!
17!
04!
05!
06!
07!
19!
1:!
1'!
1;!
1A!
1B!
1C!
1F!
1*!
1<!
1l
1k
1j
0@!
0C!
0F!
1,!
1=!
1?!
1d
1e
1f
1o
1n
0l
0k
0j
0i
1.
1-
1,
0A!
0B!
1C!
1D!
1E!
1/!
1a
1b
0d
0e
0f
0g
1v
1s
1r
1q
0/
0.
0-
0,
1*
1)
1Z
1]
1^
1_
0v
0s
0p
1'
1&
1%
1"
0Z
0]
0`
1h
1u
1t
1s
0r
0q
0(
0%
0"
1Y
1[
1\
1]
0^
0_
1!
0'
0&
1%
1$
1#
#340000
07
0=
0>
16
1?
0P
1O
1X
0W
0V
0}
0~
1#!
1!!
0"!
0$!
01!
10!
15!
09!
0%!
00!
05!
16!
17!
0:!
0&!
02!
14!
15!
1:!
0'!
0;!
0n
1j
0C!
0*!
0<!
0b
1f
0o
1l
1k
0j
1.
0*
1A!
1F!
0,!
0=!
0?!
0a
1d
1e
0f
1o
1j
1i
0.
1-
1,
0)
1@!
0A!
0D!
0E!
0F!
0/!
1a
1f
1g
0s
1/
1.
1)
0]
1v
1q
0%
1Z
1_
0h
0v
0u
0t
0q
1p
1'
1"
0Y
0Z
0[
0\
0_
1`
0!
1(
0'
0$
0#
0"
#350000
17
1=
1>
1P
1W
1V
1}
1~
1"!
03!
1%!
10!
1&!
12!
04!
05!
15!
06!
07!
18!
19!
1'!
1;!
1A!
1B!
1C!
1F!
1*!
1<!
0j
0i
0@!
0C!
0F!
1,!
1=!
1?!
0f
0g
1n
1m
0l
0k
1j
0/
0.
0A!
0B!
1C!
1D!
1E!
1/!
1b
1c
0d
0e
1f
1v
1s
1r
1q
1.
0-
0,
1+
1*
1Z
1]
1^
1_
0v
0s
0p
1'
1&
1%
1"
0Z
0]
0`
1h
1u
1t
1s
0r
0q
0(
0%
0"
1Y
1[
1\
1]
0^
0_
1!
0'
0&
1%
1$
1#
#360000
07
0=
0>
06
0?
15
0P
0O
1N
0X
0W
0V
0}
0~
0#!
1|
0!!
0"!
0%!
0&!
02!
05!
16!
17!
08!
09!
0'!
0;!
0C!
0*!
0<!
1A!
1F!
0,!
0=!
0?!
0n
0m
1l
1k
0j
1@!
0A!
0D!
0E!
0F!
0/!
0b
0c
1d
1e
0f
0s
0.
1-
1,
0+
0*
0]
1v
1q
0%
1Z
1_
0h
0v
0u
0t
0q
1p
1'
1"
0Y
0Z
0[
0\
0_
1`
0!
1(
0'
0$
0#
0"
#370000
17
1=
1>
1P
1W
1V
1}
1~
1"!
13!
1$!
11!
00!
1%!
10!
15!
07!
0:!
14!
17!
1&!
12!
04!
05!
06!
18!
19!
1'!
1;!
0o
0l
1j
1A!
1B!
1C!
1F!
1*!
1<!
0a
0d
1f
1l
1i
1.
0,
0)
0@!
0C!
0F!
1,!
1=!
1?!
1d
1g
1n
1m
0k
0j
0i
1/
1,
0A!
0B!
1C!
1D!
1E!
1/!
1b
1c
0e
0f
0g
1v
1s
1r
1q
0/
0.
0-
1+
1*
1Z
1]
1^
1_
0v
0s
0p
1'
1&
1%
1"
0Z
0]
0`
1h
1u
1t
1s
0r
0q
0(
0%
0"
1Y
1[
1\
1]
0^
0_
1!
0'
0&
1%
1$
1#
#380000
07
0=
0>
16
1?
0P
1O
1X
0W
0V
0}
0~
1#!
1!!
0"!
0$!
01!
0%!
00!
0&!
02!
16!
08!
09!
10!
07!
19!
0'!
0;!
0C!
0*!
0<!
0n
0m
1k
1A!
1F!
0,!
0=!
0?!
0b
0c
1e
1n
0l
1-
0+
0*
1@!
0A!
0D!
0E!
0F!
0/!
1b
0d
0s
0,
1*
0]
1v
1q
0%
1Z
1_
0h
0v
0u
0t
0q
1p
1'
1"
0Y
0Z
0[
0\
0_
1`
0!
1(
0'
0$
0#
0"
#390000
17
1=
1>
1P
1W
1V
1}
1~
1"!
03!
00!
14!
06!
09!
0n
0k
1i
0b
0e
1g
1/
0-
0*
#400000
07
0=
0>
06
0?
05
0P
0O
0N
0X
0W
0V
0}
0~
0#!
0|
0!!
0"!
#410000
17
1=
1>
1P
1W
1V
1}
1~
1"!
13!
1$!
11!
1%!
10!
1&!
12!
00!
15!
16!
17!
04!
05!
06!
07!
19!
1:!
1'!
1;!
1A!
1B!
1C!
1F!
1*!
1<!
1l
1k
1j
0@!
0C!
0F!
1,!
1=!
1?!
1d
1e
1f
1o
1n
0l
0k
0j
0i
1.
1-
1,
0A!
0B!
1C!
1D!
1E!
1/!
1a
1b
0d
0e
0f
0g
1v
1s
1r
1q
0/
0.
0-
0,
1*
1)
1Z
1]
1^
1_
0v
0s
0p
1'
1&
1%
1"
0Z
0]
0`
1h
1u
1t
1s
0r
0q
0(
0%
0"
1Y
1[
1\
1]
0^
0_
1!
0'
0&
1%
1$
1#
#420000
07
0=
0>
16
1?
0P
1O
1X
0W
0V
0}
0~
1#!
1!!
0"!
0$!
01!
10!
15!
09!
0%!
00!
05!
16!
17!
0:!
0&!
02!
14!
15!
1:!
0'!
0;!
0n
1j
0C!
0*!
0<!
0b
1f
0o
1l
1k
0j
1.
0*
1A!
1F!
0,!
0=!
0?!
0a
1d
1e
0f
1o
1j
1i
0.
1-
1,
0)
1@!
0A!
0D!
0E!
0F!
0/!
1a
1f
1g
0s
1/
1.
1)
0]
1v
1q
0%
1Z
1_
0h
0v
0u
0t
0q
1p
1'
1"
0Y
0Z
0[
0\
0_
1`
0!
1(
0'
0$
0#
0"
#430000
17
1=
1>
1P
1W
1V
1}
1~
1"!
03!
1%!
10!
1&!
12!
04!
05!
15!
06!
07!
18!
19!
1'!
1;!
1A!
1B!
1C!
1F!
1*!
1<!
0j
0i
0@!
0C!
0F!
1,!
1=!
1?!
0f
0g
1n
1m
0l
0k
1j
0/
0.
0A!
0B!
1C!
1D!
1E!
1/!
1b
1c
0d
0e
1f
1v
1s
1r
1q
1.
0-
0,
1+
1*
1Z
1]
1^
1_
0v
0s
0p
1'
1&
1%
1"
0Z
0]
0`
1h
1u
1t
1s
0r
0q
0(
0%
0"
1Y
1[
1\
1]
0^
0_
1!
0'
0&
1%
1$
1#
