lab5/simulation/qsim/lab5_01.msim.vcd
$comment
	File created using the following command:
		vcd file lab5_01.msim.vcd -direction
$end
$date
	Sat Nov 12 22:12:32 2022
$end
$version
	ModelSim Version 10.5b
$end
$timescale
	1ps
$end

$scope module lab5_01_vhd_vec_tst $end
$var wire 1 ! clear $end
$var wire 1 " clk $end
$var wire 1 # di [7] $end
$var wire 1 $ di [6] $end
$var wire 1 % di [5] $end
$var wire 1 & di [4] $end
$var wire 1 ' di [3] $end
$var wire 1 ( di [2] $end
$var wire 1 ) di [1] $end
$var wire 1 * di [0] $end
$var wire 1 + load $end
$var wire 1 , lr_sel $end
$var wire 1 - qo [7] $end
$var wire 1 . qo [6] $end
$var wire 1 / qo [5] $end
$var wire 1 0 qo [4] $end
$var wire 1 1 qo [3] $end
$var wire 1 2 qo [2] $end
$var wire 1 3 qo [1] $end
$var wire 1 4 qo [0] $end
$var wire 1 5 sdi $end

$scope module i1 $end
$var wire 1 6 gnd $end
$var wire 1 7 vcc $end
$var wire 1 8 unknown $end
$var wire 1 9 devoe $end
$var wire 1 : devclrn $end
$var wire 1 ; devpor $end
$var wire 1 < ww_devoe $end
$var wire 1 = ww_devclrn $end
$var wire 1 > ww_devpor $end
$var wire 1 ? ww_clk $end
$var wire 1 @ ww_clear $end
$var wire 1 A ww_load $end
$var wire 1 B ww_lr_sel $end
$var wire 1 C ww_di [7] $end
$var wire 1 D ww_di [6] $end
$var wire 1 E ww_di [5] $end
$var wire 1 F ww_di [4] $end
$var wire 1 G ww_di [3] $end
$var wire 1 H ww_di [2] $end
$var wire 1 I ww_di [1] $end
$var wire 1 J ww_di [0] $end
$var wire 1 K ww_sdi $end
$var wire 1 L ww_qo [7] $end
$var wire 1 M ww_qo [6] $end
$var wire 1 N ww_qo [5] $end
$var wire 1 O ww_qo [4] $end
$var wire 1 P ww_qo [3] $end
$var wire 1 Q ww_qo [2] $end
$var wire 1 R ww_qo [1] $end
$var wire 1 S ww_qo [0] $end
$var wire 1 T \qo[0]~output_o\ $end
$var wire 1 U \qo[1]~output_o\ $end
$var wire 1 V \qo[2]~output_o\ $end
$var wire 1 W \qo[3]~output_o\ $end
$var wire 1 X \qo[4]~output_o\ $end
$var wire 1 Y \qo[5]~output_o\ $end
$var wire 1 Z \qo[6]~output_o\ $end
$var wire 1 [ \qo[7]~output_o\ $end
$var wire 1 \ \clk~input_o\ $end
$var wire 1 ] \sdi~input_o\ $end
$var wire 1 ^ \lr_sel~input_o\ $end
$var wire 1 _ \qo[7]~7_combout\ $end
$var wire 1 ` \di[7]~input_o\ $end
$var wire 1 a \clear~input_o\ $end
$var wire 1 b \load~input_o\ $end
$var wire 1 c \qo[7]~reg0_q\ $end
$var wire 1 d \qo[6]~6_combout\ $end
$var wire 1 e \di[6]~input_o\ $end
$var wire 1 f \qo[6]~reg0_q\ $end
$var wire 1 g \qo[5]~5_combout\ $end
$var wire 1 h \di[5]~input_o\ $end
$var wire 1 i \qo[5]~reg0_q\ $end
$var wire 1 j \qo[4]~4_combout\ $end
$var wire 1 k \di[4]~input_o\ $end
$var wire 1 l \qo[4]~reg0_q\ $end
$var wire 1 m \qo[3]~3_combout\ $end
$var wire 1 n \di[3]~input_o\ $end
$var wire 1 o \qo[3]~reg0_q\ $end
$var wire 1 p \qo[2]~2_combout\ $end
$var wire 1 q \di[2]~input_o\ $end
$var wire 1 r \qo[2]~reg0_q\ $end
$var wire 1 s \qo[1]~1_combout\ $end
$var wire 1 t \di[1]~input_o\ $end
$var wire 1 u \qo[1]~reg0_q\ $end
$var wire 1 v \qo[0]~0_combout\ $end
$var wire 1 w \di[0]~input_o\ $end
$var wire 1 x \qo[0]~reg0_q\ $end
$upscope $end
$upscope $end
$enddefinitions $end
#0
$dumpvars
0!
0"
0+
0,
15
06
17
x8
19
1:
1;
1<
1=
1>
0?
0@
0A
0B
1K
0T
0U
0V
0W
0X
0Y
0Z
0[
0\
1]
0^
0_
0`
0a
0b
0c
0d
0e
0f
0g
0h
0i
0j
0k
0l
0m
0n
0o
0p
0q
0r
0s
0t
0u
1v
0w
0x
0#
0$
0%
0&
0'
0(
0)
0*
0-
0.
0/
00
01
02
03
04
0C
0D
0E
0F
0G
0H
0I
0J
0L
0M
0N
0O
0P
0Q
0R
0S
$end
#20000
1"
1?
1\
1x
1s
1T
1S
14
#30000
05
0K
0]
0v
#40000
0"
0?
0\
#60000
1"
1?
1\
1u
0x
0s
1p
0T
1U
0S
1R
04
13
#80000
0"
0?
0\
#100000
1"
1?
1\
1r
0u
0p
1m
0U
1V
0R
1Q
03
12
#120000
0"
0?
0\
#140000
1"
1?
1\
1o
0r
0m
1j
0V
1W
0Q
1P
02
11
#160000
0"
0?
0\
#180000
1"
1?
1\
1l
0o
0j
1g
0W
1X
0P
1O
01
10
#200000
0"
0?
0\
#220000
1"
1?
1\
1i
0l
0g
1d
0X
1Y
0O
1N
00
1/
#240000
0"
0?
0\
#260000
1"
1?
1\
1f
0i
0d
1_
0Y
1Z
0N
1M
0/
1.
#280000
0"
0?
0\
#300000
1"
1?
1\
1c
0f
0_
0Z
1[
0M
1L
0.
1-
#320000
0"
0?
0\
#340000
1"
1?
1\
0c
0[
0L
0-
#360000
0"
0?
0\
#380000
1"
15
1?
1K
1]
1\
1v
#400000
0"
0?
0\
#420000
1"
1?
1\
1x
1s
1T
1S
14
#430000
05
0K
0]
0v
#440000
0"
0?
0\
#460000
1"
1?
1\
1u
0x
0s
1p
0T
1U
0S
1R
04
13
#480000
0"
0?
0\
#500000
1"
1?
1\
1r
0u
0p
1m
0U
1V
0R
1Q
03
12
#520000
0"
0?
0\
#540000
1"
1?
1\
1o
0r
0m
1j
0V
1W
0Q
1P
02
11
#560000
0"
0?
0\
#580000
1"
1?
1\
1l
0o
0j
1g
0W
1X
0P
1O
01
10
#600000
0"
0?
0\
#620000
1"
1?
1\
1i
0l
0g
1d
0X
1Y
0O
1N
00
1/
#640000
0"
0?
0\
#660000
1"
1?
1\
1f
0i
0d
1_
0Y
1Z
0N
1M
0/
1.
#680000
0"
0?
0\
#700000
1"
1?
1\
1c
0f
0_
0Z
1[
0M
1L
0.
1-
#720000
0"
0?
0\
#740000
1"
1?
1\
0c
0[
0L
0-
#760000
0"
0?
0\
#780000
1"
1?
1\
#800000
0"
0?
0\
#820000
1"
1?
1\
#840000
0"
0?
0\
#860000
1"
1?
1\
#880000
0"
0?
0\
#900000
1"
1?
1\
#920000
0"
0?
0\
#940000
1"
1?
1\
#960000
0"
0?
0\
#980000
1"
1?
1\
