lab3/lab3_02/simulation/qsim/lab3_02.msim.vcd
$comment
	File created using the following command:
		vcd file lab3_02.msim.vcd -direction
$end
$date
	Mon Oct 10 20:31:00 2022
$end
$version
	ModelSim Version 10.5b
$end
$timescale
	1ps
$end

$scope module lab3_02_vhd_vec_tst $end
$var wire 1 ! A0 [7] $end
$var wire 1 " A0 [6] $end
$var wire 1 # A0 [5] $end
$var wire 1 $ A0 [4] $end
$var wire 1 % A0 [3] $end
$var wire 1 & A0 [2] $end
$var wire 1 ' A0 [1] $end
$var wire 1 ( A0 [0] $end
$var wire 1 ) B0 [7] $end
$var wire 1 * B0 [6] $end
$var wire 1 + B0 [5] $end
$var wire 1 , B0 [4] $end
$var wire 1 - B0 [3] $end
$var wire 1 . B0 [2] $end
$var wire 1 / B0 [1] $end
$var wire 1 0 B0 [0] $end
$var wire 1 1 seg [13] $end
$var wire 1 2 seg [12] $end
$var wire 1 3 seg [11] $end
$var wire 1 4 seg [10] $end
$var wire 1 5 seg [9] $end
$var wire 1 6 seg [8] $end
$var wire 1 7 seg [7] $end
$var wire 1 8 seg [6] $end
$var wire 1 9 seg [5] $end
$var wire 1 : seg [4] $end
$var wire 1 ; seg [3] $end
$var wire 1 < seg [2] $end
$var wire 1 = seg [1] $end
$var wire 1 > seg [0] $end

$scope module i1 $end
$var wire 1 ? gnd $end
$var wire 1 @ vcc $end
$var wire 1 A unknown $end
$var wire 1 B devoe $end
$var wire 1 C devclrn $end
$var wire 1 D devpor $end
$var wire 1 E ww_devoe $end
$var wire 1 F ww_devclrn $end
$var wire 1 G ww_devpor $end
$var wire 1 H ww_A0 [7] $end
$var wire 1 I ww_A0 [6] $end
$var wire 1 J ww_A0 [5] $end
$var wire 1 K ww_A0 [4] $end
$var wire 1 L ww_A0 [3] $end
$var wire 1 M ww_A0 [2] $end
$var wire 1 N ww_A0 [1] $end
$var wire 1 O ww_A0 [0] $end
$var wire 1 P ww_B0 [7] $end
$var wire 1 Q ww_B0 [6] $end
$var wire 1 R ww_B0 [5] $end
$var wire 1 S ww_B0 [4] $end
$var wire 1 T ww_B0 [3] $end
$var wire 1 U ww_B0 [2] $end
$var wire 1 V ww_B0 [1] $end
$var wire 1 W ww_B0 [0] $end
$var wire 1 X ww_seg [13] $end
$var wire 1 Y ww_seg [12] $end
$var wire 1 Z ww_seg [11] $end
$var wire 1 [ ww_seg [10] $end
$var wire 1 \ ww_seg [9] $end
$var wire 1 ] ww_seg [8] $end
$var wire 1 ^ ww_seg [7] $end
$var wire 1 _ ww_seg [6] $end
$var wire 1 ` ww_seg [5] $end
$var wire 1 a ww_seg [4] $end
$var wire 1 b ww_seg [3] $end
$var wire 1 c ww_seg [2] $end
$var wire 1 d ww_seg [1] $end
$var wire 1 e ww_seg [0] $end
$var wire 1 f \seg[0]~output_o\ $end
$var wire 1 g \seg[1]~output_o\ $end
$var wire 1 h \seg[2]~output_o\ $end
$var wire 1 i \seg[3]~output_o\ $end
$var wire 1 j \seg[4]~output_o\ $end
$var wire 1 k \seg[5]~output_o\ $end
$var wire 1 l \seg[6]~output_o\ $end
$var wire 1 m \seg[7]~output_o\ $end
$var wire 1 n \seg[8]~output_o\ $end
$var wire 1 o \seg[9]~output_o\ $end
$var wire 1 p \seg[10]~output_o\ $end
$var wire 1 q \seg[11]~output_o\ $end
$var wire 1 r \seg[12]~output_o\ $end
$var wire 1 s \seg[13]~output_o\ $end
$var wire 1 t \A0[1]~input_o\ $end
$var wire 1 u \B0[0]~input_o\ $end
$var wire 1 v \A0[0]~input_o\ $end
$var wire 1 w \B0[1]~input_o\ $end
$var wire 1 x \stage1|Cout~0_combout\ $end
$var wire 1 y \B0[2]~input_o\ $end
$var wire 1 z \A0[2]~input_o\ $end
$var wire 1 { \stage2|Cout~0_combout\ $end
$var wire 1 | \stage1|s~0_combout\ $end
$var wire 1 } \B0[3]~input_o\ $end
$var wire 1 ~ \A0[3]~input_o\ $end
$var wire 1 !! \Cout0~1_combout\ $end
$var wire 1 "! \stage2|s~0_combout\ $end
$var wire 1 #! \Cout0~0_combout\ $end
$var wire 1 $! \stage5|s~0_combout\ $end
$var wire 1 %! \stage3|s~combout\ $end
$var wire 1 &! \stage7|s~combout\ $end
$var wire 1 '! \stage6|s~combout\ $end
$var wire 1 (! \stage0|s~0_combout\ $end
$var wire 1 )! \stage16|g0~0_combout\ $end
$var wire 1 *! \stage16|f0~0_combout\ $end
$var wire 1 +! \stage16|e0~0_combout\ $end
$var wire 1 ,! \stage16|d0~2_combout\ $end
$var wire 1 -! \stage16|d0~3_combout\ $end
$var wire 1 .! \stage16|d0~4_combout\ $end
$var wire 1 /! \stage16|c0~0_combout\ $end
$var wire 1 0! \stage16|b0~0_combout\ $end
$var wire 1 1! \stage16|a0~0_combout\ $end
$var wire 1 2! \B0[5]~input_o\ $end
$var wire 1 3! \B0[4]~input_o\ $end
$var wire 1 4! \A0[4]~input_o\ $end
$var wire 1 5! \stage8|Cout~0_combout\ $end
$var wire 1 6! \A0[5]~input_o\ $end
$var wire 1 7! \stage9|Cout~0_combout\ $end
$var wire 1 8! \A0[6]~input_o\ $end
$var wire 1 9! \B0[6]~input_o\ $end
$var wire 1 :! \stage10|Cout~0_combout\ $end
$var wire 1 ;! \B0[7]~input_o\ $end
$var wire 1 <! \stage9|s~0_combout\ $end
$var wire 1 =! \Cout1~0_combout\ $end
$var wire 1 >! \A0[7]~input_o\ $end
$var wire 1 ?! \Cout1~1_combout\ $end
$var wire 1 @! \stage13|s~2_combout\ $end
$var wire 1 A! \stage10|s~0_combout\ $end
$var wire 1 B! \stage14|s~combout\ $end
$var wire 1 C! \stage8|s~combout\ $end
$var wire 1 D! \stage15|s~combout\ $end
$var wire 1 E! \stage16|g1~0_combout\ $end
$var wire 1 F! \stage16|f1~0_combout\ $end
$var wire 1 G! \stage16|e1~0_combout\ $end
$var wire 1 H! \stage16|d1~0_combout\ $end
$var wire 1 I! \stage16|d1~1_combout\ $end
$var wire 1 J! \stage16|d1~2_combout\ $end
$var wire 1 K! \stage16|c1~0_combout\ $end
$var wire 1 L! \stage16|b1~0_combout\ $end
$var wire 1 M! \stage16|a1~0_combout\ $end
$upscope $end
$upscope $end
$enddefinitions $end
#0
$dumpvars
0?
1@
xA
1B
1C
1D
1E
1F
1G
1f
0g
0h
0i
0j
0k
0l
1m
0n
0o
0p
0q
0r
0s
0t
0u
0v
0w
0x
0y
0z
0{
0|
0}
0~
0!!
0"!
0#!
0$!
0%!
0&!
0'!
0(!
1)!
0*!
0+!
0,!
0-!
0.!
0/!
00!
01!
02!
03!
04!
05!
06!
07!
08!
09!
0:!
0;!
0<!
0=!
0>!
0?!
0@!
0A!
0B!
0C!
0D!
1E!
0F!
0G!
0H!
0I!
0J!
0K!
0L!
0M!
0!
0"
0#
0$
0%
0&
0'
0(
0)
0*
0+
0,
0-
0.
0/
00
01
02
03
04
05
06
17
08
09
0:
0;
0<
0=
1>
0H
0I
0J
0K
0L
0M
0N
0O
0P
0Q
0R
0S
0T
0U
0V
0W
0X
0Y
0Z
0[
0\
0]
1^
0_
0`
0a
0b
0c
0d
1e
$end
#40000
1(
10
1O
1W
1u
1v
1|
1$!
1-!
0)!
1*!
1/!
1j
1g
0f
1a
1d
0e
0>
1=
1:
#80000
0(
00
1'
1/
0O
1N
0W
1V
1w
0u
1t
0v
1x
0|
0$!
0-!
1"!
1'!
1-!
1)!
0*!
0/!
0)!
1+!
1,!
11!
1.!
0j
0g
1f
0a
0d
1e
1l
1h
0f
1>
0=
0:
1_
1c
0e
1i
0>
1<
18
1b
1;
#120000
1(
10
1O
1W
1u
1v
1|
1$!
0-!
0+!
0,!
10!
01!
0.!
0l
1k
0h
0_
1`
0c
0i
0<
19
08
0b
0;
#160000
0(
00
0'
0/
1&
1.
0O
0N
1M
0W
0V
1U
1y
0w
0u
1z
0t
0v
0x
0|
1{
1#!
1%!
0$!
1-!
0"!
0#!
1+!
1,!
00!
11!
1&!
1$!
0-!
1C!
1F!
1G!
1J!
1M!
0+!
0,!
1/!
10!
01!
1.!
0$!
0'!
0C!
0F!
0G!
0J!
0M!
0/!
00!
0.!
1l
0k
1h
1_
0`
1c
1i
0l
1k
1j
0h
1s
1p
1o
1n
1<
09
18
1b
0_
1`
1a
0c
1X
1[
1\
1]
0i
0k
0j
0s
0p
0o
0n
0<
1;
1:
19
08
16
15
14
11
0b
0`
0a
0X
0[
0\
0]
0;
0:
09
06
05
04
01
#200000
1(
10
1O
1W
1u
1v
1|
1!!
1$!
1-!
1,!
0$!
0&!
0-!
1C!
1F!
1G!
1J!
1M!
1)!
0,!
1.!
0.!
1i
1f
1s
1p
1o
1n
1b
1e
1X
1[
1\
1]
0i
1>
1;
16
15
14
11
0b
0;
#240000
0(
00
1'
1/
0O
1N
0W
1V
1w
0u
1t
0v
1x
0|
0!!
1$!
1&!
1'!
1"!
1#!
0)!
1/!
10!
0$!
0&!
1-!
0C!
0F!
0G!
0J!
0M!
1+!
1,!
0/!
00!
11!
1$!
0'!
1C!
1F!
1G!
1J!
1M!
1*!
0+!
0,!
1/!
01!
1.!
1k
1j
0f
0.!
1`
1a
0e
1l
0k
0j
1h
0s
0p
0o
0n
0>
1:
19
1_
0`
0a
1c
0X
0[
0\
0]
1i
0l
1j
0h
1g
1s
1p
1o
1n
1<
0:
09
18
06
05
04
01
1b
0_
1a
0c
1d
1X
1[
1\
1]
0i
1=
0<
1;
1:
08
16
15
14
11
0b
0;
#280000
1(
10
1O
1W
1u
1v
1|
1!!
0$!
1'!
0*!
1+!
1,!
0/!
11!
1.!
1l
0j
1h
0g
1_
0a
1c
0d
1i
0=
1<
0:
18
1b
1;
#320000
0(
00
0'
0/
0&
0.
1%
1-
0O
0N
0M
1L
0W
0V
0U
1T
1}
0y
0w
0u
1~
0z
0t
0v
0x
0|
0{
0#!
0%!
1$!
0'!
0"!
1*!
0+!
0,!
1/!
01!
1'!
0-!
0*!
0/!
10!
0.!
0l
1j
0h
1g
0_
1a
0c
1d
0i
1k
0j
0g
1=
0<
1:
08
0b
1`
0a
0d
0=
0;
0:
19
#360000
1(
10
1O
1W
1u
1v
1|
0$!
1&!
0'!
00!
0k
0`
09
#400000
0(
00
1'
1/
0O
1N
0W
1V
1w
0u
1t
0v
1x
0|
1$!
0&!
1'!
1"!
1&!
0'!
1-!
10!
1,!
00!
1.!
1k
1`
0k
19
0`
1i
09
1b
1;
#440000
1(
10
1O
1W
1u
1v
1|
0$!
1'!
1*!
0,!
1/!
10!
11!
0.!
1l
1k
1j
1g
1_
1`
1a
1d
0i
1=
1:
19
18
0b
0;
#480000
0(
00
0'
0/
1&
1.
0O
0N
1M
0W
0V
1U
1y
0w
0u
1z
0t
0v
0x
0|
1{
1#!
1%!
1$!
0'!
0"!
0#!
0*!
1,!
0/!
00!
01!
1'!
0-!
0,!
1/!
10!
1.!
0.!
0l
0k
0j
0g
0_
0`
0a
0d
1i
1k
1j
0=
0:
09
08
1b
1`
1a
0i
1;
1:
19
0b
0;
#520000
1(
10
1O
1W
1u
1v
1|
0$!
0&!
0'!
1)!
0/!
00!
0k
0j
1f
0`
0a
1e
1>
0:
09
#560000
0(
00
1'
1/
0O
1N
0W
1V
1w
0u
1t
0v
1x
0|
1$!
1&!
1'!
1"!
1#!
0&!
0'!
1-!
0)!
1/!
10!
1*!
00!
1k
1j
0f
1`
1a
0e
0k
1g
0>
1:
19
0`
1d
1=
09
#600000
1(
10
1O
1W
1u
1v
1|
0$!
1'!
0*!
1+!
1,!
0/!
11!
1.!
1l
0j
1h
0g
1_
0a
1c
0d
1i
0=
1<
0:
18
1b
1;
#640000
0(
00
0'
0/
0&
0.
0%
0-
1$
1,
0O
0N
0M
0L
1K
0W
0V
0U
0T
1S
13!
0}
0y
0w
0u
14!
0~
0z
0t
0v
0x
0|
0{
15!
1<!
1@!
0#!
0%!
0!!
1$!
0'!
0"!
1*!
0+!
0,!
1/!
01!
0$!
0-!
0C!
0E!
0M!
1=!
1H!
0G!
0J!
1K!
1)!
0*!
0/!
0.!
0s
0m
0l
1j
0h
1g
0X
0^
0_
1a
0c
1d
0i
0j
0g
1f
1q
0p
0o
1=
0<
1:
08
07
01
0b
0a
0d
1e
1Z
0[
0\
1>
0=
0;
0:
05
04
13
#680000
1(
10
1O
1W
1u
1v
1|
1$!
1-!
0)!
1*!
1/!
1j
1g
0f
1a
1d
0e
0>
1=
1:
#720000
0(
00
1'
1/
0O
1N
0W
1V
1w
0u
1t
0v
1x
0|
0$!
0-!
1"!
1'!
1-!
1)!
0*!
0/!
0)!
1+!
1,!
11!
1.!
0j
0g
1f
0a
0d
1e
1l
1h
0f
1>
0=
0:
1_
1c
0e
1i
0>
1<
18
1b
1;
#760000
1(
10
1O
1W
1u
1v
1|
1$!
0-!
0+!
0,!
10!
01!
0.!
0l
1k
0h
0_
1`
0c
0i
0<
19
08
0b
0;
#800000
0(
00
0'
0/
1&
1.
0O
0N
1M
0W
0V
1U
1y
0w
0u
1z
0t
0v
0x
0|
1{
1#!
1%!
0$!
1-!
0"!
0#!
1+!
1,!
00!
11!
1&!
1$!
0-!
1C!
1G!
0K!
0+!
0,!
1/!
10!
01!
1.!
0$!
0'!
0C!
0G!
1K!
0/!
00!
0.!
1l
0k
1h
1_
0`
1c
1i
0l
1k
1j
0h
0q
1o
1<
09
18
1b
0_
1`
1a
0c
0Z
1\
0i
0k
0j
1q
0o
0<
1;
1:
19
08
15
03
0b
0`
0a
1Z
0\
0;
0:
09
05
13
#840000
1(
10
1O
1W
1u
1v
1|
1!!
1$!
1-!
1,!
0$!
0&!
0-!
1C!
1G!
0K!
1)!
0,!
1.!
0.!
1i
1f
0q
1o
1b
1e
0Z
1\
0i
1>
1;
15
03
0b
0;
#880000
0(
00
1'
1/
0O
1N
0W
1V
1w
0u
1t
0v
1x
0|
0!!
1$!
1&!
1'!
1"!
1#!
0)!
1/!
10!
0$!
0&!
1-!
0C!
0G!
1K!
1+!
1,!
0/!
00!
11!
1$!
0'!
1C!
1G!
0K!
1*!
0+!
0,!
1/!
01!
1.!
1k
1j
0f
0.!
1`
1a
0e
1l
0k
0j
1h
1q
0o
0>
1:
19
1_
0`
0a
1c
1Z
0\
1i
0l
1j
0h
1g
0q
1o
1<
0:
09
18
05
13
1b
0_
1a
0c
1d
0Z
1\
0i
1=
0<
1;
1:
08
15
03
0b
0;
#920000
1(
10
1O
1W
1u
1v
1|
1!!
0$!
1'!
0*!
1+!
1,!
0/!
11!
1.!
1l
0j
1h
0g
1_
0a
1c
0d
1i
0=
1<
0:
18
1b
1;
#960000
0(
00
0'
0/
0&
0.
1%
1-
0O
0N
0M
1L
0W
0V
0U
1T
1}
0y
0w
0u
1~
0z
0t
0v
0x
0|
0{
0#!
0%!
1$!
0'!
0"!
1*!
0+!
0,!
1/!
01!
1'!
0-!
0*!
0/!
10!
0.!
0l
1j
0h
1g
0_
1a
0c
1d
0i
1k
0j
0g
1=
0<
1:
08
0b
1`
0a
0d
0=
0;
0:
19
