lab7/simulation/qsim/lab7.msim.vcd
$comment
	File created using the following command:
		vcd file lab7.msim.vcd -direction
$end
$date
	Sun Nov 27 16:16:00 2022
$end
$version
	ModelSim Version 10.5b
$end
$timescale
	1ps
$end

$scope module lab7_vhd_vec_tst $end
$var wire 1 ! a [3] $end
$var wire 1 " a [2] $end
$var wire 1 # a [1] $end
$var wire 1 $ a [0] $end
$var wire 1 % b [3] $end
$var wire 1 & b [2] $end
$var wire 1 ' b [1] $end
$var wire 1 ( b [0] $end
$var wire 1 ) clk $end
$var wire 1 * q [3] $end
$var wire 1 + q [2] $end
$var wire 1 , q [1] $end
$var wire 1 - q [0] $end
$var wire 1 . reset $end

$scope module i1 $end
$var wire 1 / gnd $end
$var wire 1 0 vcc $end
$var wire 1 1 unknown $end
$var wire 1 2 devoe $end
$var wire 1 3 devclrn $end
$var wire 1 4 devpor $end
$var wire 1 5 ww_devoe $end
$var wire 1 6 ww_devclrn $end
$var wire 1 7 ww_devpor $end
$var wire 1 8 ww_clk $end
$var wire 1 9 ww_reset $end
$var wire 1 : ww_a [3] $end
$var wire 1 ; ww_a [2] $end
$var wire 1 < ww_a [1] $end
$var wire 1 = ww_a [0] $end
$var wire 1 > ww_b [3] $end
$var wire 1 ? ww_b [2] $end
$var wire 1 @ ww_b [1] $end
$var wire 1 A ww_b [0] $end
$var wire 1 B ww_q [3] $end
$var wire 1 C ww_q [2] $end
$var wire 1 D ww_q [1] $end
$var wire 1 E ww_q [0] $end
$var wire 1 F \clk~inputclkctrl_INCLK_bus\ [3] $end
$var wire 1 G \clk~inputclkctrl_INCLK_bus\ [2] $end
$var wire 1 H \clk~inputclkctrl_INCLK_bus\ [1] $end
$var wire 1 I \clk~inputclkctrl_INCLK_bus\ [0] $end
$var wire 1 J \q[0]~output_o\ $end
$var wire 1 K \q[1]~output_o\ $end
$var wire 1 L \q[2]~output_o\ $end
$var wire 1 M \q[3]~output_o\ $end
$var wire 1 N \clk~input_o\ $end
$var wire 1 O \clk~inputclkctrl_outclk\ $end
$var wire 1 P \state~0_combout\ $end
$var wire 1 Q \reset~input_o\ $end
$var wire 1 R \divisior[4]~3_combout\ $end
$var wire 1 S \divisior[0]~6_combout\ $end
$var wire 1 T \times[1]~1_combout\ $end
$var wire 1 U \divisior[0]~0_combout\ $end
$var wire 1 V \times[0]~0_combout\ $end
$var wire 1 W \Add2~0_combout\ $end
$var wire 1 X \times[2]~2_combout\ $end
$var wire 1 Y \state~1_combout\ $end
$var wire 1 Z \state~2_combout\ $end
$var wire 1 [ \divisior~1_combout\ $end
$var wire 1 \ \b[3]~input_o\ $end
$var wire 1 ] \Add0~0_combout\ $end
$var wire 1 ^ \b[2]~input_o\ $end
$var wire 1 _ \divisior~2_combout\ $end
$var wire 1 ` \Add0~1_combout\ $end
$var wire 1 a \b[1]~input_o\ $end
$var wire 1 b \divisior~4_combout\ $end
$var wire 1 c \Add0~2_combout\ $end
$var wire 1 d \b[0]~input_o\ $end
$var wire 1 e \divisior~5_combout\ $end
$var wire 1 f \Add0~3_combout\ $end
$var wire 1 g \a[3]~input_o\ $end
$var wire 1 h \Add0~4_combout\ $end
$var wire 1 i \a[2]~input_o\ $end
$var wire 1 j \Add0~5_combout\ $end
$var wire 1 k \a[1]~input_o\ $end
$var wire 1 l \Add0~6_combout\ $end
$var wire 1 m \Add0~7_combout\ $end
$var wire 1 n \a[0]~input_o\ $end
$var wire 1 o \Add0~9_cout\ $end
$var wire 1 p \Add0~10_combout\ $end
$var wire 1 q \remainder~6_combout\ $end
$var wire 1 r \remainder[0]~3_combout\ $end
$var wire 1 s \Add0~11\ $end
$var wire 1 t \Add0~12_combout\ $end
$var wire 1 u \remainder~5_combout\ $end
$var wire 1 v \Add0~13\ $end
$var wire 1 w \Add0~14_combout\ $end
$var wire 1 x \remainder~4_combout\ $end
$var wire 1 y \Add0~15\ $end
$var wire 1 z \Add0~16_combout\ $end
$var wire 1 { \remainder~2_combout\ $end
$var wire 1 | \Add0~17\ $end
$var wire 1 } \Add0~18_combout\ $end
$var wire 1 ~ \remainder[4]~1_combout\ $end
$var wire 1 !! \Add0~19\ $end
$var wire 1 "! \Add0~20_combout\ $end
$var wire 1 #! \Add0~21\ $end
$var wire 1 $! \Add0~22_combout\ $end
$var wire 1 %! \Add0~23\ $end
$var wire 1 &! \Add0~24_combout\ $end
$var wire 1 '! \remainder[7]~0_combout\ $end
$var wire 1 (! \q[0]~1_combout\ $end
$var wire 1 )! \q[0]~0_combout\ $end
$var wire 1 *! \q[0]~reg0_q\ $end
$var wire 1 +! \q[1]~reg0feeder_combout\ $end
$var wire 1 ,! \q[1]~reg0_q\ $end
$var wire 1 -! \q[2]~reg0feeder_combout\ $end
$var wire 1 .! \q[2]~reg0_q\ $end
$var wire 1 /! \q[3]~reg0feeder_combout\ $end
$var wire 1 0! \q[3]~reg0_q\ $end
$var wire 1 1! remainder [7] $end
$var wire 1 2! remainder [6] $end
$var wire 1 3! remainder [5] $end
$var wire 1 4! remainder [4] $end
$var wire 1 5! remainder [3] $end
$var wire 1 6! remainder [2] $end
$var wire 1 7! remainder [1] $end
$var wire 1 8! remainder [0] $end
$var wire 1 9! state [1] $end
$var wire 1 :! state [0] $end
$var wire 1 ;! divisior [7] $end
$var wire 1 <! divisior [6] $end
$var wire 1 =! divisior [5] $end
$var wire 1 >! divisior [4] $end
$var wire 1 ?! divisior [3] $end
$var wire 1 @! divisior [2] $end
$var wire 1 A! divisior [1] $end
$var wire 1 B! divisior [0] $end
$var wire 1 C! times [2] $end
$var wire 1 D! times [1] $end
$var wire 1 E! times [0] $end
$upscope $end
$upscope $end
$enddefinitions $end
#0
$dumpvars
0)
1.
0/
10
x1
12
13
14
15
16
17
08
19
0J
0K
0L
0M
0N
0O
0P
1Q
1R
0S
0T
0U
0V
0W
0X
1Y
0Z
0[
0\
0]
0^
0_
0`
1a
1b
0c
1d
1e
0f
0g
0h
1i
0j
1k
0l
0m
1n
0o
0p
1q
1r
1s
0t
1u
0v
0w
1x
1y
0z
0{
0|
0}
0~
1!!
0"!
0#!
0$!
1%!
0&!
0'!
1(!
0)!
0*!
0+!
0,!
0-!
0.!
0/!
00!
0!
1"
1#
1$
0%
0&
1'
1(
0*
0+
0,
0-
0:
1;
1<
1=
0>
0?
1@
1A
0B
0C
0D
0E
01!
02!
03!
04!
05!
06!
07!
08!
09!
0:!
0;!
0<!
0=!
0>!
0?!
0@!
0A!
0B!
0C!
0D!
0E!
1F
1G
1H
0I
$end
#20000
1)
18
1N
1I
1O
1:!
1=!
1>!
18!
17!
16!
1w
1t
1p
1P
1U
1]
1`
1h
1j
1l
1m
1o
0s
0t
1v
0w
0y
1z
1$!
1&!
1'!
0z
1|
1w
1t
1}
#30000
0.
09
0Q
0R
0b
1~
#40000
0)
08
0N
0I
0O
#60000
1)
18
1N
1I
1O
19!
0:!
14!
12!
11!
0&!
0(!
0$!
0%!
0}
0!!
0U
1R
1S
1V
1Z
0]
0`
1c
1f
0h
0j
0l
0m
0o
1)!
1s
0t
0w
1z
0|
1}
1$!
1%!
0R
0S
0V
1#!
0'!
0$!
0%!
1&!
0}
1{
0x
0u
1t
0v
1w
1y
1u
1'!
0&!
0'!
0z
1x
0{
#80000
0)
08
0N
0I
0O
#100000
1)
18
1N
1I
1O
1:!
04!
02!
01!
1&!
1(!
1$!
1%!
1}
1!!
0P
1U
0r
0~
0)!
1R
1S
1V
1"!
0#!
0&!
0$!
#120000
0)
08
0N
0I
0O
#140000
1)
18
1N
1I
1O
09!
1E!
0=!
1?!
0e
1T
1P
0R
0S
0Z
1]
1`
0f
1j
1l
1m
1o
1r
1~
0s
0t
1v
0w
0y
0}
1$!
1&!
0T
1'!
1z
0x
1w
0u
1t
1u
1x
1{
#160000
0)
08
0N
0I
0O
#180000
1)
18
1N
1I
1O
19!
0:!
15!
13!
12!
11!
0&!
0(!
0$!
0%!
0"!
1#!
0z
1|
0U
1R
1S
0V
1Z
0]
0`
0c
1f
1h
0j
0l
0m
0o
1)!
1s
0t
0w
1z
1"!
0#!
1T
0R
0S
1V
0!!
0{
0'!
0"!
1#!
0T
1$!
1%!
1{
0x
0u
1t
0v
1w
1y
1u
1&!
0$!
0%!
0&!
1'!
0z
1x
0{
0'!
#200000
0)
08
0N
0I
0O
#220000
1)
18
1N
1I
1O
1:!
05!
03!
02!
01!
1&!
1(!
1$!
1%!
1"!
0#!
1z
0|
0P
1U
0r
0~
0)!
1R
1S
0V
1}
1!!
1{
0$!
0&!
0"!
1T
#240000
0)
08
0N
0I
0O
#260000
1)
18
1N
1I
1O
09!
1D!
0E!
0>!
1@!
1P
0R
0S
0Z
1]
1`
1c
0h
1l
1m
1o
1r
1~
0s
0t
1v
0z
1"!
1$!
1&!
1'!
0{
0w
0y
0u
1t
1u
1z
0x
1{
#280000
0)
08
0N
0I
0O
#300000
1)
18
1N
1I
1O
19!
0:!
06!
15!
14!
13!
12!
11!
0&!
0(!
0$!
0%!
0"!
1#!
0}
0!!
0z
1|
1w
1y
0U
1R
1S
1V
1Z
0]
0`
0c
0f
1h
1j
0l
0m
0o
1)!
1s
0t
0w
0y
0R
0S
0V
1x
0{
0'!
1z
0x
0u
1t
0v
1w
1y
1u
1{
0z
1x
0{
#320000
0)
08
0N
0I
0O
#340000
1)
18
1N
1I
1O
1:!
16!
05!
04!
03!
02!
01!
1&!
1(!
1$!
1%!
1"!
0#!
1}
1!!
1z
0|
0w
0y
0P
1U
0r
0~
0)!
1R
1S
1V
0z
1|
0x
0}
1{
0"!
0$!
0&!
1}
0{
#360000
0)
08
0N
0I
0O
#380000
1)
18
1N
1I
1O
09!
1E!
0?!
1A!
0T
1W
1P
0R
0S
0Z
1]
1`
1c
1f
0j
1m
1o
1r
1~
0s
1w
1y
0}
0!!
1"!
1$!
1&!
1T
1'!
0"!
1#!
1z
0|
1x
0t
1v
0w
0y
0u
1}
1!!
1{
0$!
0%!
0&!
1"!
0#!
0z
1|
0x
0}
0!!
0{
1$!
1%!
0'!
1&!
0"!
1#!
0$!
0%!
1'!
0&!
0'!
#400000
0)
08
0N
0I
0O
#420000
1)
18
1N
1I
1O
19!
0:!
07!
06!
1w
1y
1t
0v
0U
1R
1S
0V
1Z
0]
0`
0c
0f
0h
1j
1l
0m
0o
0r
0~
1)!
1s
0t
1v
1}
1!!
1"!
0#!
1$!
1%!
1&!
0T
1X
0R
0S
1V
1u
0|
1x
0}
1T
0X
0&!
0$!
0"!
0w
0y
0u
1t
0v
1w
1y
1u
1z
0x
1{
0z
1x
0{
#440000
0)
08
0N
0I
0O
#460000
1)
18
1N
1I
1O
1:!
1*!
1+!
0P
1U
0)!
1R
1S
0V
1J
0T
1X
1E
1-
#480000
0)
08
0N
0I
0O
#500000
1)
18
1N
1I
1O
09!
0D!
0E!
1C!
0@!
1B!
0U
0Y
1P
0R
0S
0Z
1]
1`
1c
1f
1h
0l
1o
1r
1~
0p
0s
0t
1z
1}
1"!
1$!
1&!
1'!
1{
0u
1t
0q
1u
#520000
0)
08
0N
0I
0O
#540000
1)
18
1N
1I
1O
19!
0:!
08!
17!
16!
15!
14!
13!
12!
11!
0&!
0(!
0$!
0%!
0"!
1#!
0}
0!!
0z
1|
0w
0y
0t
1v
1p
1s
1Y
0]
0`
0c
0f
0h
0j
1l
1m
0o
1)!
1Z
1q
0u
0x
0{
0'!
#560000
0)
08
0N
0I
0O
#580000
1)
18
1N
1I
1O
1:!
18!
07!
06!
05!
04!
03!
02!
01!
0*!
1,!
1-!
0+!
1&!
1(!
1$!
1%!
1"!
0#!
1}
1!!
1z
0|
1w
1y
1t
0v
0p
0s
0P
0Y
0r
0~
0)!
0Z
0t
1v
0q
0w
1u
0z
1x
0}
1{
0"!
0$!
0&!
1K
0J
0{
0x
1w
0u
1D
0E
0-
1,
1x
#600000
0)
08
0N
0I
0O
#620000
1)
18
1N
1I
1O
09!
0:!
1Y
#640000
0)
08
0N
0I
0O
#660000
1)
18
1N
1I
1O
#680000
0)
08
0N
0I
0O
#700000
1)
18
1N
1I
1O
#720000
0)
08
0N
0I
0O
#740000
1)
18
1N
1I
1O
#760000
0)
08
0N
0I
0O
#780000
1)
18
1N
1I
1O
#800000
0)
08
0N
0I
0O
#820000
1)
18
1N
1I
1O
#840000
0)
08
0N
0I
0O
#860000
1)
18
1N
1I
1O
#880000
0)
08
0N
0I
0O
#900000
1)
18
1N
1I
1O
#920000
0)
08
0N
0I
0O
#940000
1)
18
1N
1I
1O
#960000
0)
08
0N
0I
0O
#980000
1)
18
1N
1I
1O
