lab7/simulation/qsim/lab7_01.msim.vcd
$comment
	File created using the following command:
		vcd file lab7_01.msim.vcd -direction
$end
$date
	Tue Nov 29 07:29:19 2022
$end
$version
	ModelSim Version 10.5b
$end
$timescale
	1ps
$end

$scope module lab7_01_vhd_vec_tst $end
$var wire 1 ! clk $end
$var wire 1 " dividend [7] $end
$var wire 1 # dividend [6] $end
$var wire 1 $ dividend [5] $end
$var wire 1 % dividend [4] $end
$var wire 1 & dividend [3] $end
$var wire 1 ' dividend [2] $end
$var wire 1 ( dividend [1] $end
$var wire 1 ) dividend [0] $end
$var wire 1 * divisor [7] $end
$var wire 1 + divisor [6] $end
$var wire 1 , divisor [5] $end
$var wire 1 - divisor [4] $end
$var wire 1 . divisor [3] $end
$var wire 1 / divisor [2] $end
$var wire 1 0 divisor [1] $end
$var wire 1 1 divisor [0] $end
$var wire 1 2 hex0 [6] $end
$var wire 1 3 hex0 [5] $end
$var wire 1 4 hex0 [4] $end
$var wire 1 5 hex0 [3] $end
$var wire 1 6 hex0 [2] $end
$var wire 1 7 hex0 [1] $end
$var wire 1 8 hex0 [0] $end
$var wire 1 9 hex1 [6] $end
$var wire 1 : hex1 [5] $end
$var wire 1 ; hex1 [4] $end
$var wire 1 < hex1 [3] $end
$var wire 1 = hex1 [2] $end
$var wire 1 > hex1 [1] $end
$var wire 1 ? hex1 [0] $end
$var wire 1 @ hex2 [6] $end
$var wire 1 A hex2 [5] $end
$var wire 1 B hex2 [4] $end
$var wire 1 C hex2 [3] $end
$var wire 1 D hex2 [2] $end
$var wire 1 E hex2 [1] $end
$var wire 1 F hex2 [0] $end
$var wire 1 G hex3 [6] $end
$var wire 1 H hex3 [5] $end
$var wire 1 I hex3 [4] $end
$var wire 1 J hex3 [3] $end
$var wire 1 K hex3 [2] $end
$var wire 1 L hex3 [1] $end
$var wire 1 M hex3 [0] $end
$var wire 1 N quotient [7] $end
$var wire 1 O quotient [6] $end
$var wire 1 P quotient [5] $end
$var wire 1 Q quotient [4] $end
$var wire 1 R quotient [3] $end
$var wire 1 S quotient [2] $end
$var wire 1 T quotient [1] $end
$var wire 1 U quotient [0] $end
$var wire 1 V remainder [7] $end
$var wire 1 W remainder [6] $end
$var wire 1 X remainder [5] $end
$var wire 1 Y remainder [4] $end
$var wire 1 Z remainder [3] $end
$var wire 1 [ remainder [2] $end
$var wire 1 \ remainder [1] $end
$var wire 1 ] remainder [0] $end
$var wire 1 ^ reset $end

$scope module i1 $end
$var wire 1 _ gnd $end
$var wire 1 ` vcc $end
$var wire 1 a unknown $end
$var wire 1 b devoe $end
$var wire 1 c devclrn $end
$var wire 1 d devpor $end
$var wire 1 e ww_devoe $end
$var wire 1 f ww_devclrn $end
$var wire 1 g ww_devpor $end
$var wire 1 h ww_clk $end
$var wire 1 i ww_reset $end
$var wire 1 j ww_divisor [7] $end
$var wire 1 k ww_divisor [6] $end
$var wire 1 l ww_divisor [5] $end
$var wire 1 m ww_divisor [4] $end
$var wire 1 n ww_divisor [3] $end
$var wire 1 o ww_divisor [2] $end
$var wire 1 p ww_divisor [1] $end
$var wire 1 q ww_divisor [0] $end
$var wire 1 r ww_dividend [7] $end
$var wire 1 s ww_dividend [6] $end
$var wire 1 t ww_dividend [5] $end
$var wire 1 u ww_dividend [4] $end
$var wire 1 v ww_dividend [3] $end
$var wire 1 w ww_dividend [2] $end
$var wire 1 x ww_dividend [1] $end
$var wire 1 y ww_dividend [0] $end
$var wire 1 z ww_quotient [7] $end
$var wire 1 { ww_quotient [6] $end
$var wire 1 | ww_quotient [5] $end
$var wire 1 } ww_quotient [4] $end
$var wire 1 ~ ww_quotient [3] $end
$var wire 1 !! ww_quotient [2] $end
$var wire 1 "! ww_quotient [1] $end
$var wire 1 #! ww_quotient [0] $end
$var wire 1 $! ww_remainder [7] $end
$var wire 1 %! ww_remainder [6] $end
$var wire 1 &! ww_remainder [5] $end
$var wire 1 '! ww_remainder [4] $end
$var wire 1 (! ww_remainder [3] $end
$var wire 1 )! ww_remainder [2] $end
$var wire 1 *! ww_remainder [1] $end
$var wire 1 +! ww_remainder [0] $end
$var wire 1 ,! ww_hex0 [6] $end
$var wire 1 -! ww_hex0 [5] $end
$var wire 1 .! ww_hex0 [4] $end
$var wire 1 /! ww_hex0 [3] $end
$var wire 1 0! ww_hex0 [2] $end
$var wire 1 1! ww_hex0 [1] $end
$var wire 1 2! ww_hex0 [0] $end
$var wire 1 3! ww_hex1 [6] $end
$var wire 1 4! ww_hex1 [5] $end
$var wire 1 5! ww_hex1 [4] $end
$var wire 1 6! ww_hex1 [3] $end
$var wire 1 7! ww_hex1 [2] $end
$var wire 1 8! ww_hex1 [1] $end
$var wire 1 9! ww_hex1 [0] $end
$var wire 1 :! ww_hex2 [6] $end
$var wire 1 ;! ww_hex2 [5] $end
$var wire 1 <! ww_hex2 [4] $end
$var wire 1 =! ww_hex2 [3] $end
$var wire 1 >! ww_hex2 [2] $end
$var wire 1 ?! ww_hex2 [1] $end
$var wire 1 @! ww_hex2 [0] $end
$var wire 1 A! ww_hex3 [6] $end
$var wire 1 B! ww_hex3 [5] $end
$var wire 1 C! ww_hex3 [4] $end
$var wire 1 D! ww_hex3 [3] $end
$var wire 1 E! ww_hex3 [2] $end
$var wire 1 F! ww_hex3 [1] $end
$var wire 1 G! ww_hex3 [0] $end
$var wire 1 H! \clk~inputclkctrl_INCLK_bus\ [3] $end
$var wire 1 I! \clk~inputclkctrl_INCLK_bus\ [2] $end
$var wire 1 J! \clk~inputclkctrl_INCLK_bus\ [1] $end
$var wire 1 K! \clk~inputclkctrl_INCLK_bus\ [0] $end
$var wire 1 L! \quotient[0]~output_o\ $end
$var wire 1 M! \quotient[1]~output_o\ $end
$var wire 1 N! \quotient[2]~output_o\ $end
$var wire 1 O! \quotient[3]~output_o\ $end
$var wire 1 P! \quotient[4]~output_o\ $end
$var wire 1 Q! \quotient[5]~output_o\ $end
$var wire 1 R! \quotient[6]~output_o\ $end
$var wire 1 S! \quotient[7]~output_o\ $end
$var wire 1 T! \remainder[0]~output_o\ $end
$var wire 1 U! \remainder[1]~output_o\ $end
$var wire 1 V! \remainder[2]~output_o\ $end
$var wire 1 W! \remainder[3]~output_o\ $end
$var wire 1 X! \remainder[4]~output_o\ $end
$var wire 1 Y! \remainder[5]~output_o\ $end
$var wire 1 Z! \remainder[6]~output_o\ $end
$var wire 1 [! \remainder[7]~output_o\ $end
$var wire 1 \! \hex0[0]~output_o\ $end
$var wire 1 ]! \hex0[1]~output_o\ $end
$var wire 1 ^! \hex0[2]~output_o\ $end
$var wire 1 _! \hex0[3]~output_o\ $end
$var wire 1 `! \hex0[4]~output_o\ $end
$var wire 1 a! \hex0[5]~output_o\ $end
$var wire 1 b! \hex0[6]~output_o\ $end
$var wire 1 c! \hex1[0]~output_o\ $end
$var wire 1 d! \hex1[1]~output_o\ $end
$var wire 1 e! \hex1[2]~output_o\ $end
$var wire 1 f! \hex1[3]~output_o\ $end
$var wire 1 g! \hex1[4]~output_o\ $end
$var wire 1 h! \hex1[5]~output_o\ $end
$var wire 1 i! \hex1[6]~output_o\ $end
$var wire 1 j! \hex2[0]~output_o\ $end
$var wire 1 k! \hex2[1]~output_o\ $end
$var wire 1 l! \hex2[2]~output_o\ $end
$var wire 1 m! \hex2[3]~output_o\ $end
$var wire 1 n! \hex2[4]~output_o\ $end
$var wire 1 o! \hex2[5]~output_o\ $end
$var wire 1 p! \hex2[6]~output_o\ $end
$var wire 1 q! \hex3[0]~output_o\ $end
$var wire 1 r! \hex3[1]~output_o\ $end
$var wire 1 s! \hex3[2]~output_o\ $end
$var wire 1 t! \hex3[3]~output_o\ $end
$var wire 1 u! \hex3[4]~output_o\ $end
$var wire 1 v! \hex3[5]~output_o\ $end
$var wire 1 w! \hex3[6]~output_o\ $end
$var wire 1 x! \clk~input_o\ $end
$var wire 1 y! \clk~inputclkctrl_outclk\ $end
$var wire 1 z! \reset~input_o\ $end
$var wire 1 {! \times[1]~0_combout\ $end
$var wire 1 |! \d[0]~9_combout\ $end
$var wire 1 }! \times[0]~2_combout\ $end
$var wire 1 ~! \times[1]~3_combout\ $end
$var wire 1 !" \Add2~1_combout\ $end
$var wire 1 "" \times[2]~4_combout\ $end
$var wire 1 #" \Add2~0_combout\ $end
$var wire 1 $" \times[3]~1_combout\ $end
$var wire 1 %" \Equal0~0_combout\ $end
$var wire 1 &" \Mux17~0_combout\ $end
$var wire 1 '" \Mux0~0_combout\ $end
$var wire 1 (" \r[15]~9_combout\ $end
$var wire 1 )" \Mux26~0_combout\ $end
$var wire 1 *" \divisor[7]~input_o\ $end
$var wire 1 +" \Add0~26_combout\ $end
$var wire 1 ," \divisor[6]~input_o\ $end
$var wire 1 -" \d~1_combout\ $end
$var wire 1 ." \d[14]~feeder_combout\ $end
$var wire 1 /" \d[8]~2_combout\ $end
$var wire 1 0" \Add0~27_combout\ $end
$var wire 1 1" \divisor[5]~input_o\ $end
$var wire 1 2" \d~3_combout\ $end
$var wire 1 3" \Add0~28_combout\ $end
$var wire 1 4" \divisor[4]~input_o\ $end
$var wire 1 5" \d~4_combout\ $end
$var wire 1 6" \Add0~29_combout\ $end
$var wire 1 7" \divisor[3]~input_o\ $end
$var wire 1 8" \d~5_combout\ $end
$var wire 1 9" \Add0~30_combout\ $end
$var wire 1 :" \divisor[2]~input_o\ $end
$var wire 1 ;" \d~6_combout\ $end
$var wire 1 <" \Add0~31_combout\ $end
$var wire 1 =" \divisor[1]~input_o\ $end
$var wire 1 >" \d~7_combout\ $end
$var wire 1 ?" \Add0~32_combout\ $end
$var wire 1 @" \divisor[0]~input_o\ $end
$var wire 1 A" \d~8_combout\ $end
$var wire 1 B" \Add0~33_combout\ $end
$var wire 1 C" \d[7]~feeder_combout\ $end
$var wire 1 D" \d[0]~0_combout\ $end
$var wire 1 E" \Add0~23_combout\ $end
$var wire 1 F" \d[6]~feeder_combout\ $end
$var wire 1 G" \Add0~20_combout\ $end
$var wire 1 H" \d[5]~feeder_combout\ $end
$var wire 1 I" \Add0~17_combout\ $end
$var wire 1 J" \dividend[5]~input_o\ $end
$var wire 1 K" \d[4]~feeder_combout\ $end
$var wire 1 L" \Add0~14_combout\ $end
$var wire 1 M" \Add0~11_combout\ $end
$var wire 1 N" \dividend[3]~input_o\ $end
$var wire 1 O" \Add0~8_combout\ $end
$var wire 1 P" \Add0~5_combout\ $end
$var wire 1 Q" \Add0~0_combout\ $end
$var wire 1 R" \dividend[0]~input_o\ $end
$var wire 1 S" \Add0~2_cout\ $end
$var wire 1 T" \Add0~3_combout\ $end
$var wire 1 U" \r~0_combout\ $end
$var wire 1 V" \r[0]~1_combout\ $end
$var wire 1 W" \Add0~4\ $end
$var wire 1 X" \Add0~6_combout\ $end
$var wire 1 Y" \dividend[1]~input_o\ $end
$var wire 1 Z" \r~2_combout\ $end
$var wire 1 [" \Add0~7\ $end
$var wire 1 \" \Add0~9_combout\ $end
$var wire 1 ]" \dividend[2]~input_o\ $end
$var wire 1 ^" \r~3_combout\ $end
$var wire 1 _" \Add0~10\ $end
$var wire 1 `" \Add0~12_combout\ $end
$var wire 1 a" \r~4_combout\ $end
$var wire 1 b" \Add0~13\ $end
$var wire 1 c" \Add0~15_combout\ $end
$var wire 1 d" \dividend[4]~input_o\ $end
$var wire 1 e" \r~5_combout\ $end
$var wire 1 f" \Add0~16\ $end
$var wire 1 g" \Add0~18_combout\ $end
$var wire 1 h" \r~6_combout\ $end
$var wire 1 i" \Add0~19\ $end
$var wire 1 j" \Add0~21_combout\ $end
$var wire 1 k" \dividend[6]~input_o\ $end
$var wire 1 l" \r~7_combout\ $end
$var wire 1 m" \Add0~22\ $end
$var wire 1 n" \Add0~24_combout\ $end
$var wire 1 o" \dividend[7]~input_o\ $end
$var wire 1 p" \r~8_combout\ $end
$var wire 1 q" \Add0~25\ $end
$var wire 1 r" \Add0~34_combout\ $end
$var wire 1 s" \r[8]~11_combout\ $end
$var wire 1 t" \Add0~35\ $end
$var wire 1 u" \Add0~36_combout\ $end
$var wire 1 v" \Add0~37\ $end
$var wire 1 w" \Add0~38_combout\ $end
$var wire 1 x" \Add0~39\ $end
$var wire 1 y" \Add0~40_combout\ $end
$var wire 1 z" \Add0~41\ $end
$var wire 1 {" \Add0~42_combout\ $end
$var wire 1 |" \Add0~43\ $end
$var wire 1 }" \Add0~44_combout\ $end
$var wire 1 ~" \Add0~45\ $end
$var wire 1 !# \Add0~46_combout\ $end
$var wire 1 "# \Add0~47\ $end
$var wire 1 ## \Add0~48_combout\ $end
$var wire 1 $# \r[15]~10_combout\ $end
$var wire 1 %# \quotient~0_combout\ $end
$var wire 1 &# \quotient[0]~1_combout\ $end
$var wire 1 '# \quotient[0]~reg0_q\ $end
$var wire 1 (# \quotient~2_combout\ $end
$var wire 1 )# \quotient[1]~reg0_q\ $end
$var wire 1 *# \quotient~3_combout\ $end
$var wire 1 +# \quotient[2]~reg0_q\ $end
$var wire 1 ,# \quotient~4_combout\ $end
$var wire 1 -# \quotient[3]~reg0_q\ $end
$var wire 1 .# \quotient~5_combout\ $end
$var wire 1 /# \quotient[4]~reg0_q\ $end
$var wire 1 0# \quotient~6_combout\ $end
$var wire 1 1# \quotient[5]~reg0_q\ $end
$var wire 1 2# \quotient~7_combout\ $end
$var wire 1 3# \quotient[6]~reg0_q\ $end
$var wire 1 4# \quotient~8_combout\ $end
$var wire 1 5# \quotient[7]~reg0_q\ $end
$var wire 1 6# \f1|Mux6~0_combout\ $end
$var wire 1 7# \f1|Mux5~0_combout\ $end
$var wire 1 8# \f1|Mux4~0_combout\ $end
$var wire 1 9# \f1|Mux3~0_combout\ $end
$var wire 1 :# \f1|Mux2~0_combout\ $end
$var wire 1 ;# \f1|Mux1~0_combout\ $end
$var wire 1 <# \f1|Mux0~0_combout\ $end
$var wire 1 =# \f2|Mux6~0_combout\ $end
$var wire 1 ># \f2|Mux5~0_combout\ $end
$var wire 1 ?# \f2|Mux4~0_combout\ $end
$var wire 1 @# \f2|Mux3~0_combout\ $end
$var wire 1 A# \f2|Mux2~0_combout\ $end
$var wire 1 B# \f2|Mux1~0_combout\ $end
$var wire 1 C# \f2|Mux0~0_combout\ $end
$var wire 1 D# \f3|Mux6~0_combout\ $end
$var wire 1 E# \f3|Mux5~0_combout\ $end
$var wire 1 F# \f3|Mux4~0_combout\ $end
$var wire 1 G# \f3|Mux3~0_combout\ $end
$var wire 1 H# \f3|Mux2~0_combout\ $end
$var wire 1 I# \f3|Mux1~0_combout\ $end
$var wire 1 J# \f3|Mux0~0_combout\ $end
$var wire 1 K# \f4|Mux6~0_combout\ $end
$var wire 1 L# \f4|Mux5~0_combout\ $end
$var wire 1 M# \f4|Mux4~0_combout\ $end
$var wire 1 N# \f4|Mux3~0_combout\ $end
$var wire 1 O# \f4|Mux2~0_combout\ $end
$var wire 1 P# \f4|Mux1~0_combout\ $end
$var wire 1 Q# \f4|Mux0~0_combout\ $end
$var wire 1 R# state [1] $end
$var wire 1 S# state [0] $end
$var wire 1 T# d [15] $end
$var wire 1 U# d [14] $end
$var wire 1 V# d [13] $end
$var wire 1 W# d [12] $end
$var wire 1 X# d [11] $end
$var wire 1 Y# d [10] $end
$var wire 1 Z# d [9] $end
$var wire 1 [# d [8] $end
$var wire 1 \# d [7] $end
$var wire 1 ]# d [6] $end
$var wire 1 ^# d [5] $end
$var wire 1 _# d [4] $end
$var wire 1 `# d [3] $end
$var wire 1 a# d [2] $end
$var wire 1 b# d [1] $end
$var wire 1 c# d [0] $end
$var wire 1 d# r [15] $end
$var wire 1 e# r [14] $end
$var wire 1 f# r [13] $end
$var wire 1 g# r [12] $end
$var wire 1 h# r [11] $end
$var wire 1 i# r [10] $end
$var wire 1 j# r [9] $end
$var wire 1 k# r [8] $end
$var wire 1 l# r [7] $end
$var wire 1 m# r [6] $end
$var wire 1 n# r [5] $end
$var wire 1 o# r [4] $end
$var wire 1 p# r [3] $end
$var wire 1 q# r [2] $end
$var wire 1 r# r [1] $end
$var wire 1 s# r [0] $end
$var wire 1 t# times [3] $end
$var wire 1 u# times [2] $end
$var wire 1 v# times [1] $end
$var wire 1 w# times [0] $end
$var wire 1 x# \f4|ALT_INV_Mux6~0_combout\ $end
$var wire 1 y# \f3|ALT_INV_Mux6~0_combout\ $end
$var wire 1 z# \f2|ALT_INV_Mux6~0_combout\ $end
$var wire 1 {# \f1|ALT_INV_Mux6~0_combout\ $end
$upscope $end
$upscope $end
$enddefinitions $end
#0
$dumpvars
0!
1^
0_
1`
xa
1b
1c
1d
1e
1f
1g
0h
1i
0L!
0M!
0N!
0O!
0P!
0Q!
0R!
0S!
0T!
0U!
0V!
0W!
0X!
0Y!
0Z!
0[!
1\!
0]!
0^!
0_!
0`!
0a!
0b!
1c!
0d!
0e!
0f!
0g!
0h!
0i!
1j!
0k!
0l!
0m!
0n!
0o!
0p!
1q!
0r!
0s!
0t!
0u!
0v!
0w!
0x!
0y!
1z!
0{!
0|!
0}!
0~!
0!"
0""
0#"
0$"
0%"
0&"
0'"
0("
0)"
0*"
0+"
0,"
0-"
0."
1/"
00"
01"
02"
03"
04"
05"
06"
07"
08"
09"
0:"
0;"
0<"
1="
1>"
0?"
1@"
1A"
0B"
0C"
0D"
0E"
0F"
0G"
0H"
0I"
0J"
0K"
0L"
0M"
1N"
0O"
0P"
0Q"
1R"
0S"
1T"
1U"
1V"
1W"
1X"
0Y"
0Z"
0["
1\"
1]"
1^"
1_"
1`"
1a"
0b"
1c"
0d"
0e"
1f"
1g"
0h"
0i"
1j"
0k"
0l"
1m"
1n"
0o"
0p"
0q"
1r"
0s"
1t"
1u"
0v"
1w"
1x"
1y"
0z"
1{"
1|"
1}"
0~"
1!#
1"#
1##
0$#
0%#
1&#
0'#
0(#
0)#
0*#
0+#
0,#
0-#
0.#
0/#
00#
01#
02#
03#
04#
05#
06#
07#
08#
09#
0:#
0;#
0<#
0=#
0>#
0?#
0@#
0A#
0B#
0C#
0D#
0E#
0F#
0G#
0H#
0I#
0J#
0K#
0L#
0M#
0N#
0O#
0P#
0Q#
1x#
1y#
1z#
1{#
0"
0#
0$
0%
1&
1'
0(
1)
0*
0+
0,
0-
0.
0/
10
11
0N
0O
0P
0Q
0R
0S
0T
0U
0V
0W
0X
0Y
0Z
0[
0\
0]
0j
0k
0l
0m
0n
0o
1p
1q
0r
0s
0t
0u
1v
1w
0x
1y
0z
0{
0|
0}
0~
0!!
0"!
0#!
0$!
0%!
0&!
0'!
0(!
0)!
0*!
0+!
0,!
0-!
0.!
0/!
00!
01!
12!
03!
04!
05!
06!
07!
08!
19!
0:!
0;!
0<!
0=!
0>!
0?!
1@!
0A!
0B!
0C!
0D!
0E!
0F!
1G!
0R#
0S#
0T#
0U#
0V#
0W#
0X#
0Y#
0Z#
0[#
0\#
0]#
0^#
0_#
0`#
0a#
0b#
0c#
0d#
0e#
0f#
0g#
0h#
0i#
0j#
0k#
0l#
0m#
0n#
0o#
0p#
0q#
0r#
0s#
0t#
0u#
0v#
0w#
1H!
1I!
1J!
0K!
02
03
04
05
06
07
18
09
0:
0;
0<
0=
0>
1?
0@
0A
0B
0C
0D
0E
1F
0G
0H
0I
0J
0K
0L
1M
$end
#10000
1!
1h
1x!
1K!
1y!
1S#
1Z#
1[#
1s#
1q#
1p#
0`"
1b"
0\"
0_"
0T"
0W"
16#
17#
1<#
1B"
1C"
1?"
1'"
1S"
0{#
1T"
0u"
0r"
0X"
1["
1`"
0c"
0f"
1W!
1V!
1T!
0g"
1i"
1\"
1(!
1)!
1+!
1b!
1]!
1]
1[
1Z
0\!
0j"
0m"
1,!
11!
02!
17
12
0n"
1q"
08
1r"
#20000
0!
0h
0x!
0K!
0y!
#30000
1!
1h
1x!
1K!
1y!
#40000
0!
0^
0h
0i
0z!
0x!
0K!
1{!
1("
0/"
0>"
1s"
1%#
0&#
1$#
0y!
#50000
1!
1h
1x!
1K!
1y!
0S#
1R#
1k#
1i#
1h#
1g#
1f#
1e#
1d#
0##
0%#
0!#
0"#
0}"
1~"
0{"
0|"
0y"
1z"
0w"
0x"
0r"
0t"
1+"
10"
13"
16"
19"
1<"
0?"
0B"
1E"
1G"
1I"
1L"
1M"
1O"
1P"
1Q"
1&"
0S"
1&#
1W"
1X"
0["
0\"
0`"
1c"
1f"
1g"
0i"
1j"
1m"
1n"
0q"
1r"
1w"
1x"
1v"
0$#
0w"
0x"
1y"
0z"
0r"
1p"
0n"
1l"
0j"
1h"
0g"
1e"
0a"
0^"
1\"
1_"
1Z"
0X"
0Z"
1`"
0b"
1^"
0h"
0l"
0p"
1{"
1|"
0y"
1z"
0{"
0|"
1}"
0~"
0c"
1a"
0e"
1!#
1"#
0}"
1~"
0!#
0"#
1##
1$#
0##
0$#
#60000
0!
0h
0x!
0K!
0y!
#70000
1!
1h
1x!
1K!
1y!
1S#
0k#
0i#
0h#
0g#
0f#
0e#
0d#
1##
1%#
1!#
1"#
1}"
0~"
1{"
1|"
1y"
0z"
1w"
1x"
1r"
1t"
0{!
1|!
0'"
0("
1/"
1D"
1S"
0V"
0s"
0&#
0T"
0W"
1}!
1u"
0v"
0y"
0{"
0}"
0!#
0##
0w"
1X"
0U"
1Z"
#80000
0!
0h
0x!
0K!
0y!
#90000
1!
1h
1x!
1K!
1y!
1w#
0R#
0Z#
1\#
1F"
0A"
1{!
0|!
0&"
1'"
1("
0+"
0/"
00"
03"
06"
09"
0<"
1B"
0D"
0G"
0I"
0L"
0M"
0O"
0P"
0Q"
1V"
1s"
0}!
1~!
1T"
0X"
1["
0\"
0_"
0`"
1b"
1c"
1g"
1j"
0r"
1w"
1y"
1{"
1}"
1!#
1##
1}!
0~!
1$#
1l"
1h"
1e"
0c"
0f"
0a"
1`"
0^"
1\"
0Z"
1U"
1^"
1a"
0g"
1i"
0e"
0j"
0m"
0h"
1n"
0l"
1p"
#100000
0!
0h
0x!
0K!
0y!
#110000
1!
1h
1x!
1K!
1y!
0S#
1R#
1l#
1j#
1i#
1h#
1g#
1f#
1e#
1d#
0##
0%#
0!#
0"#
0}"
1~"
0{"
0|"
0y"
1z"
0w"
0x"
0u"
1v"
0n"
1q"
1=#
1+"
10"
13"
16"
19"
1<"
1?"
0B"
0E"
1G"
1I"
1L"
1M"
1O"
1P"
1Q"
1&"
0S"
1&#
0z#
1W"
1X"
0["
0\"
0`"
1c"
1f"
1g"
0i"
1j"
1m"
1n"
1u"
0v"
0t"
0p"
0$#
1[!
0u"
1v"
1w"
1x"
1p"
0n"
1l"
0j"
1h"
0g"
1e"
0a"
0^"
1\"
1_"
1Z"
0X"
1$!
1V
0c!
0Z"
1`"
0b"
1^"
0h"
0l"
0p"
1y"
0z"
0w"
0x"
09!
0y"
1z"
1{"
1|"
0c"
1a"
0?
0e"
1}"
0~"
0{"
0|"
0}"
1~"
1!#
1"#
1##
0!#
0"#
0##
1$#
0$#
#120000
0!
0h
0x!
0K!
0y!
#130000
1!
1h
1x!
1K!
1y!
1S#
0l#
0j#
0i#
0h#
0g#
0f#
0e#
0d#
1##
1%#
1!#
1"#
1}"
0~"
1{"
1|"
1y"
0z"
1w"
1x"
1u"
0v"
1n"
0q"
0=#
0{!
1|!
0'"
0("
1/"
1D"
1S"
0V"
0s"
0&#
1z#
0T"
0W"
0}!
1~!
1r"
1t"
1p"
0w"
0y"
0{"
0}"
0!#
0##
0[!
0u"
1X"
0U"
0$!
0V
1c!
1Z"
19!
1?
#140000
0!
0h
0x!
0K!
0y!
#150000
1!
1h
1x!
1K!
1y!
0w#
1v#
0R#
0[#
1]#
1H"
0C"
1{!
0|!
0&"
1'"
1("
0+"
0/"
00"
03"
06"
09"
0<"
0?"
0D"
1E"
0I"
0L"
0M"
0O"
0P"
0Q"
1V"
1s"
1}!
1T"
0X"
1["
0\"
0_"
0`"
1b"
1c"
1g"
0n"
1u"
1w"
1y"
1{"
1}"
1!#
1##
0}!
1$#
0p"
1h"
1e"
0c"
0f"
0a"
1`"
0^"
1\"
0Z"
1U"
1^"
1a"
0g"
1i"
0e"
1j"
0h"
1l"
#160000
0!
0h
0x!
0K!
0y!
#170000
1!
1h
1x!
1K!
1y!
0S#
1R#
1m#
1k#
1j#
1i#
1h#
1g#
1f#
1e#
1d#
0##
0%#
0!#
0"#
0}"
1~"
0{"
0|"
0y"
1z"
0w"
0x"
0u"
1v"
0r"
0t"
0j"
0m"
1=#
1?#
1@#
1C#
1+"
10"
13"
16"
19"
1<"
1?"
1B"
0E"
0G"
1I"
1L"
1M"
1O"
1P"
1Q"
1&"
0S"
1&#
0z#
1W"
1X"
0["
0\"
0`"
1c"
1f"
1g"
0i"
1j"
1r"
1t"
1q"
0l"
0$#
1Z!
0r"
0t"
1u"
0v"
1l"
0j"
1h"
0g"
1e"
0a"
0^"
1\"
1_"
1Z"
0X"
1%!
1i!
1f!
1e!
1W
0c!
0Z"
1`"
0b"
1^"
0h"
0l"
1w"
1x"
0u"
1v"
13!
16!
17!
09!
1=
1<
19
0w"
0x"
1y"
0z"
0c"
1a"
0?
0e"
1{"
1|"
0y"
1z"
0{"
0|"
1}"
0~"
1!#
1"#
0}"
1~"
0!#
0"#
1##
1$#
0##
0$#
#180000
0!
0h
0x!
0K!
0y!
#190000
1!
1h
1x!
1K!
1y!
1S#
0m#
0k#
0j#
0i#
0h#
0g#
0f#
0e#
0d#
1##
1%#
1!#
1"#
1}"
0~"
1{"
1|"
1y"
0z"
1w"
1x"
1u"
0v"
1r"
1t"
1j"
1m"
0=#
0?#
0@#
0C#
0{!
1|!
0'"
0("
1/"
1D"
1S"
0V"
0s"
0&#
1z#
0T"
0W"
1}!
1n"
0q"
1l"
0u"
0w"
0y"
0{"
0}"
0!#
0##
0Z!
0r"
1p"
1X"
0U"
0%!
0i!
0f!
0e!
0W
1c!
1Z"
03!
06!
07!
19!
0=
0<
09
1?
#200000
0!
0h
0x!
0K!
0y!
#210000
1!
1h
1x!
1K!
1y!
1w#
0R#
0\#
1^#
1K"
0F"
1{!
0|!
0&"
1'"
1("
0+"
0/"
00"
03"
06"
09"
0<"
0?"
0B"
0D"
1G"
0L"
0M"
0O"
0P"
0Q"
1V"
1s"
0}!
0~!
1!"
1T"
0X"
1["
0\"
0_"
0`"
1b"
1c"
0j"
1r"
1u"
1w"
1y"
1{"
1}"
1!#
1##
1}!
1~!
1$#
0l"
1e"
0c"
0f"
0a"
1`"
0^"
1\"
0Z"
1U"
1^"
1a"
1g"
0e"
1h"
#220000
0!
0h
0x!
0K!
0y!
#230000
1!
1h
1x!
1K!
1y!
0S#
1R#
1n#
1l#
1k#
1j#
1i#
1h#
1g#
1f#
1e#
1d#
0##
0%#
0!#
0"#
0}"
1~"
0{"
0|"
0y"
1z"
0w"
0x"
0u"
1v"
0r"
0t"
0n"
1q"
0g"
1i"
1=#
1@#
1+"
10"
13"
16"
19"
1<"
1?"
1B"
1E"
0G"
0I"
1L"
1M"
1O"
1P"
1Q"
1&"
0S"
1&#
0z#
1W"
1X"
0["
0\"
0`"
1c"
1f"
1g"
1n"
0q"
0m"
0h"
0p"
0$#
1[!
1Y!
0n"
1q"
1r"
1t"
1p"
1h"
0g"
1e"
0a"
0^"
1\"
1_"
1Z"
0X"
1$!
1&!
1f!
1X
1V
0c!
0Z"
1`"
0b"
1^"
0h"
1u"
0v"
0r"
0t"
0p"
16!
09!
1<
0u"
1v"
1w"
1x"
0c"
1a"
0?
0e"
1y"
0z"
0w"
0x"
0y"
1z"
1{"
1|"
1}"
0~"
0{"
0|"
0}"
1~"
1!#
1"#
1##
0!#
0"#
0##
1$#
0$#
#240000
0!
0h
0x!
0K!
0y!
#250000
1!
1h
1x!
1K!
1y!
1S#
0n#
0l#
0k#
0j#
0i#
0h#
0g#
0f#
0e#
0d#
1##
1%#
1!#
1"#
1}"
0~"
1{"
1|"
1y"
0z"
1w"
1x"
1u"
0v"
1r"
1t"
1n"
0q"
1g"
0i"
0=#
0@#
0{!
1|!
0'"
0("
1/"
1D"
1S"
0V"
0s"
0&#
1z#
0T"
0W"
0}!
0~!
1""
1j"
1m"
1h"
0r"
1p"
0u"
0w"
0y"
0{"
0}"
0!#
0##
0[!
0Y!
0n"
1l"
1X"
0U"
0$!
0&!
0f!
0X
0V
1c!
1Z"
0p"
06!
19!
0<
1?
#260000
0!
0h
0x!
0K!
0y!
#270000
1!
1h
1x!
1K!
1y!
0w#
0v#
1u#
0R#
0]#
1_#
0H"
1{!
0|!
0&"
1'"
1("
0+"
0/"
00"
03"
06"
09"
0<"
0?"
0B"
0D"
0E"
1I"
0M"
0O"
0P"
0Q"
1V"
1s"
1}!
1T"
0X"
1["
0\"
0_"
0`"
1b"
0g"
1n"
1r"
1u"
1w"
1y"
1{"
1}"
1!#
1##
0}!
1$#
1p"
0h"
1c"
0a"
1`"
0^"
1\"
0Z"
1U"
1^"
1a"
1e"
#280000
0!
0h
0x!
0K!
0y!
