lab8/simulation/qsim/lab8_01.msim.vcd
$comment
	File created using the following command:
		vcd file lab8_01.msim.vcd -direction
$end
$date
	Wed Dec 07 12:43:23 2022
$end
$version
	ModelSim Version 10.5b
$end
$timescale
	1ps
$end

$scope module lab8_01_vhd_vec_tst $end
$var wire 1 ! clk $end
$var wire 1 " dividend [7] $end
$var wire 1 # dividend [6] $end
$var wire 1 $ dividend [5] $end
$var wire 1 % dividend [4] $end
$var wire 1 & dividend [3] $end
$var wire 1 ' dividend [2] $end
$var wire 1 ( dividend [1] $end
$var wire 1 ) dividend [0] $end
$var wire 1 * divisor [7] $end
$var wire 1 + divisor [6] $end
$var wire 1 , divisor [5] $end
$var wire 1 - divisor [4] $end
$var wire 1 . divisor [3] $end
$var wire 1 / divisor [2] $end
$var wire 1 0 divisor [1] $end
$var wire 1 1 divisor [0] $end
$var wire 1 2 hex0 [6] $end
$var wire 1 3 hex0 [5] $end
$var wire 1 4 hex0 [4] $end
$var wire 1 5 hex0 [3] $end
$var wire 1 6 hex0 [2] $end
$var wire 1 7 hex0 [1] $end
$var wire 1 8 hex0 [0] $end
$var wire 1 9 hex1 [6] $end
$var wire 1 : hex1 [5] $end
$var wire 1 ; hex1 [4] $end
$var wire 1 < hex1 [3] $end
$var wire 1 = hex1 [2] $end
$var wire 1 > hex1 [1] $end
$var wire 1 ? hex1 [0] $end
$var wire 1 @ hex2 [6] $end
$var wire 1 A hex2 [5] $end
$var wire 1 B hex2 [4] $end
$var wire 1 C hex2 [3] $end
$var wire 1 D hex2 [2] $end
$var wire 1 E hex2 [1] $end
$var wire 1 F hex2 [0] $end
$var wire 1 G hex3 [6] $end
$var wire 1 H hex3 [5] $end
$var wire 1 I hex3 [4] $end
$var wire 1 J hex3 [3] $end
$var wire 1 K hex3 [2] $end
$var wire 1 L hex3 [1] $end
$var wire 1 M hex3 [0] $end
$var wire 1 N quotient [7] $end
$var wire 1 O quotient [6] $end
$var wire 1 P quotient [5] $end
$var wire 1 Q quotient [4] $end
$var wire 1 R quotient [3] $end
$var wire 1 S quotient [2] $end
$var wire 1 T quotient [1] $end
$var wire 1 U quotient [0] $end
$var wire 1 V remainder [15] $end
$var wire 1 W remainder [14] $end
$var wire 1 X remainder [13] $end
$var wire 1 Y remainder [12] $end
$var wire 1 Z remainder [11] $end
$var wire 1 [ remainder [10] $end
$var wire 1 \ remainder [9] $end
$var wire 1 ] remainder [8] $end
$var wire 1 ^ remainder [7] $end
$var wire 1 _ remainder [6] $end
$var wire 1 ` remainder [5] $end
$var wire 1 a remainder [4] $end
$var wire 1 b remainder [3] $end
$var wire 1 c remainder [2] $end
$var wire 1 d remainder [1] $end
$var wire 1 e remainder [0] $end
$var wire 1 f reset $end

$scope module i1 $end
$var wire 1 g gnd $end
$var wire 1 h vcc $end
$var wire 1 i unknown $end
$var wire 1 j devoe $end
$var wire 1 k devclrn $end
$var wire 1 l devpor $end
$var wire 1 m ww_devoe $end
$var wire 1 n ww_devclrn $end
$var wire 1 o ww_devpor $end
$var wire 1 p ww_clk $end
$var wire 1 q ww_reset $end
$var wire 1 r ww_divisor [7] $end
$var wire 1 s ww_divisor [6] $end
$var wire 1 t ww_divisor [5] $end
$var wire 1 u ww_divisor [4] $end
$var wire 1 v ww_divisor [3] $end
$var wire 1 w ww_divisor [2] $end
$var wire 1 x ww_divisor [1] $end
$var wire 1 y ww_divisor [0] $end
$var wire 1 z ww_dividend [7] $end
$var wire 1 { ww_dividend [6] $end
$var wire 1 | ww_dividend [5] $end
$var wire 1 } ww_dividend [4] $end
$var wire 1 ~ ww_dividend [3] $end
$var wire 1 !! ww_dividend [2] $end
$var wire 1 "! ww_dividend [1] $end
$var wire 1 #! ww_dividend [0] $end
$var wire 1 $! ww_quotient [7] $end
$var wire 1 %! ww_quotient [6] $end
$var wire 1 &! ww_quotient [5] $end
$var wire 1 '! ww_quotient [4] $end
$var wire 1 (! ww_quotient [3] $end
$var wire 1 )! ww_quotient [2] $end
$var wire 1 *! ww_quotient [1] $end
$var wire 1 +! ww_quotient [0] $end
$var wire 1 ,! ww_remainder [15] $end
$var wire 1 -! ww_remainder [14] $end
$var wire 1 .! ww_remainder [13] $end
$var wire 1 /! ww_remainder [12] $end
$var wire 1 0! ww_remainder [11] $end
$var wire 1 1! ww_remainder [10] $end
$var wire 1 2! ww_remainder [9] $end
$var wire 1 3! ww_remainder [8] $end
$var wire 1 4! ww_remainder [7] $end
$var wire 1 5! ww_remainder [6] $end
$var wire 1 6! ww_remainder [5] $end
$var wire 1 7! ww_remainder [4] $end
$var wire 1 8! ww_remainder [3] $end
$var wire 1 9! ww_remainder [2] $end
$var wire 1 :! ww_remainder [1] $end
$var wire 1 ;! ww_remainder [0] $end
$var wire 1 <! ww_hex0 [6] $end
$var wire 1 =! ww_hex0 [5] $end
$var wire 1 >! ww_hex0 [4] $end
$var wire 1 ?! ww_hex0 [3] $end
$var wire 1 @! ww_hex0 [2] $end
$var wire 1 A! ww_hex0 [1] $end
$var wire 1 B! ww_hex0 [0] $end
$var wire 1 C! ww_hex1 [6] $end
$var wire 1 D! ww_hex1 [5] $end
$var wire 1 E! ww_hex1 [4] $end
$var wire 1 F! ww_hex1 [3] $end
$var wire 1 G! ww_hex1 [2] $end
$var wire 1 H! ww_hex1 [1] $end
$var wire 1 I! ww_hex1 [0] $end
$var wire 1 J! ww_hex2 [6] $end
$var wire 1 K! ww_hex2 [5] $end
$var wire 1 L! ww_hex2 [4] $end
$var wire 1 M! ww_hex2 [3] $end
$var wire 1 N! ww_hex2 [2] $end
$var wire 1 O! ww_hex2 [1] $end
$var wire 1 P! ww_hex2 [0] $end
$var wire 1 Q! ww_hex3 [6] $end
$var wire 1 R! ww_hex3 [5] $end
$var wire 1 S! ww_hex3 [4] $end
$var wire 1 T! ww_hex3 [3] $end
$var wire 1 U! ww_hex3 [2] $end
$var wire 1 V! ww_hex3 [1] $end
$var wire 1 W! ww_hex3 [0] $end
$var wire 1 X! \clk~inputclkctrl_INCLK_bus\ [3] $end
$var wire 1 Y! \clk~inputclkctrl_INCLK_bus\ [2] $end
$var wire 1 Z! \clk~inputclkctrl_INCLK_bus\ [1] $end
$var wire 1 [! \clk~inputclkctrl_INCLK_bus\ [0] $end
$var wire 1 \! \quotient[0]~output_o\ $end
$var wire 1 ]! \quotient[1]~output_o\ $end
$var wire 1 ^! \quotient[2]~output_o\ $end
$var wire 1 _! \quotient[3]~output_o\ $end
$var wire 1 `! \quotient[4]~output_o\ $end
$var wire 1 a! \quotient[5]~output_o\ $end
$var wire 1 b! \quotient[6]~output_o\ $end
$var wire 1 c! \quotient[7]~output_o\ $end
$var wire 1 d! \remainder[0]~output_o\ $end
$var wire 1 e! \remainder[1]~output_o\ $end
$var wire 1 f! \remainder[2]~output_o\ $end
$var wire 1 g! \remainder[3]~output_o\ $end
$var wire 1 h! \remainder[4]~output_o\ $end
$var wire 1 i! \remainder[5]~output_o\ $end
$var wire 1 j! \remainder[6]~output_o\ $end
$var wire 1 k! \remainder[7]~output_o\ $end
$var wire 1 l! \remainder[8]~output_o\ $end
$var wire 1 m! \remainder[9]~output_o\ $end
$var wire 1 n! \remainder[10]~output_o\ $end
$var wire 1 o! \remainder[11]~output_o\ $end
$var wire 1 p! \remainder[12]~output_o\ $end
$var wire 1 q! \remainder[13]~output_o\ $end
$var wire 1 r! \remainder[14]~output_o\ $end
$var wire 1 s! \remainder[15]~output_o\ $end
$var wire 1 t! \hex0[0]~output_o\ $end
$var wire 1 u! \hex0[1]~output_o\ $end
$var wire 1 v! \hex0[2]~output_o\ $end
$var wire 1 w! \hex0[3]~output_o\ $end
$var wire 1 x! \hex0[4]~output_o\ $end
$var wire 1 y! \hex0[5]~output_o\ $end
$var wire 1 z! \hex0[6]~output_o\ $end
$var wire 1 {! \hex1[0]~output_o\ $end
$var wire 1 |! \hex1[1]~output_o\ $end
$var wire 1 }! \hex1[2]~output_o\ $end
$var wire 1 ~! \hex1[3]~output_o\ $end
$var wire 1 !" \hex1[4]~output_o\ $end
$var wire 1 "" \hex1[5]~output_o\ $end
$var wire 1 #" \hex1[6]~output_o\ $end
$var wire 1 $" \hex2[0]~output_o\ $end
$var wire 1 %" \hex2[1]~output_o\ $end
$var wire 1 &" \hex2[2]~output_o\ $end
$var wire 1 '" \hex2[3]~output_o\ $end
$var wire 1 (" \hex2[4]~output_o\ $end
$var wire 1 )" \hex2[5]~output_o\ $end
$var wire 1 *" \hex2[6]~output_o\ $end
$var wire 1 +" \hex3[0]~output_o\ $end
$var wire 1 ," \hex3[1]~output_o\ $end
$var wire 1 -" \hex3[2]~output_o\ $end
$var wire 1 ." \hex3[3]~output_o\ $end
$var wire 1 /" \hex3[4]~output_o\ $end
$var wire 1 0" \hex3[5]~output_o\ $end
$var wire 1 1" \hex3[6]~output_o\ $end
$var wire 1 2" \clk~input_o\ $end
$var wire 1 3" \clk~inputclkctrl_outclk\ $end
$var wire 1 4" \reset~input_o\ $end
$var wire 1 5" \d[14]~0_combout\ $end
$var wire 1 6" \times[0]~3_combout\ $end
$var wire 1 7" \times[0]~1_combout\ $end
$var wire 1 8" \times[1]~4_combout\ $end
$var wire 1 9" \Add2~1_combout\ $end
$var wire 1 :" \times[2]~5_combout\ $end
$var wire 1 ;" \Add2~0_combout\ $end
$var wire 1 <" \times[3]~2_combout\ $end
$var wire 1 =" \times[0]~0_combout\ $end
$var wire 1 >" \Mux44~0_combout\ $end
$var wire 1 ?" \divisor[7]~input_o\ $end
$var wire 1 @" \d[15]~1_combout\ $end
$var wire 1 A" \r[0]~8_combout\ $end
$var wire 1 B" \r[15]~9_combout\ $end
$var wire 1 C" \divisor[6]~input_o\ $end
$var wire 1 D" \Mux1~0_combout\ $end
$var wire 1 E" \divisor[5]~input_o\ $end
$var wire 1 F" \Mux2~0_combout\ $end
$var wire 1 G" \divisor[4]~input_o\ $end
$var wire 1 H" \Mux3~0_combout\ $end
$var wire 1 I" \divisor[3]~input_o\ $end
$var wire 1 J" \Mux4~0_combout\ $end
$var wire 1 K" \divisor[2]~input_o\ $end
$var wire 1 L" \Mux5~0_combout\ $end
$var wire 1 M" \divisor[1]~input_o\ $end
$var wire 1 N" \Mux6~0_combout\ $end
$var wire 1 O" \divisor[0]~input_o\ $end
$var wire 1 P" \Mux7~0_combout\ $end
$var wire 1 Q" \Mux8~0_combout\ $end
$var wire 1 R" \dividend[7]~input_o\ $end
$var wire 1 S" \dividend[6]~input_o\ $end
$var wire 1 T" \Mux9~0_combout\ $end
$var wire 1 U" \Mux10~0_combout\ $end
$var wire 1 V" \dividend[5]~input_o\ $end
$var wire 1 W" \Mux11~0_combout\ $end
$var wire 1 X" \Mux12~0_combout\ $end
$var wire 1 Y" \dividend[3]~input_o\ $end
$var wire 1 Z" \dividend[2]~input_o\ $end
$var wire 1 [" \Mux13~0_combout\ $end
$var wire 1 \" \Mux14~0_combout\ $end
$var wire 1 ]" \dividend[1]~input_o\ $end
$var wire 1 ^" \Mux15~0_combout\ $end
$var wire 1 _" \Add0~0_combout\ $end
$var wire 1 `" \dividend[0]~input_o\ $end
$var wire 1 a" \r[0]~0_combout\ $end
$var wire 1 b" \Add1~0_combout\ $end
$var wire 1 c" \Add0~1\ $end
$var wire 1 d" \Add0~2_combout\ $end
$var wire 1 e" \r[1]~1_combout\ $end
$var wire 1 f" \Add1~1\ $end
$var wire 1 g" \Add1~2_combout\ $end
$var wire 1 h" \Add0~3\ $end
$var wire 1 i" \Add0~4_combout\ $end
$var wire 1 j" \r[2]~2_combout\ $end
$var wire 1 k" \Add1~3\ $end
$var wire 1 l" \Add1~4_combout\ $end
$var wire 1 m" \Add0~5\ $end
$var wire 1 n" \Add0~6_combout\ $end
$var wire 1 o" \r[3]~3_combout\ $end
$var wire 1 p" \Add1~5\ $end
$var wire 1 q" \Add1~6_combout\ $end
$var wire 1 r" \Add0~7\ $end
$var wire 1 s" \Add0~8_combout\ $end
$var wire 1 t" \dividend[4]~input_o\ $end
$var wire 1 u" \r[4]~4_combout\ $end
$var wire 1 v" \Add1~7\ $end
$var wire 1 w" \Add1~8_combout\ $end
$var wire 1 x" \Add0~9\ $end
$var wire 1 y" \Add0~10_combout\ $end
$var wire 1 z" \r[5]~5_combout\ $end
$var wire 1 {" \Add1~9\ $end
$var wire 1 |" \Add1~10_combout\ $end
$var wire 1 }" \Add0~11\ $end
$var wire 1 ~" \Add0~12_combout\ $end
$var wire 1 !# \r[6]~6_combout\ $end
$var wire 1 "# \Add1~11\ $end
$var wire 1 ## \Add1~12_combout\ $end
$var wire 1 $# \Add0~13\ $end
$var wire 1 %# \Add0~14_combout\ $end
$var wire 1 &# \r[7]~7_combout\ $end
$var wire 1 '# \Add1~13\ $end
$var wire 1 (# \Add1~14_combout\ $end
$var wire 1 )# \Add0~15\ $end
$var wire 1 *# \Add0~16_combout\ $end
$var wire 1 +# \Add1~15\ $end
$var wire 1 ,# \Add1~16_combout\ $end
$var wire 1 -# \Mux23~0_combout\ $end
$var wire 1 .# \Add1~17\ $end
$var wire 1 /# \Add1~18_combout\ $end
$var wire 1 0# \Add0~17\ $end
$var wire 1 1# \Add0~18_combout\ $end
$var wire 1 2# \Mux22~0_combout\ $end
$var wire 1 3# \Add1~19\ $end
$var wire 1 4# \Add1~20_combout\ $end
$var wire 1 5# \Add0~19\ $end
$var wire 1 6# \Add0~20_combout\ $end
$var wire 1 7# \Mux21~0_combout\ $end
$var wire 1 8# \Add1~21\ $end
$var wire 1 9# \Add1~22_combout\ $end
$var wire 1 :# \Add0~21\ $end
$var wire 1 ;# \Add0~22_combout\ $end
$var wire 1 <# \Mux20~0_combout\ $end
$var wire 1 =# \Add1~23\ $end
$var wire 1 ># \Add1~24_combout\ $end
$var wire 1 ?# \Add0~23\ $end
$var wire 1 @# \Add0~24_combout\ $end
$var wire 1 A# \Mux19~0_combout\ $end
$var wire 1 B# \Add0~25\ $end
$var wire 1 C# \Add0~26_combout\ $end
$var wire 1 D# \Add1~25\ $end
$var wire 1 E# \Add1~26_combout\ $end
$var wire 1 F# \Mux18~0_combout\ $end
$var wire 1 G# \Add1~27\ $end
$var wire 1 H# \Add1~28_combout\ $end
$var wire 1 I# \Add0~27\ $end
$var wire 1 J# \Add0~28_combout\ $end
$var wire 1 K# \Mux17~0_combout\ $end
$var wire 1 L# \Add1~29\ $end
$var wire 1 M# \Add1~30_combout\ $end
$var wire 1 N# \r[15]~10_combout\ $end
$var wire 1 O# \r[15]~11_combout\ $end
$var wire 1 P# \Add0~29\ $end
$var wire 1 Q# \Add0~30_combout\ $end
$var wire 1 R# \Mux46~0_combout\ $end
$var wire 1 S# \Mux45~0_combout\ $end
$var wire 1 T# \Mux39~0_combout\ $end
$var wire 1 U# \quotient[0]~0_combout\ $end
$var wire 1 V# \quotient[0]~reg0_q\ $end
$var wire 1 W# \Mux38~0_combout\ $end
$var wire 1 X# \quotient[1]~reg0_q\ $end
$var wire 1 Y# \Mux37~0_combout\ $end
$var wire 1 Z# \quotient[2]~reg0_q\ $end
$var wire 1 [# \Mux36~0_combout\ $end
$var wire 1 \# \quotient[3]~reg0_q\ $end
$var wire 1 ]# \Mux35~0_combout\ $end
$var wire 1 ^# \quotient[4]~reg0_q\ $end
$var wire 1 _# \Mux34~0_combout\ $end
$var wire 1 `# \quotient[5]~reg0_q\ $end
$var wire 1 a# \Mux33~0_combout\ $end
$var wire 1 b# \quotient[6]~reg0_q\ $end
$var wire 1 c# \Mux32~0_combout\ $end
$var wire 1 d# \quotient[7]~reg0_q\ $end
$var wire 1 e# \f1|Mux6~0_combout\ $end
$var wire 1 f# \f1|Mux5~0_combout\ $end
$var wire 1 g# \f1|Mux4~0_combout\ $end
$var wire 1 h# \f1|Mux3~0_combout\ $end
$var wire 1 i# \f1|Mux2~0_combout\ $end
$var wire 1 j# \f1|Mux1~0_combout\ $end
$var wire 1 k# \f1|Mux0~0_combout\ $end
$var wire 1 l# \f2|Mux6~0_combout\ $end
$var wire 1 m# \f2|Mux5~0_combout\ $end
$var wire 1 n# \f2|Mux4~0_combout\ $end
$var wire 1 o# \f2|Mux3~0_combout\ $end
$var wire 1 p# \f2|Mux2~0_combout\ $end
$var wire 1 q# \f2|Mux1~0_combout\ $end
$var wire 1 r# \f2|Mux0~0_combout\ $end
$var wire 1 s# \f3|Mux6~0_combout\ $end
$var wire 1 t# \f3|Mux5~0_combout\ $end
$var wire 1 u# \f3|Mux4~0_combout\ $end
$var wire 1 v# \f3|Mux3~0_combout\ $end
$var wire 1 w# \f3|Mux2~0_combout\ $end
$var wire 1 x# \f3|Mux1~0_combout\ $end
$var wire 1 y# \f3|Mux0~0_combout\ $end
$var wire 1 z# \f4|Mux6~0_combout\ $end
$var wire 1 {# \f4|Mux5~0_combout\ $end
$var wire 1 |# \f4|Mux4~0_combout\ $end
$var wire 1 }# \f4|Mux3~0_combout\ $end
$var wire 1 ~# \f4|Mux2~0_combout\ $end
$var wire 1 !$ \f4|Mux1~0_combout\ $end
$var wire 1 "$ \f4|Mux0~0_combout\ $end
$var wire 1 #$ r [15] $end
$var wire 1 $$ r [14] $end
$var wire 1 %$ r [13] $end
$var wire 1 &$ r [12] $end
$var wire 1 '$ r [11] $end
$var wire 1 ($ r [10] $end
$var wire 1 )$ r [9] $end
$var wire 1 *$ r [8] $end
$var wire 1 +$ r [7] $end
$var wire 1 ,$ r [6] $end
$var wire 1 -$ r [5] $end
$var wire 1 .$ r [4] $end
$var wire 1 /$ r [3] $end
$var wire 1 0$ r [2] $end
$var wire 1 1$ r [1] $end
$var wire 1 2$ r [0] $end
$var wire 1 3$ state [2] $end
$var wire 1 4$ state [1] $end
$var wire 1 5$ state [0] $end
$var wire 1 6$ d [15] $end
$var wire 1 7$ d [14] $end
$var wire 1 8$ d [13] $end
$var wire 1 9$ d [12] $end
$var wire 1 :$ d [11] $end
$var wire 1 ;$ d [10] $end
$var wire 1 <$ d [9] $end
$var wire 1 =$ d [8] $end
$var wire 1 >$ d [7] $end
$var wire 1 ?$ d [6] $end
$var wire 1 @$ d [5] $end
$var wire 1 A$ d [4] $end
$var wire 1 B$ d [3] $end
$var wire 1 C$ d [2] $end
$var wire 1 D$ d [1] $end
$var wire 1 E$ d [0] $end
$var wire 1 F$ times [3] $end
$var wire 1 G$ times [2] $end
$var wire 1 H$ times [1] $end
$var wire 1 I$ times [0] $end
$var wire 1 J$ \f4|ALT_INV_Mux6~0_combout\ $end
$var wire 1 K$ \f3|ALT_INV_Mux6~0_combout\ $end
$var wire 1 L$ \f2|ALT_INV_Mux6~0_combout\ $end
$var wire 1 M$ \f1|ALT_INV_Mux6~0_combout\ $end
$upscope $end
$upscope $end
$enddefinitions $end
#0
$dumpvars
0!
1f
0g
1h
xi
1j
1k
1l
1m
1n
1o
0p
1q
0\!
0]!
0^!
0_!
0`!
0a!
0b!
0c!
0d!
0e!
0f!
0g!
0h!
0i!
0j!
0k!
0l!
0m!
0n!
0o!
0p!
0q!
0r!
0s!
1t!
0u!
0v!
0w!
0x!
0y!
0z!
1{!
0|!
0}!
0~!
0!"
0""
0#"
1$"
0%"
0&"
0'"
0("
0)"
0*"
1+"
0,"
0-"
0."
0/"
00"
01"
02"
03"
14"
05"
06"
17"
08"
09"
0:"
0;"
0<"
0="
0>"
0?"
0@"
0A"
0B"
0C"
0D"
0E"
0F"
0G"
0H"
0I"
0J"
0K"
0L"
1M"
1N"
1O"
1P"
0Q"
0R"
0S"
0T"
0U"
0V"
0W"
0X"
0Y"
1Z"
0["
0\"
1]"
0^"
0_"
1`"
1a"
0b"
1c"
0d"
1e"
0f"
0g"
0h"
0i"
1j"
1k"
0l"
1m"
0n"
0o"
0p"
0q"
0r"
0s"
0t"
0u"
1v"
0w"
1x"
0y"
0z"
0{"
0|"
0}"
0~"
0!#
1"#
0##
1$#
0%#
0&#
0'#
0(#
0)#
0*#
1+#
0,#
0-#
0.#
0/#
10#
01#
02#
13#
04#
05#
06#
07#
08#
09#
1:#
0;#
0<#
1=#
0>#
0?#
0@#
0A#
1B#
0C#
0D#
0E#
0F#
1G#
0H#
0I#
0J#
0K#
0L#
0M#
0N#
0O#
1P#
0Q#
1R#
0S#
0T#
0U#
0V#
0W#
0X#
0Y#
0Z#
0[#
0\#
0]#
0^#
0_#
0`#
0a#
0b#
0c#
0d#
0e#
0f#
0g#
0h#
0i#
0j#
0k#
0l#
0m#
0n#
0o#
0p#
0q#
0r#
0s#
0t#
0u#
0v#
0w#
0x#
0y#
0z#
0{#
0|#
0}#
0~#
0!$
0"$
1J$
1K$
1L$
1M$
0"
0#
0$
0%
0&
1'
1(
1)
0*
0+
0,
0-
0.
0/
10
11
0N
0O
0P
0Q
0R
0S
0T
0U
0V
0W
0X
0Y
0Z
0[
0\
0]
0^
0_
0`
0a
0b
0c
0d
0e
0r
0s
0t
0u
0v
0w
1x
1y
0z
0{
0|
0}
0~
1!!
1"!
1#!
0$!
0%!
0&!
0'!
0(!
0)!
0*!
0+!
0,!
0-!
0.!
0/!
00!
01!
02!
03!
04!
05!
06!
07!
08!
09!
0:!
0;!
0<!
0=!
0>!
0?!
0@!
0A!
1B!
0C!
0D!
0E!
0F!
0G!
0H!
1I!
0J!
0K!
0L!
0M!
0N!
0O!
1P!
0Q!
0R!
0S!
0T!
0U!
0V!
1W!
0#$
0$$
0%$
0&$
0'$
0($
0)$
0*$
0+$
0,$
0-$
0.$
0/$
00$
01$
02$
03$
04$
05$
06$
07$
08$
09$
0:$
0;$
0<$
0=$
0>$
0?$
0@$
0A$
0B$
0C$
0D$
0E$
0F$
0G$
0H$
0I$
1X!
1Y!
1Z!
0[!
02
03
04
05
06
07
18
09
0:
0;
0<
0=
0>
1?
0@
0A
0B
0C
0D
0E
1F
0G
0H
0I
0J
0K
0L
1M
$end
#10000
1!
1p
12"
1[!
13"
#20000
0!
0f
0p
0q
04"
02"
0[!
15"
1A"
1U#
07"
03"
#30000
1!
1p
12"
1[!
13"
1<$
1=$
12$
11$
10$
15$
05"
1B"
0a"
0e"
0j"
0R#
1S#
0U#
1i"
1l"
1d"
1g"
1_"
1b"
1f#
1g#
1h#
1*#
00#
1,#
1/#
11#
15#
16#
0:#
12#
01#
1-#
1a"
1e"
1j"
17"
1f!
1e!
1d!
02#
1;#
1?#
17#
19!
1:!
1;!
1w!
1v!
1u!
1e
1d
1c
1@#
0B#
1<#
1?!
1@!
1A!
17
16
15
1C#
1I#
1A#
1J#
0P#
1F#
1Q#
1K#
1N#
1R#
1O#
#40000
0!
0p
02"
0[!
03"
#50000
1!
1p
12"
1[!
13"
1*$
1($
1'$
1&$
1%$
1$$
1#$
14$
1>"
12#
07#
0<#
0A#
0F#
0K#
0N#
0R#
0S#
1U#
1M#
0Q#
1H#
0J#
1P#
0C#
0I#
1E#
1>#
0@#
1B#
19#
0;#
0?#
14#
06#
1:#
0*#
10#
0,#
1.#
0/#
03#
11#
0-#
1;#
17#
1@#
1<#
1C#
1A#
1J#
1F#
1Q#
1K#
1N#
0O#
1s!
1r!
1q!
1p!
1o!
1n!
1l!
1O#
04#
18#
02#
1,!
1-!
1.!
1/!
10!
11!
13!
1]
1[
1Z
1Y
1X
1W
1V
09#
0=#
07#
0>#
1D#
0<#
0E#
0G#
0A#
0H#
1L#
0F#
0M#
0K#
0N#
0O#
#60000
0!
0p
02"
0[!
03"
#70000
1!
1p
12"
1[!
13"
13$
0*$
0($
0'$
0&$
0%$
0$$
0#$
05$
04$
1N#
15"
1M#
0Q#
1H#
0L#
0J#
0C#
1E#
1G#
1>#
0D#
0@#
19#
1=#
0;#
14#
08#
16#
0:#
1*#
00#
1,#
0.#
0>"
0A"
0B"
0N"
1Q"
1R#
0U#
1/#
13#
01#
1;#
1?#
09#
0>#
0E#
0H#
0M#
0N#
16"
07"
0s!
0r!
0q!
0p!
0o!
0n!
0l!
1@#
0B#
04#
0,!
0-!
0.!
0/!
00!
01!
03!
0]
0[
0Z
0Y
0X
0W
0V
1C#
1I#
1J#
0P#
1Q#
1N#
#80000
0!
0p
02"
0[!
03"
#90000
1!
1p
12"
1[!
13"
1I$
03$
0<$
1>$
15$
05"
1-#
17#
1<#
1A#
1F#
1K#
1%#
1)#
1(#
0/#
11#
1A"
1B"
1N"
0Q"
1S#
06"
1O#
12#
0*#
1&#
16"
17"
0-#
#100000
0!
0p
02"
0[!
03"
#110000
1!
1p
12"
1[!
13"
1+$
1)$
1($
1'$
1&$
1%$
1$$
1#$
14$
1>"
1-#
02#
07#
0<#
0A#
0F#
0K#
0N#
0R#
0S#
1U#
1M#
0Q#
1H#
0J#
1P#
0C#
0I#
1E#
1>#
0@#
1B#
19#
0;#
0?#
14#
06#
1:#
1/#
01#
05#
0%#
0)#
0(#
0+#
1l#
0L$
0,#
1.#
1*#
0&#
16#
12#
1;#
17#
1@#
1<#
1C#
1A#
1J#
1F#
1Q#
1K#
1N#
0O#
1s!
1r!
1q!
1p!
1o!
1n!
1m!
1k!
1O#
0/#
03#
0-#
1,!
1-!
1.!
1/!
10!
11!
12!
14!
1^
1\
1[
1Z
1Y
1X
1W
1V
0{!
04#
18#
02#
0I!
09#
0=#
07#
0?
0>#
1D#
0<#
0E#
0G#
0A#
0H#
1L#
0F#
0M#
0K#
0N#
0O#
#120000
0!
0p
02"
0[!
03"
#130000
1!
1p
12"
1[!
13"
13$
0+$
0)$
0($
0'$
0&$
0%$
0$$
0#$
05$
04$
1N#
15"
1M#
0Q#
1H#
0L#
0J#
0C#
1E#
1G#
1>#
0D#
0@#
19#
1=#
0;#
14#
08#
06#
1/#
13#
11#
15#
1%#
1)#
1(#
1+#
0l#
0>"
0A"
0B"
0N"
0P"
1Q"
1T"
1R#
0U#
1L$
1,#
0.#
0*#
16#
0:#
04#
09#
0>#
0E#
0H#
0M#
0N#
06"
07"
0s!
0r!
0q!
0p!
0o!
0n!
0m!
0k!
18"
1;#
1?#
0/#
0,!
0-!
0.!
0/!
00!
01!
02!
04!
0^
0\
0[
0Z
0Y
0X
0W
0V
1{!
1@#
0B#
1I!
1C#
1I#
1?
1J#
0P#
1Q#
1N#
#140000
0!
0p
02"
0[!
03"
#150000
1!
1p
12"
1[!
13"
0I$
1H$
03$
0=$
1?$
15$
05"
1&#
12#
17#
1<#
1A#
1F#
1K#
1~"
0$#
1##
1*#
0,#
1A"
1B"
1N"
1P"
0Q"
0T"
1S#
08"
1O#
1-#
0%#
1!#
17"
18"
0&#
#160000
0!
0p
02"
0[!
03"
#170000
1!
1p
12"
1[!
13"
1,$
1*$
1)$
1($
1'$
1&$
1%$
1$$
1#$
14$
1>"
0-#
02#
07#
0<#
0A#
0F#
0K#
0N#
0R#
0S#
1U#
1M#
0Q#
1H#
0J#
1P#
0C#
0I#
1E#
1>#
0@#
1B#
19#
0;#
0?#
14#
06#
1:#
1/#
01#
05#
0*#
10#
1,#
0~"
1$#
0##
1'#
1l#
1n#
1o#
1r#
0L$
0(#
0+#
1%#
0!#
11#
1-#
16#
12#
1;#
17#
1@#
1<#
1C#
1A#
1J#
1F#
1Q#
1K#
1N#
0O#
1s!
1r!
1q!
1p!
1o!
1n!
1m!
1l!
1j!
1O#
1&#
0,#
1.#
1,!
1-!
1.!
1/!
10!
11!
12!
13!
15!
1#"
1~!
1}!
1_
1]
1\
1[
1Z
1Y
1X
1W
1V
0{!
0/#
03#
0-#
1C!
1F!
1G!
0I!
1=
1<
19
04#
18#
02#
0?
09#
0=#
07#
0>#
1D#
0<#
0E#
0G#
0A#
0H#
1L#
0F#
0M#
0K#
0N#
0O#
#180000
0!
0p
02"
0[!
03"
#190000
1!
1p
12"
1[!
13"
13$
0,$
0*$
0)$
0($
0'$
0&$
0%$
0$$
0#$
05$
04$
1N#
15"
0&#
1M#
0Q#
1H#
0L#
0J#
0C#
1E#
1G#
1>#
0D#
0@#
19#
1=#
0;#
14#
08#
06#
1/#
13#
01#
1*#
00#
1,#
0.#
1~"
0$#
1##
0'#
0l#
0n#
0o#
0r#
0>"
0A"
0B"
0N"
0P"
1T"
1U"
1R#
0U#
1L$
1(#
1+#
0%#
0/#
11#
15#
04#
09#
0>#
0E#
0H#
0M#
0N#
16"
07"
0s!
0r!
0q!
0p!
0o!
0n!
0m!
0l!
0j!
16#
0:#
0,#
0,!
0-!
0.!
0/!
00!
01!
02!
03!
05!
0#"
0~!
0}!
0_
0]
0\
0[
0Z
0Y
0X
0W
0V
1{!
1;#
1?#
0C!
0F!
0G!
1I!
0=
0<
09
1@#
0B#
1?
1C#
1I#
1J#
0P#
1Q#
1N#
#200000
0!
0p
02"
0[!
03"
#210000
1!
1p
12"
1[!
13"
1I$
03$
0>$
1@$
15$
05"
1!#
1-#
12#
17#
1<#
1A#
1F#
1K#
1y"
1}"
1|"
1%#
0(#
1A"
1B"
1N"
1P"
0T"
0U"
1S#
06"
08"
19"
1O#
1&#
0~"
1z"
16"
17"
18"
0!#
#220000
0!
0p
02"
0[!
03"
