lab8/simulation/qsim/lab8_01.msim.vcd
$comment
	File created using the following command:
		vcd file lab8_01.msim.vcd -direction
$end
$date
	Sun Dec 18 15:48:01 2022
$end
$version
	ModelSim Version 10.5b
$end
$timescale
	1ps
$end

$scope module lab8_01_vhd_vec_tst $end
$var wire 1 ! clk $end
$var wire 1 " Data [7] $end
$var wire 1 # Data [6] $end
$var wire 1 $ Data [5] $end
$var wire 1 % Data [4] $end
$var wire 1 & Data [3] $end
$var wire 1 ' Data [2] $end
$var wire 1 ( Data [1] $end
$var wire 1 ) Data [0] $end
$var wire 1 * Data_seg0 [6] $end
$var wire 1 + Data_seg0 [5] $end
$var wire 1 , Data_seg0 [4] $end
$var wire 1 - Data_seg0 [3] $end
$var wire 1 . Data_seg0 [2] $end
$var wire 1 / Data_seg0 [1] $end
$var wire 1 0 Data_seg0 [0] $end
$var wire 1 1 Data_seg1 [6] $end
$var wire 1 2 Data_seg1 [5] $end
$var wire 1 3 Data_seg1 [4] $end
$var wire 1 4 Data_seg1 [3] $end
$var wire 1 5 Data_seg1 [2] $end
$var wire 1 6 Data_seg1 [1] $end
$var wire 1 7 Data_seg1 [0] $end
$var wire 1 8 op [3] $end
$var wire 1 9 op [2] $end
$var wire 1 : op [1] $end
$var wire 1 ; op [0] $end
$var wire 1 < Rs [1] $end
$var wire 1 = Rs [0] $end
$var wire 1 > Rs_seg0 [6] $end
$var wire 1 ? Rs_seg0 [5] $end
$var wire 1 @ Rs_seg0 [4] $end
$var wire 1 A Rs_seg0 [3] $end
$var wire 1 B Rs_seg0 [2] $end
$var wire 1 C Rs_seg0 [1] $end
$var wire 1 D Rs_seg0 [0] $end
$var wire 1 E Rs_seg1 [6] $end
$var wire 1 F Rs_seg1 [5] $end
$var wire 1 G Rs_seg1 [4] $end
$var wire 1 H Rs_seg1 [3] $end
$var wire 1 I Rs_seg1 [2] $end
$var wire 1 J Rs_seg1 [1] $end
$var wire 1 K Rs_seg1 [0] $end
$var wire 1 L Rt [1] $end
$var wire 1 M Rt [0] $end
$var wire 1 N Rt_seg0 [6] $end
$var wire 1 O Rt_seg0 [5] $end
$var wire 1 P Rt_seg0 [4] $end
$var wire 1 Q Rt_seg0 [3] $end
$var wire 1 R Rt_seg0 [2] $end
$var wire 1 S Rt_seg0 [1] $end
$var wire 1 T Rt_seg0 [0] $end
$var wire 1 U Rt_seg1 [6] $end
$var wire 1 V Rt_seg1 [5] $end
$var wire 1 W Rt_seg1 [4] $end
$var wire 1 X Rt_seg1 [3] $end
$var wire 1 Y Rt_seg1 [2] $end
$var wire 1 Z Rt_seg1 [1] $end
$var wire 1 [ Rt_seg1 [0] $end

$scope module i1 $end
$var wire 1 \ gnd $end
$var wire 1 ] vcc $end
$var wire 1 ^ unknown $end
$var wire 1 _ devoe $end
$var wire 1 ` devclrn $end
$var wire 1 a devpor $end
$var wire 1 b ww_devoe $end
$var wire 1 c ww_devclrn $end
$var wire 1 d ww_devpor $end
$var wire 1 e ww_clk $end
$var wire 1 f ww_op [3] $end
$var wire 1 g ww_op [2] $end
$var wire 1 h ww_op [1] $end
$var wire 1 i ww_op [0] $end
$var wire 1 j ww_Data [7] $end
$var wire 1 k ww_Data [6] $end
$var wire 1 l ww_Data [5] $end
$var wire 1 m ww_Data [4] $end
$var wire 1 n ww_Data [3] $end
$var wire 1 o ww_Data [2] $end
$var wire 1 p ww_Data [1] $end
$var wire 1 q ww_Data [0] $end
$var wire 1 r ww_Rs [1] $end
$var wire 1 s ww_Rs [0] $end
$var wire 1 t ww_Rt [1] $end
$var wire 1 u ww_Rt [0] $end
$var wire 1 v ww_Rs_seg0 [6] $end
$var wire 1 w ww_Rs_seg0 [5] $end
$var wire 1 x ww_Rs_seg0 [4] $end
$var wire 1 y ww_Rs_seg0 [3] $end
$var wire 1 z ww_Rs_seg0 [2] $end
$var wire 1 { ww_Rs_seg0 [1] $end
$var wire 1 | ww_Rs_seg0 [0] $end
$var wire 1 } ww_Rs_seg1 [6] $end
$var wire 1 ~ ww_Rs_seg1 [5] $end
$var wire 1 !! ww_Rs_seg1 [4] $end
$var wire 1 "! ww_Rs_seg1 [3] $end
$var wire 1 #! ww_Rs_seg1 [2] $end
$var wire 1 $! ww_Rs_seg1 [1] $end
$var wire 1 %! ww_Rs_seg1 [0] $end
$var wire 1 &! ww_Rt_seg0 [6] $end
$var wire 1 '! ww_Rt_seg0 [5] $end
$var wire 1 (! ww_Rt_seg0 [4] $end
$var wire 1 )! ww_Rt_seg0 [3] $end
$var wire 1 *! ww_Rt_seg0 [2] $end
$var wire 1 +! ww_Rt_seg0 [1] $end
$var wire 1 ,! ww_Rt_seg0 [0] $end
$var wire 1 -! ww_Rt_seg1 [6] $end
$var wire 1 .! ww_Rt_seg1 [5] $end
$var wire 1 /! ww_Rt_seg1 [4] $end
$var wire 1 0! ww_Rt_seg1 [3] $end
$var wire 1 1! ww_Rt_seg1 [2] $end
$var wire 1 2! ww_Rt_seg1 [1] $end
$var wire 1 3! ww_Rt_seg1 [0] $end
$var wire 1 4! ww_Data_seg0 [6] $end
$var wire 1 5! ww_Data_seg0 [5] $end
$var wire 1 6! ww_Data_seg0 [4] $end
$var wire 1 7! ww_Data_seg0 [3] $end
$var wire 1 8! ww_Data_seg0 [2] $end
$var wire 1 9! ww_Data_seg0 [1] $end
$var wire 1 :! ww_Data_seg0 [0] $end
$var wire 1 ;! ww_Data_seg1 [6] $end
$var wire 1 <! ww_Data_seg1 [5] $end
$var wire 1 =! ww_Data_seg1 [4] $end
$var wire 1 >! ww_Data_seg1 [3] $end
$var wire 1 ?! ww_Data_seg1 [2] $end
$var wire 1 @! ww_Data_seg1 [1] $end
$var wire 1 A! ww_Data_seg1 [0] $end
$var wire 1 B! \clk~inputclkctrl_INCLK_bus\ [3] $end
$var wire 1 C! \clk~inputclkctrl_INCLK_bus\ [2] $end
$var wire 1 D! \clk~inputclkctrl_INCLK_bus\ [1] $end
$var wire 1 E! \clk~inputclkctrl_INCLK_bus\ [0] $end
$var wire 1 F! \Rs_seg0[0]~output_o\ $end
$var wire 1 G! \Rs_seg0[1]~output_o\ $end
$var wire 1 H! \Rs_seg0[2]~output_o\ $end
$var wire 1 I! \Rs_seg0[3]~output_o\ $end
$var wire 1 J! \Rs_seg0[4]~output_o\ $end
$var wire 1 K! \Rs_seg0[5]~output_o\ $end
$var wire 1 L! \Rs_seg0[6]~output_o\ $end
$var wire 1 M! \Rs_seg1[0]~output_o\ $end
$var wire 1 N! \Rs_seg1[1]~output_o\ $end
$var wire 1 O! \Rs_seg1[2]~output_o\ $end
$var wire 1 P! \Rs_seg1[3]~output_o\ $end
$var wire 1 Q! \Rs_seg1[4]~output_o\ $end
$var wire 1 R! \Rs_seg1[5]~output_o\ $end
$var wire 1 S! \Rs_seg1[6]~output_o\ $end
$var wire 1 T! \Rt_seg0[0]~output_o\ $end
$var wire 1 U! \Rt_seg0[1]~output_o\ $end
$var wire 1 V! \Rt_seg0[2]~output_o\ $end
$var wire 1 W! \Rt_seg0[3]~output_o\ $end
$var wire 1 X! \Rt_seg0[4]~output_o\ $end
$var wire 1 Y! \Rt_seg0[5]~output_o\ $end
$var wire 1 Z! \Rt_seg0[6]~output_o\ $end
$var wire 1 [! \Rt_seg1[0]~output_o\ $end
$var wire 1 \! \Rt_seg1[1]~output_o\ $end
$var wire 1 ]! \Rt_seg1[2]~output_o\ $end
$var wire 1 ^! \Rt_seg1[3]~output_o\ $end
$var wire 1 _! \Rt_seg1[4]~output_o\ $end
$var wire 1 `! \Rt_seg1[5]~output_o\ $end
$var wire 1 a! \Rt_seg1[6]~output_o\ $end
$var wire 1 b! \Data_seg0[0]~output_o\ $end
$var wire 1 c! \Data_seg0[1]~output_o\ $end
$var wire 1 d! \Data_seg0[2]~output_o\ $end
$var wire 1 e! \Data_seg0[3]~output_o\ $end
$var wire 1 f! \Data_seg0[4]~output_o\ $end
$var wire 1 g! \Data_seg0[5]~output_o\ $end
$var wire 1 h! \Data_seg0[6]~output_o\ $end
$var wire 1 i! \Data_seg1[0]~output_o\ $end
$var wire 1 j! \Data_seg1[1]~output_o\ $end
$var wire 1 k! \Data_seg1[2]~output_o\ $end
$var wire 1 l! \Data_seg1[3]~output_o\ $end
$var wire 1 m! \Data_seg1[4]~output_o\ $end
$var wire 1 n! \Data_seg1[5]~output_o\ $end
$var wire 1 o! \Data_seg1[6]~output_o\ $end
$var wire 1 p! \clk~input_o\ $end
$var wire 1 q! \clk~inputclkctrl_outclk\ $end
$var wire 1 r! \op[3]~input_o\ $end
$var wire 1 s! \op[1]~input_o\ $end
$var wire 1 t! \Rt[0]~input_o\ $end
$var wire 1 u! \Rt[1]~input_o\ $end
$var wire 1 v! \Mux87~0_combout\ $end
$var wire 1 w! \Rs[1]~input_o\ $end
$var wire 1 x! \Rs[0]~input_o\ $end
$var wire 1 y! \R3[5]~0_combout\ $end
$var wire 1 z! \Mux63~0_combout\ $end
$var wire 1 {! \R0[6]~0_combout\ $end
$var wire 1 |! \Mux79~0_combout\ $end
$var wire 1 }! \R2[6]~0_combout\ $end
$var wire 1 ~! \Mux15~0_combout\ $end
$var wire 1 !" \Mux15~1_combout\ $end
$var wire 1 "" \Rt_sel[0]~feeder_combout\ $end
$var wire 1 #" \Mux71~0_combout\ $end
$var wire 1 $" \R1[7]~0_combout\ $end
$var wire 1 %" \Mux7~0_combout\ $end
$var wire 1 &" \Mux7~1_combout\ $end
$var wire 1 '" \op[2]~input_o\ $end
$var wire 1 (" \Add0~1_combout\ $end
$var wire 1 )" \Add0~0_combout\ $end
$var wire 1 *" \op[0]~input_o\ $end
$var wire 1 +" \Add0~3_cout\ $end
$var wire 1 ," \Add0~4_combout\ $end
$var wire 1 -" \Add0~6_combout\ $end
$var wire 1 ." \Mux23~0_combout\ $end
$var wire 1 /" \Add0~7_combout\ $end
$var wire 1 0" \Add0~8_combout\ $end
$var wire 1 1" \Data[0]~input_o\ $end
$var wire 1 2" \Rs_sel[3]~3_combout\ $end
$var wire 1 3" \Rs_sel[3]~2_combout\ $end
$var wire 1 4" \Data[7]~input_o\ $end
$var wire 1 5" \Mux16~0_combout\ $end
$var wire 1 6" \Rs_sel[3]~0_combout\ $end
$var wire 1 7" \Mux80~0_combout\ $end
$var wire 1 8" \Mux16~1_combout\ $end
$var wire 1 9" \Mux56~0_combout\ $end
$var wire 1 :" \Mux64~0_combout\ $end
$var wire 1 ;" \Mux16~2_combout\ $end
$var wire 1 <" \Mux16~3_combout\ $end
$var wire 1 =" \Mux20~0_combout\ $end
$var wire 1 >" \Mux16~4_combout\ $end
$var wire 1 ?" \Mux16~5_combout\ $end
$var wire 1 @" \Add0~34_combout\ $end
$var wire 1 A" \Add0~33_combout\ $end
$var wire 1 B" \Mux81~0_combout\ $end
$var wire 1 C" \Mux73~0_combout\ $end
$var wire 1 D" \Mux57~0_combout\ $end
$var wire 1 E" \Mux9~0_combout\ $end
$var wire 1 F" \Mux9~1_combout\ $end
$var wire 1 G" \Mux65~0_combout\ $end
$var wire 1 H" \Mux17~0_combout\ $end
$var wire 1 I" \Mux17~1_combout\ $end
$var wire 1 J" \Data[6]~input_o\ $end
$var wire 1 K" \Mux17~2_combout\ $end
$var wire 1 L" \Rs_sel~8_combout\ $end
$var wire 1 M" \Add0~30_combout\ $end
$var wire 1 N" \Mux74~0_combout\ $end
$var wire 1 O" \Mux58~0_combout\ $end
$var wire 1 P" \Mux66~0_combout\ $end
$var wire 1 Q" \Mux18~0_combout\ $end
$var wire 1 R" \Mux18~1_combout\ $end
$var wire 1 S" \Data[5]~input_o\ $end
$var wire 1 T" \Rs_sel~7_combout\ $end
$var wire 1 U" \Mux18~2_combout\ $end
$var wire 1 V" \Add0~25_combout\ $end
$var wire 1 W" \Mux83~0_combout\ $end
$var wire 1 X" \Mux75~0_combout\ $end
$var wire 1 Y" \Mux59~0_combout\ $end
$var wire 1 Z" \Mux19~0_combout\ $end
$var wire 1 [" \Mux19~1_combout\ $end
$var wire 1 \" \Rs_sel~6_combout\ $end
$var wire 1 ]" \Data[4]~input_o\ $end
$var wire 1 ^" \Mux19~2_combout\ $end
$var wire 1 _" \Add0~21_combout\ $end
$var wire 1 `" \Mux84~0_combout\ $end
$var wire 1 a" \Mux76~0_combout\ $end
$var wire 1 b" \Mux68~0_combout\ $end
$var wire 1 c" \Mux12~0_combout\ $end
$var wire 1 d" \Mux12~1_combout\ $end
$var wire 1 e" \Mux60~0_combout\ $end
$var wire 1 f" \Mux20~1_combout\ $end
$var wire 1 g" \Mux20~2_combout\ $end
$var wire 1 h" \Rs_sel~5_combout\ $end
$var wire 1 i" \Data[3]~input_o\ $end
$var wire 1 j" \Mux20~3_combout\ $end
$var wire 1 k" \Add0~18_combout\ $end
$var wire 1 l" \Mux69~0_combout\ $end
$var wire 1 m" \Mux77~0_combout\ $end
$var wire 1 n" \Mux61~0_combout\ $end
$var wire 1 o" \Mux13~0_combout\ $end
$var wire 1 p" \Mux13~1_combout\ $end
$var wire 1 q" \Mux85~0_combout\ $end
$var wire 1 r" \Mux21~0_combout\ $end
$var wire 1 s" \Mux21~1_combout\ $end
$var wire 1 t" \Add0~14_combout\ $end
$var wire 1 u" \Mux86~0_combout\ $end
$var wire 1 v" \Mux78~0_combout\ $end
$var wire 1 w" \Mux70~0_combout\ $end
$var wire 1 x" \Mux14~0_combout\ $end
$var wire 1 y" \Mux14~1_combout\ $end
$var wire 1 z" \Mux62~0_combout\ $end
$var wire 1 {" \Mux22~0_combout\ $end
$var wire 1 |" \Mux22~1_combout\ $end
$var wire 1 }" \Data[1]~input_o\ $end
$var wire 1 ~" \Mux22~2_combout\ $end
$var wire 1 !# \Rs_sel~1_combout\ $end
$var wire 1 "# \Add0~10_combout\ $end
$var wire 1 ## \Add0~5\ $end
$var wire 1 $# \Add0~11_combout\ $end
$var wire 1 %# \Mux22~3_combout\ $end
$var wire 1 &# \Mux22~4_combout\ $end
$var wire 1 '# \Add0~9_combout\ $end
$var wire 1 (# \Add0~12\ $end
$var wire 1 )# \Add0~15_combout\ $end
$var wire 1 *# \Data[2]~input_o\ $end
$var wire 1 +# \Rs_sel~4_combout\ $end
$var wire 1 ,# \Mux21~2_combout\ $end
$var wire 1 -# \Mux21~3_combout\ $end
$var wire 1 .# \Mux21~4_combout\ $end
$var wire 1 /# \Add0~13_combout\ $end
$var wire 1 0# \Add0~16\ $end
$var wire 1 1# \Add0~19_combout\ $end
$var wire 1 2# \Mux20~4_combout\ $end
$var wire 1 3# \Mux20~5_combout\ $end
$var wire 1 4# \Add0~17_combout\ $end
$var wire 1 5# \Add0~20\ $end
$var wire 1 6# \Add0~23_combout\ $end
$var wire 1 7# \Mux19~3_combout\ $end
$var wire 1 8# \Mux19~4_combout\ $end
$var wire 1 9# \Mux67~0_combout\ $end
$var wire 1 :# \Mux11~0_combout\ $end
$var wire 1 ;# \Mux11~1_combout\ $end
$var wire 1 <# \Add0~22_combout\ $end
$var wire 1 =# \Add0~24\ $end
$var wire 1 ># \Add0~27_combout\ $end
$var wire 1 ?# \Mux18~3_combout\ $end
$var wire 1 @# \Mux18~4_combout\ $end
$var wire 1 A# \Mux82~0_combout\ $end
$var wire 1 B# \Mux10~0_combout\ $end
$var wire 1 C# \Mux10~1_combout\ $end
$var wire 1 D# \Add0~26_combout\ $end
$var wire 1 E# \Add0~28\ $end
$var wire 1 F# \Add0~31_combout\ $end
$var wire 1 G# \Mux17~3_combout\ $end
$var wire 1 H# \Mux17~4_combout\ $end
$var wire 1 I# \Add0~29_combout\ $end
$var wire 1 J# \Add0~32\ $end
$var wire 1 K# \Add0~35_combout\ $end
$var wire 1 L# \Mux16~6_combout\ $end
$var wire 1 M# \Mux72~0_combout\ $end
$var wire 1 N# \Mux8~0_combout\ $end
$var wire 1 O# \Mux8~1_combout\ $end
$var wire 1 P# \LessThan0~1_cout\ $end
$var wire 1 Q# \LessThan0~3_cout\ $end
$var wire 1 R# \LessThan0~5_cout\ $end
$var wire 1 S# \LessThan0~7_cout\ $end
$var wire 1 T# \LessThan0~9_cout\ $end
$var wire 1 U# \LessThan0~11_cout\ $end
$var wire 1 V# \LessThan0~13_cout\ $end
$var wire 1 W# \LessThan0~14_combout\ $end
$var wire 1 X# \Mux23~3_combout\ $end
$var wire 1 Y# \Mux23~4_combout\ $end
$var wire 1 Z# \Mux23~1_combout\ $end
$var wire 1 [# \Mux23~2_combout\ $end
$var wire 1 \# \f1|Mux6~0_combout\ $end
$var wire 1 ]# \f1|Mux5~0_combout\ $end
$var wire 1 ^# \f1|Mux4~0_combout\ $end
$var wire 1 _# \f1|Mux3~0_combout\ $end
$var wire 1 `# \f1|Mux2~0_combout\ $end
$var wire 1 a# \f1|Mux1~0_combout\ $end
$var wire 1 b# \f1|Mux0~0_combout\ $end
$var wire 1 c# \f2|Mux6~0_combout\ $end
$var wire 1 d# \f2|Mux5~0_combout\ $end
$var wire 1 e# \f2|Mux4~0_combout\ $end
$var wire 1 f# \f2|Mux3~0_combout\ $end
$var wire 1 g# \f2|Mux2~0_combout\ $end
$var wire 1 h# \f2|Mux1~0_combout\ $end
$var wire 1 i# \f2|Mux0~0_combout\ $end
$var wire 1 j# \f3|Mux6~0_combout\ $end
$var wire 1 k# \f3|Mux5~0_combout\ $end
$var wire 1 l# \f3|Mux4~0_combout\ $end
$var wire 1 m# \f3|Mux3~0_combout\ $end
$var wire 1 n# \f3|Mux2~0_combout\ $end
$var wire 1 o# \f3|Mux1~0_combout\ $end
$var wire 1 p# \f3|Mux0~0_combout\ $end
$var wire 1 q# \f4|Mux6~0_combout\ $end
$var wire 1 r# \f4|Mux5~0_combout\ $end
$var wire 1 s# \f4|Mux4~0_combout\ $end
$var wire 1 t# \f4|Mux3~0_combout\ $end
$var wire 1 u# \f4|Mux2~0_combout\ $end
$var wire 1 v# \f4|Mux1~0_combout\ $end
$var wire 1 w# \f4|Mux0~0_combout\ $end
$var wire 1 x# \Data_sel[3]~feeder_combout\ $end
$var wire 1 y# \Data_sel[0]~feeder_combout\ $end
$var wire 1 z# \Data_sel[1]~feeder_combout\ $end
$var wire 1 {# \Data_sel[2]~feeder_combout\ $end
$var wire 1 |# \f5|Mux6~0_combout\ $end
$var wire 1 }# \f5|Mux5~0_combout\ $end
$var wire 1 ~# \f5|Mux4~0_combout\ $end
$var wire 1 !$ \f5|Mux3~0_combout\ $end
$var wire 1 "$ \f5|Mux2~0_combout\ $end
$var wire 1 #$ \f5|Mux1~0_combout\ $end
$var wire 1 $$ \f5|Mux0~0_combout\ $end
$var wire 1 %$ \Data_sel[7]~feeder_combout\ $end
$var wire 1 &$ \f6|Mux6~0_combout\ $end
$var wire 1 '$ \f6|Mux5~0_combout\ $end
$var wire 1 ($ \f6|Mux4~0_combout\ $end
$var wire 1 )$ \f6|Mux3~0_combout\ $end
$var wire 1 *$ \f6|Mux2~0_combout\ $end
$var wire 1 +$ \f6|Mux1~0_combout\ $end
$var wire 1 ,$ \f6|Mux0~0_combout\ $end
$var wire 1 -$ Rs_sel [7] $end
$var wire 1 .$ Rs_sel [6] $end
$var wire 1 /$ Rs_sel [5] $end
$var wire 1 0$ Rs_sel [4] $end
$var wire 1 1$ Rs_sel [3] $end
$var wire 1 2$ Rs_sel [2] $end
$var wire 1 3$ Rs_sel [1] $end
$var wire 1 4$ Rs_sel [0] $end
$var wire 1 5$ Rt_sel [7] $end
$var wire 1 6$ Rt_sel [6] $end
$var wire 1 7$ Rt_sel [5] $end
$var wire 1 8$ Rt_sel [4] $end
$var wire 1 9$ Rt_sel [3] $end
$var wire 1 :$ Rt_sel [2] $end
$var wire 1 ;$ Rt_sel [1] $end
$var wire 1 <$ Rt_sel [0] $end
$var wire 1 =$ Data_sel [7] $end
$var wire 1 >$ Data_sel [6] $end
$var wire 1 ?$ Data_sel [5] $end
$var wire 1 @$ Data_sel [4] $end
$var wire 1 A$ Data_sel [3] $end
$var wire 1 B$ Data_sel [2] $end
$var wire 1 C$ Data_sel [1] $end
$var wire 1 D$ Data_sel [0] $end
$var wire 1 E$ R1 [7] $end
$var wire 1 F$ R1 [6] $end
$var wire 1 G$ R1 [5] $end
$var wire 1 H$ R1 [4] $end
$var wire 1 I$ R1 [3] $end
$var wire 1 J$ R1 [2] $end
$var wire 1 K$ R1 [1] $end
$var wire 1 L$ R1 [0] $end
$var wire 1 M$ R2 [7] $end
$var wire 1 N$ R2 [6] $end
$var wire 1 O$ R2 [5] $end
$var wire 1 P$ R2 [4] $end
$var wire 1 Q$ R2 [3] $end
$var wire 1 R$ R2 [2] $end
$var wire 1 S$ R2 [1] $end
$var wire 1 T$ R2 [0] $end
$var wire 1 U$ R0 [7] $end
$var wire 1 V$ R0 [6] $end
$var wire 1 W$ R0 [5] $end
$var wire 1 X$ R0 [4] $end
$var wire 1 Y$ R0 [3] $end
$var wire 1 Z$ R0 [2] $end
$var wire 1 [$ R0 [1] $end
$var wire 1 \$ R0 [0] $end
$var wire 1 ]$ R3 [7] $end
$var wire 1 ^$ R3 [6] $end
$var wire 1 _$ R3 [5] $end
$var wire 1 `$ R3 [4] $end
$var wire 1 a$ R3 [3] $end
$var wire 1 b$ R3 [2] $end
$var wire 1 c$ R3 [1] $end
$var wire 1 d$ R3 [0] $end
$var wire 1 e$ \f6|ALT_INV_Mux6~0_combout\ $end
$var wire 1 f$ \f5|ALT_INV_Mux6~0_combout\ $end
$var wire 1 g$ \f4|ALT_INV_Mux6~0_combout\ $end
$var wire 1 h$ \f3|ALT_INV_Mux6~0_combout\ $end
$var wire 1 i$ \f2|ALT_INV_Mux6~0_combout\ $end
$var wire 1 j$ \f1|ALT_INV_Mux6~0_combout\ $end
$upscope $end
$upscope $end
$enddefinitions $end
#0
$dumpvars
0!
0\
1]
x^
1_
1`
1a
1b
1c
1d
0e
1F!
0G!
0H!
0I!
0J!
0K!
0L!
1M!
0N!
0O!
0P!
0Q!
0R!
0S!
1T!
0U!
0V!
0W!
0X!
0Y!
0Z!
1[!
0\!
0]!
0^!
0_!
0`!
0a!
1b!
0c!
0d!
0e!
0f!
0g!
0h!
1i!
0j!
0k!
0l!
0m!
0n!
0o!
0p!
0q!
0r!
1s!
0t!
0u!
0v!
1w!
0x!
0y!
0z!
1{!
0|!
1}!
0~!
0!"
0""
0#"
0$"
0%"
0&"
0'"
1("
0)"
0*"
0+"
0,"
0-"
0."
0/"
00"
11"
12"
03"
04"
05"
06"
07"
08"
09"
0:"
0;"
0<"
0="
1>"
1?"
1@"
0A"
0B"
0C"
0D"
0E"
0F"
0G"
0H"
0I"
1J"
1K"
0L"
1M"
0N"
0O"
0P"
0Q"
0R"
0S"
0T"
1U"
0V"
0W"
0X"
0Y"
0Z"
0["
0\"
0]"
1^"
0_"
0`"
0a"
0b"
0c"
0d"
0e"
0f"
0g"
0h"
1i"
1j"
1k"
0l"
0m"
0n"
0o"
0p"
0q"
0r"
0s"
1t"
0u"
0v"
0w"
0x"
0y"
0z"
0{"
0|"
0}"
1~"
0!#
1"#
1##
0$#
0%#
0&#
0'#
0(#
0)#
1*#
0+#
1,#
0-#
0.#
0/#
10#
01#
02#
03#
04#
05#
06#
07#
08#
09#
0:#
0;#
1<#
1=#
0>#
0?#
0@#
0A#
0B#
0C#
1D#
0E#
0F#
0G#
0H#
0I#
1J#
0K#
0L#
0M#
0N#
0O#
0P#
1Q#
0R#
1S#
0T#
1U#
0V#
0W#
1X#
0Y#
0Z#
0[#
0\#
0]#
0^#
0_#
0`#
0a#
0b#
0c#
0d#
0e#
0f#
0g#
0h#
0i#
0j#
0k#
0l#
0m#
0n#
0o#
0p#
0q#
0r#
0s#
0t#
0u#
0v#
0w#
1x#
1y#
0z#
1{#
0|#
0}#
0~#
0!$
0"$
0#$
0$$
0%$
0&$
0'$
0($
0)$
0*$
0+$
0,$
1e$
1f$
1g$
1h$
1i$
1j$
0"
1#
0$
0%
1&
1'
0(
1)
08
09
1:
0;
1<
0=
0L
0M
0>
0?
0@
0A
0B
0C
1D
0E
0F
0G
0H
0I
0J
1K
0N
0O
0P
0Q
0R
0S
1T
0U
0V
0W
0X
0Y
0Z
1[
0*
0+
0,
0-
0.
0/
10
01
02
03
04
05
06
17
0f
0g
1h
0i
0j
1k
0l
0m
1n
1o
0p
1q
1r
0s
0t
0u
0v
0w
0x
0y
0z
0{
1|
0}
0~
0!!
0"!
0#!
0$!
1%!
0&!
0'!
0(!
0)!
0*!
0+!
1,!
0-!
0.!
0/!
00!
01!
02!
13!
04!
05!
06!
07!
08!
09!
1:!
0;!
0<!
0=!
0>!
0?!
0@!
1A!
0-$
0.$
0/$
00$
01$
02$
03$
04$
05$
06$
07$
08$
09$
0:$
0;$
0<$
0=$
0>$
0?$
0@$
0A$
0B$
0C$
0D$
0E$
0F$
0G$
0H$
0I$
0J$
0K$
0L$
0M$
0N$
0O$
0P$
0Q$
0R$
0S$
0T$
0U$
0V$
0W$
0X$
0Y$
0Z$
0[$
0\$
0]$
0^$
0_$
0`$
0a$
0b$
0c$
0d$
1B!
1C!
1D!
0E!
$end
#20000
1!
1e
1p!
1E!
1q!
1A$
1D$
1B$
1>$
1&$
1($
1)$
1,$
1|#
1}#
1$$
0f$
0e$
1h!
1c!
1o!
1l!
1k!
0i!
0b!
14!
19!
1;!
1>!
1?!
0A!
0:!
1/
1*
15
14
11
07
00
#40000
0!
1L
1M
0e
1u
1t
1u!
1t!
0p!
0E!
1y!
0{!
1~!
1E"
1c"
1o"
1x"
1:#
1B#
1N#
0q!
#60000
1!
1e
1p!
1E!
1q!
#80000
0!
0e
0p!
0E!
0q!
#90000
0L
0M
0<
0u
0t
0r
0w!
0u!
0t!
1!"
1F"
1p"
1;#
0~!
0E"
0c"
1d"
0o"
0x"
1y"
0:#
0B#
1C#
0N#
1O#
0y!
1{!
0}!
0O#
0C#
0;#
0y"
0p"
0d"
0F"
0!"
1""
0""
#100000
1!
1e
1p!
1E!
1q!
#120000
0!
0e
0p!
0E!
0q!
#140000
1!
1e
1p!
1E!
1q!
#160000
0!
0e
0p!
0E!
0q!
#180000
1!
1e
1p!
1E!
1q!
#200000
0!
0e
0p!
0E!
0q!
#220000
1!
1e
1p!
1E!
1q!
#240000
0!
0e
0p!
0E!
0q!
#260000
1!
1e
1p!
1E!
1q!
#280000
0!
0e
0p!
0E!
0q!
#300000
1!
1e
1p!
1E!
1q!
#320000
0!
0e
0p!
0E!
0q!
#340000
1!
1e
1p!
1E!
1q!
#360000
0!
0e
0p!
0E!
0q!
#380000
1!
1e
1p!
1E!
1q!
#400000
0!
0e
0p!
0E!
0q!
#420000
1!
1e
1p!
1E!
1q!
#440000
0!
0e
0p!
0E!
0q!
#460000
1!
1e
1p!
1E!
1q!
#480000
0!
0e
0p!
0E!
0q!
#500000
1!
1e
1p!
1E!
1q!
#520000
0!
0e
0p!
0E!
0q!
#540000
1!
1e
1p!
1E!
1q!
#560000
0!
0e
0p!
0E!
0q!
#580000
1!
1e
1p!
1E!
1q!
#600000
0!
0e
0p!
0E!
0q!
#620000
1!
1e
1p!
1E!
1q!
#640000
0!
0e
0p!
0E!
0q!
#660000
1!
1e
1p!
1E!
1q!
#680000
0!
0e
0p!
0E!
0q!
#700000
1!
1e
1p!
1E!
1q!
#720000
0!
0e
0p!
0E!
0q!
#740000
1!
1e
1p!
1E!
1q!
#760000
0!
0e
0p!
0E!
0q!
#780000
1!
1e
1p!
1E!
1q!
#800000
0!
0e
0p!
0E!
0q!
#820000
1!
1e
1p!
1E!
1q!
#840000
0!
0e
0p!
0E!
0q!
#860000
1!
1e
1p!
1E!
1q!
#880000
0!
0e
0p!
0E!
0q!
#900000
1!
1e
1p!
1E!
1q!
#920000
0!
0e
0p!
0E!
0q!
#940000
1!
1e
1p!
1E!
1q!
#960000
0!
0e
0p!
0E!
0q!
#980000
1!
1e
1p!
1E!
1q!
