lab3/lab3_01/simulation/qsim/lab3_01.msim.vcd
$comment
	File created using the following command:
		vcd file lab3_01.msim.vcd -direction
$end
$date
	Tue Oct 04 17:37:15 2022
$end
$version
	ModelSim Version 10.5b
$end
$timescale
	1ps
$end

$scope module lab3_01_vhd_vec_tst $end
$var wire 1 ! A0 [3] $end
$var wire 1 " A0 [2] $end
$var wire 1 # A0 [1] $end
$var wire 1 $ A0 [0] $end
$var wire 1 % B0 [3] $end
$var wire 1 & B0 [2] $end
$var wire 1 ' B0 [1] $end
$var wire 1 ( B0 [0] $end
$var wire 1 ) seg [13] $end
$var wire 1 * seg [12] $end
$var wire 1 + seg [11] $end
$var wire 1 , seg [10] $end
$var wire 1 - seg [9] $end
$var wire 1 . seg [8] $end
$var wire 1 / seg [7] $end
$var wire 1 0 seg [6] $end
$var wire 1 1 seg [5] $end
$var wire 1 2 seg [4] $end
$var wire 1 3 seg [3] $end
$var wire 1 4 seg [2] $end
$var wire 1 5 seg [1] $end
$var wire 1 6 seg [0] $end

$scope module i1 $end
$var wire 1 7 gnd $end
$var wire 1 8 vcc $end
$var wire 1 9 unknown $end
$var wire 1 : devoe $end
$var wire 1 ; devclrn $end
$var wire 1 < devpor $end
$var wire 1 = ww_devoe $end
$var wire 1 > ww_devclrn $end
$var wire 1 ? ww_devpor $end
$var wire 1 @ ww_A0 [3] $end
$var wire 1 A ww_A0 [2] $end
$var wire 1 B ww_A0 [1] $end
$var wire 1 C ww_A0 [0] $end
$var wire 1 D ww_B0 [3] $end
$var wire 1 E ww_B0 [2] $end
$var wire 1 F ww_B0 [1] $end
$var wire 1 G ww_B0 [0] $end
$var wire 1 H ww_seg [13] $end
$var wire 1 I ww_seg [12] $end
$var wire 1 J ww_seg [11] $end
$var wire 1 K ww_seg [10] $end
$var wire 1 L ww_seg [9] $end
$var wire 1 M ww_seg [8] $end
$var wire 1 N ww_seg [7] $end
$var wire 1 O ww_seg [6] $end
$var wire 1 P ww_seg [5] $end
$var wire 1 Q ww_seg [4] $end
$var wire 1 R ww_seg [3] $end
$var wire 1 S ww_seg [2] $end
$var wire 1 T ww_seg [1] $end
$var wire 1 U ww_seg [0] $end
$var wire 1 V \seg[0]~output_o\ $end
$var wire 1 W \seg[1]~output_o\ $end
$var wire 1 X \seg[2]~output_o\ $end
$var wire 1 Y \seg[3]~output_o\ $end
$var wire 1 Z \seg[4]~output_o\ $end
$var wire 1 [ \seg[5]~output_o\ $end
$var wire 1 \ \seg[6]~output_o\ $end
$var wire 1 ] \seg[7]~output_o\ $end
$var wire 1 ^ \seg[8]~output_o\ $end
$var wire 1 _ \seg[9]~output_o\ $end
$var wire 1 ` \seg[10]~output_o\ $end
$var wire 1 a \seg[11]~output_o\ $end
$var wire 1 b \seg[12]~output_o\ $end
$var wire 1 c \seg[13]~output_o\ $end
$var wire 1 d \B0[2]~input_o\ $end
$var wire 1 e \A0[2]~input_o\ $end
$var wire 1 f \A0[1]~input_o\ $end
$var wire 1 g \B0[1]~input_o\ $end
$var wire 1 h \A0[0]~input_o\ $end
$var wire 1 i \B0[0]~input_o\ $end
$var wire 1 j \stage1|Cout~0_combout\ $end
$var wire 1 k \stage2|s~0_combout\ $end
$var wire 1 l \stage1|s~0_combout\ $end
$var wire 1 m \stage2|Cout~0_combout\ $end
$var wire 1 n \A0[3]~input_o\ $end
$var wire 1 o \Cout~0_combout\ $end
$var wire 1 p \B0[3]~input_o\ $end
$var wire 1 q \Cout~1_combout\ $end
$var wire 1 r \stage6|s~combout\ $end
$var wire 1 s \stage5|s~0_combout\ $end
$var wire 1 t \stage7|s~combout\ $end
$var wire 1 u \stage0|s~0_combout\ $end
$var wire 1 v \stage8|g0~0_combout\ $end
$var wire 1 w \stage8|f0~0_combout\ $end
$var wire 1 x \stage8|e0~0_combout\ $end
$var wire 1 y \stage8|d0~0_combout\ $end
$var wire 1 z \stage8|d0~1_combout\ $end
$var wire 1 { \stage8|d0~2_combout\ $end
$var wire 1 | \stage8|c0~0_combout\ $end
$var wire 1 } \stage8|b0~0_combout\ $end
$var wire 1 ~ \stage8|a0~0_combout\ $end
$upscope $end
$upscope $end
$enddefinitions $end
#0
$dumpvars
07
18
x9
1:
1;
1<
1=
1>
1?
1V
0W
0X
0Y
0Z
0[
0\
1]
0^
0_
0`
0a
0b
0c
0d
0e
0f
0g
0h
0i
0j
0k
0l
0m
0n
0o
0p
0q
0r
0s
0t
0u
1v
0w
0x
0y
0z
0{
0|
0}
0~
0!
0"
0#
0$
0%
0&
0'
0(
0)
0*
0+
0,
0-
0.
1/
00
01
02
03
04
05
16
0@
0A
0B
0C
0D
0E
0F
0G
0H
0I
0J
0K
0L
0M
1N
0O
0P
0Q
0R
0S
0T
1U
$end
#40000
1$
1C
1h
1u
1w
1x
1y
1~
1{
1\
1X
1W
1O
1S
1T
1Y
15
14
10
1R
13
#80000
0$
1#
1(
0C
1B
1G
1i
1f
0h
1l
1o
1s
0y
0{
0v
0~
0\
0V
0Y
0O
0U
0R
06
03
00
#120000
1$
1C
1h
1j
0l
0u
0x
1|
0s
1k
1r
1v
0w
0|
0v
1x
1z
1~
1Z
0X
1{
1Q
0S
0Z
0W
1V
04
12
0Q
0T
1U
1\
1X
0V
16
05
02
1O
1S
0U
1Y
06
14
10
1R
13
#160000
0$
0#
0(
1"
1'
0C
0B
1A
0G
1F
1g
0i
1e
0f
0h
0k
1m
0o
0j
1l
1s
1k
0m
1o
1t
0r
0t
1r
0x
0~
0z
1}
0{
0\
0X
0O
0S
1[
04
00
1P
0Y
11
0R
03
#200000
1$
1C
1h
1u
1v
1w
1x
1y
0}
1{
0[
1X
1W
1V
0P
1S
1T
1U
1Y
16
15
14
01
1R
13
#240000
0$
1#
1(
0C
1B
1G
1i
1f
0h
1j
0l
0s
0y
0k
1m
0o
1t
0r
1y
0{
0v
0w
1}
1{
0}
1[
0W
0V
0Y
1P
0T
0U
0R
0[
1Y
06
05
03
11
0P
1R
13
01
#280000
1$
1C
1h
1l
0u
0x
1o
1s
0y
0{
1z
1q
0t
1w
0z
1|
0s
1{
0X
1v
0w
0|
0{
0S
1^
1_
1`
1c
0Y
04
1M
1L
1K
1H
0R
1Y
1Z
1W
03
1.
1-
1,
1)
1R
1Q
1T
0Y
0Z
0W
1V
15
13
12
0R
0Q
0T
1U
16
05
03
02
#320000
0$
0#
0(
0"
0'
1!
1&
0C
0B
0A
1@
0G
0F
1E
1d
0g
0i
1n
0e
0f
0h
1t
0j
0l
1r
1s
1k
0m
0v
0t
0r
1|
1}
1w
0}
0V
0U
1[
1Z
06
1P
1Q
0[
1W
12
11
0P
1T
15
01
#360000
1$
1C
1h
1u
1x
0|
0Z
1X
0Q
1S
14
02
#400000
0$
1#
1(
0C
1B
1G
1i
1f
0h
1l
1r
0s
0w
1}
1[
0W
1P
0T
05
11
#440000
1$
1C
1h
1j
0l
0u
1z
0}
1~
0r
1s
0k
1m
0o
1r
1w
0x
0z
1|
0~
1{
0{
0w
0|
1}
1\
0[
1O
0P
1Y
0\
1Z
0X
1W
01
10
1R
0O
1Q
0S
1T
1[
0Z
0W
0Y
15
04
13
12
00
1P
0Q
0T
0R
05
03
02
11
#480000
0$
0#
0(
1"
1'
0C
0B
1A
0G
1F
1g
0i
1e
0f
0h
1k
1o
0j
1l
0s
0k
1t
0r
1w
1|
1~
0w
0|
0}
0~
1\
1Z
1W
1O
1Q
1T
0\
0[
0Z
0W
15
12
10
0O
0P
0Q
0T
05
02
01
00
#520000
1$
1C
1h
1u
1x
1y
1{
1X
1S
1Y
14
1R
13
#560000
0$
1#
1(
0C
1B
1G
1i
1f
0h
1j
0l
1r
1s
1k
0r
0y
0x
1|
1}
0{
0|
1~
1[
1Z
0X
1P
1Q
0S
1\
0Z
0Y
04
12
11
1O
0Q
0R
03
02
10
#600000
1$
1C
1h
1l
0u
1z
0}
0~
1r
0s
1w
0z
1|
1}
1~
1{
0{
0\
0[
0O
0P
1Y
1\
1[
1Z
1W
01
00
1R
1O
1P
1Q
1T
0Y
15
13
12
11
10
0R
03
#640000
0$
0#
0(
0"
0'
0!
0&
1%
0C
0B
0A
0@
0G
0F
0E
1D
1p
0d
0g
0i
0n
0e
0f
0h
0j
0l
0m
0t
0r
1s
0k
0o
0q
1t
1r
0}
0~
0w
1}
0r
0s
0|
0}
0\
0[
0^
0_
0`
0c
0O
0P
0M
0L
0K
0H
1[
0W
01
00
0.
0-
0,
0)
1P
0T
0[
0Z
05
11
0P
0Q
02
01
#680000
1$
1C
1h
1u
1x
1y
1{
1X
1S
1Y
14
1R
13
#720000
0$
1#
1(
0C
1B
1G
1i
1f
0h
1l
1o
1s
0y
0{
0x
1}
1~
1q
0t
1w
1x
0}
0~
0s
1y
1{
1v
1~
1^
1_
1`
1c
1\
1[
0X
0Y
1M
1L
1K
1H
1O
1P
0S
0R
0\
0[
1X
1W
04
03
11
10
1.
1-
1,
1)
0O
0P
1S
1T
1\
1V
1Y
15
14
01
00
1O
1U
1R
16
13
10
#760000
1$
1C
1h
1j
0l
0u
0w
0x
0~
1r
1s
0y
1k
0r
0{
0v
1}
1w
1|
0}
0\
0X
0W
0O
0S
0T
1[
0V
0Y
05
04
00
1P
0U
0R
0[
1Z
1W
06
03
11
0P
1Q
1T
15
12
01
#800000
0$
0#
0(
1"
1'
0C
0B
1A
0G
1F
1g
0i
1e
0f
0h
0k
1m
0o
0j
1l
0s
1k
0m
1o
1r
1v
0w
0|
0v
1x
1z
1~
1{
0Z
0W
1V
0Q
0T
1U
1\
1X
0V
16
05
02
1O
1S
0U
1Y
06
14
10
1R
13
#840000
1$
1C
1h
1u
0z
1}
0~
0{
0\
1[
0O
1P
0Y
11
00
0R
03
#880000
0$
1#
1(
0C
1B
1G
1i
1f
0h
1j
0l
0r
1s
0k
1m
0o
1r
1y
1w
0}
1{
1v
0[
1W
0P
1T
1V
1Y
15
01
1U
1R
16
13
#920000
1$
1C
1h
1l
0u
0v
0w
0x
1}
1o
0r
0s
0y
0{
1v
0}
1t
0v
1[
0X
0W
0V
1P
0S
0T
0U
0[
1V
0Y
06
05
04
11
0P
1U
0R
0V
16
03
01
0U
06
#960000
0$
0#
0(
0"
0'
1!
1&
0C
0B
0A
1@
0G
0F
1E
1d
0g
0i
1n
0e
0f
0h
0t
0j
0l
1r
1s
1k
0m
1v
1t
0r
0v
1}
1z
0}
1V
1{
1U
1[
0V
16
1P
0U
0[
06
11
0P
1Y
01
1R
13
