lab6/simulation/qsim/FSM.msim.vcd
$comment
	File created using the following command:
		vcd file FSM.msim.vcd -direction
$end
$date
	Wed Nov 30 16:07:45 2022
$end
$version
	ModelSim Version 10.5b
$end
$timescale
	1ps
$end

$scope module fsm_vhd_vec_tst $end
$var wire 1 ! clk $end
$var wire 1 " output [2] $end
$var wire 1 # output [1] $end
$var wire 1 $ output [0] $end
$var wire 1 % reset $end
$var wire 1 & w $end

$scope module i1 $end
$var wire 1 ' gnd $end
$var wire 1 ( vcc $end
$var wire 1 ) unknown $end
$var wire 1 * devoe $end
$var wire 1 + devclrn $end
$var wire 1 , devpor $end
$var wire 1 - ww_devoe $end
$var wire 1 . ww_devclrn $end
$var wire 1 / ww_devpor $end
$var wire 1 0 ww_clk $end
$var wire 1 1 ww_reset $end
$var wire 1 2 ww_w $end
$var wire 1 3 ww_output [2] $end
$var wire 1 4 ww_output [1] $end
$var wire 1 5 ww_output [0] $end
$var wire 1 6 \clk~inputclkctrl_INCLK_bus\ [3] $end
$var wire 1 7 \clk~inputclkctrl_INCLK_bus\ [2] $end
$var wire 1 8 \clk~inputclkctrl_INCLK_bus\ [1] $end
$var wire 1 9 \clk~inputclkctrl_INCLK_bus\ [0] $end
$var wire 1 : \output[0]~output_o\ $end
$var wire 1 ; \output[1]~output_o\ $end
$var wire 1 < \output[2]~output_o\ $end
$var wire 1 = \clk~input_o\ $end
$var wire 1 > \clk~inputclkctrl_outclk\ $end
$var wire 1 ? \reset~input_o\ $end
$var wire 1 @ \output~2_combout\ $end
$var wire 1 A \output[1]~reg0_q\ $end
$var wire 1 B \w~input_o\ $end
$var wire 1 C \output~3_combout\ $end
$var wire 1 D \output~4_combout\ $end
$var wire 1 E \output[2]~reg0_q\ $end
$var wire 1 F \output~0_combout\ $end
$var wire 1 G \output~1_combout\ $end
$var wire 1 H \output[0]~reg0_q\ $end
$upscope $end
$upscope $end
$enddefinitions $end
#0
$dumpvars
0!
1%
1&
0'
1(
x)
1*
1+
1,
1-
1.
1/
00
11
12
0:
0;
0<
0=
0>
1?
0@
0A
1B
0C
0D
0E
0F
0G
0H
0"
0#
0$
03
04
05
16
17
18
09
$end
#20000
1!
10
1=
19
1>
#30000
0%
01
0?
1F
1G
#40000
0!
00
0=
09
0>
#60000
1!
10
1=
19
1>
1H
1@
1:
15
1$
#80000
0!
00
0=
09
0>
#100000
1!
10
1=
19
1>
1A
0@
1D
0F
0G
1;
14
1#
#120000
0!
00
0=
09
0>
#140000
1!
10
1=
19
1>
0A
1E
0H
1C
0D
1F
1G
1D
0:
1<
0;
05
13
04
0$
0#
1"
#160000
0!
00
0=
09
0>
#180000
1!
10
1=
19
1>
1H
1:
15
1$
#200000
0!
0&
00
02
0B
0=
09
0>
#220000
1!
10
1=
19
1>
#240000
0!
00
0=
09
0>
#260000
1!
10
1=
19
1>
#280000
0!
00
0=
09
0>
#300000
1!
10
1=
19
1>
#320000
0!
00
0=
09
0>
#340000
1!
10
1=
19
1>
#350000
1%
11
1?
0C
0F
0G
0D
#360000
0!
00
0=
09
0>
#380000
1!
10
1=
19
1>
0E
0H
0:
0<
05
03
0$
0"
#390000
0%
01
0?
#400000
0!
00
0=
09
0>
#420000
1!
10
1=
19
1>
#440000
0!
00
0=
09
0>
#460000
1!
1&
10
12
1B
1=
19
1F
1G
1>
1H
1@
1:
15
1$
#480000
0!
00
0=
09
0>
#500000
1!
10
1=
19
1>
1A
0@
1D
0F
0G
1;
14
1#
#520000
0!
0&
00
02
0B
0=
09
0>
#540000
1!
1&
10
12
1B
1=
19
1>
0A
1E
0H
1C
0D
1F
1G
1D
0:
1<
0;
05
13
04
0$
0#
1"
#560000
0!
00
0=
09
0>
#580000
1!
10
1=
19
1>
1H
1:
15
1$
#600000
0!
00
0=
09
0>
#620000
1!
10
1=
19
1>
#640000
0!
00
0=
09
0>
#660000
1!
10
1=
19
1>
#680000
0!
00
0=
09
0>
#700000
1!
10
1=
19
1>
#720000
0!
00
0=
09
0>
#740000
1!
10
1=
19
1>
#760000
0!
00
0=
09
0>
#780000
1!
10
1=
19
1>
#800000
0!
00
0=
09
0>
#820000
1!
10
1=
19
1>
#840000
0!
00
0=
09
0>
#860000
1!
10
1=
19
1>
#880000
0!
00
0=
09
0>
#900000
1!
10
1=
19
1>
#920000
0!
00
0=
09
0>
#940000
1!
10
1=
19
1>
#960000
0!
00
0=
09
0>
#980000
1!
10
1=
19
1>
