lab6/simulation/qsim/lab6.msim.vcd
$comment
	File created using the following command:
		vcd file lab6.msim.vcd -direction
$end
$date
	Tue Nov 15 22:55:44 2022
$end
$version
	ModelSim Version 10.5b
$end
$timescale
	1ps
$end

$scope module lab6_vhd_vec_tst $end
$var wire 1 ! a [7] $end
$var wire 1 " a [6] $end
$var wire 1 # a [5] $end
$var wire 1 $ a [4] $end
$var wire 1 % a [3] $end
$var wire 1 & a [2] $end
$var wire 1 ' a [1] $end
$var wire 1 ( a [0] $end
$var wire 1 ) b [7] $end
$var wire 1 * b [6] $end
$var wire 1 + b [5] $end
$var wire 1 , b [4] $end
$var wire 1 - b [3] $end
$var wire 1 . b [2] $end
$var wire 1 / b [1] $end
$var wire 1 0 b [0] $end
$var wire 1 1 control [3] $end
$var wire 1 2 control [2] $end
$var wire 1 3 control [1] $end
$var wire 1 4 control [0] $end
$var wire 1 5 s [7] $end
$var wire 1 6 s [6] $end
$var wire 1 7 s [5] $end
$var wire 1 8 s [4] $end
$var wire 1 9 s [3] $end
$var wire 1 : s [2] $end
$var wire 1 ; s [1] $end
$var wire 1 < s [0] $end

$scope module i1 $end
$var wire 1 = gnd $end
$var wire 1 > vcc $end
$var wire 1 ? unknown $end
$var wire 1 @ devoe $end
$var wire 1 A devclrn $end
$var wire 1 B devpor $end
$var wire 1 C ww_devoe $end
$var wire 1 D ww_devclrn $end
$var wire 1 E ww_devpor $end
$var wire 1 F ww_a [7] $end
$var wire 1 G ww_a [6] $end
$var wire 1 H ww_a [5] $end
$var wire 1 I ww_a [4] $end
$var wire 1 J ww_a [3] $end
$var wire 1 K ww_a [2] $end
$var wire 1 L ww_a [1] $end
$var wire 1 M ww_a [0] $end
$var wire 1 N ww_b [7] $end
$var wire 1 O ww_b [6] $end
$var wire 1 P ww_b [5] $end
$var wire 1 Q ww_b [4] $end
$var wire 1 R ww_b [3] $end
$var wire 1 S ww_b [2] $end
$var wire 1 T ww_b [1] $end
$var wire 1 U ww_b [0] $end
$var wire 1 V ww_control [3] $end
$var wire 1 W ww_control [2] $end
$var wire 1 X ww_control [1] $end
$var wire 1 Y ww_control [0] $end
$var wire 1 Z ww_s [7] $end
$var wire 1 [ ww_s [6] $end
$var wire 1 \ ww_s [5] $end
$var wire 1 ] ww_s [4] $end
$var wire 1 ^ ww_s [3] $end
$var wire 1 _ ww_s [2] $end
$var wire 1 ` ww_s [1] $end
$var wire 1 a ww_s [0] $end
$var wire 1 b \s[0]~output_o\ $end
$var wire 1 c \s[1]~output_o\ $end
$var wire 1 d \s[2]~output_o\ $end
$var wire 1 e \s[3]~output_o\ $end
$var wire 1 f \s[4]~output_o\ $end
$var wire 1 g \s[5]~output_o\ $end
$var wire 1 h \s[6]~output_o\ $end
$var wire 1 i \s[7]~output_o\ $end
$var wire 1 j \control[1]~input_o\ $end
$var wire 1 k \b[0]~input_o\ $end
$var wire 1 l \control[2]~input_o\ $end
$var wire 1 m \bt[0]~0_combout\ $end
$var wire 1 n \control[3]~input_o\ $end
$var wire 1 o \a[0]~input_o\ $end
$var wire 1 p \at[0]~0_combout\ $end
$var wire 1 q \control[0]~input_o\ $end
$var wire 1 r \Mux7~0_combout\ $end
$var wire 1 s \Add0~1_cout\ $end
$var wire 1 t \Add0~2_combout\ $end
$var wire 1 u \b[7]~input_o\ $end
$var wire 1 v \bt[7]~1_combout\ $end
$var wire 1 w \a[7]~input_o\ $end
$var wire 1 x \at[7]~1_combout\ $end
$var wire 1 y \a[6]~input_o\ $end
$var wire 1 z \at[6]~2_combout\ $end
$var wire 1 { \b[6]~input_o\ $end
$var wire 1 | \bt[6]~2_combout\ $end
$var wire 1 } \a[5]~input_o\ $end
$var wire 1 ~ \at[5]~3_combout\ $end
$var wire 1 !! \b[5]~input_o\ $end
$var wire 1 "! \bt[5]~3_combout\ $end
$var wire 1 #! \a[4]~input_o\ $end
$var wire 1 $! \at[4]~4_combout\ $end
$var wire 1 %! \b[4]~input_o\ $end
$var wire 1 &! \bt[4]~4_combout\ $end
$var wire 1 '! \b[3]~input_o\ $end
$var wire 1 (! \bt[3]~5_combout\ $end
$var wire 1 )! \a[3]~input_o\ $end
$var wire 1 *! \at[3]~5_combout\ $end
$var wire 1 +! \b[2]~input_o\ $end
$var wire 1 ,! \bt[2]~6_combout\ $end
$var wire 1 -! \a[2]~input_o\ $end
$var wire 1 .! \at[2]~6_combout\ $end
$var wire 1 /! \a[1]~input_o\ $end
$var wire 1 0! \at[1]~7_combout\ $end
$var wire 1 1! \b[1]~input_o\ $end
$var wire 1 2! \bt[1]~7_combout\ $end
$var wire 1 3! \Add0~3\ $end
$var wire 1 4! \Add0~5\ $end
$var wire 1 5! \Add0~7\ $end
$var wire 1 6! \Add0~9\ $end
$var wire 1 7! \Add0~11\ $end
$var wire 1 8! \Add0~13\ $end
$var wire 1 9! \Add0~15\ $end
$var wire 1 :! \Add0~16_combout\ $end
$var wire 1 ;! \Mux7~1_combout\ $end
$var wire 1 <! \Add0~4_combout\ $end
$var wire 1 =! \Mux6~0_combout\ $end
$var wire 1 >! \Mux6~1_combout\ $end
$var wire 1 ?! \Add0~6_combout\ $end
$var wire 1 @! \Mux5~0_combout\ $end
$var wire 1 A! \Mux5~1_combout\ $end
$var wire 1 B! \Mux4~0_combout\ $end
$var wire 1 C! \Add0~8_combout\ $end
$var wire 1 D! \Mux4~1_combout\ $end
$var wire 1 E! \Mux3~0_combout\ $end
$var wire 1 F! \Add0~10_combout\ $end
$var wire 1 G! \Mux3~1_combout\ $end
$var wire 1 H! \Mux2~0_combout\ $end
$var wire 1 I! \Add0~12_combout\ $end
$var wire 1 J! \Mux2~1_combout\ $end
$var wire 1 K! \Add0~14_combout\ $end
$var wire 1 L! \Mux1~0_combout\ $end
$var wire 1 M! \Mux1~1_combout\ $end
$var wire 1 N! \Mux0~0_combout\ $end
$var wire 1 O! \Mux0~1_combout\ $end
$upscope $end
$upscope $end
$enddefinitions $end
#0
$dumpvars
0=
1>
x?
1@
1A
1B
1C
1D
1E
0b
1c
0d
0e
0f
0g
0h
0i
0j
0k
0l
0m
0n
1o
1p
0q
0r
0s
1t
0u
0v
0w
0x
0y
0z
0{
0|
0}
0~
0!!
0"!
0#!
0$!
0%!
0&!
0'!
0(!
0)!
0*!
1+!
1,!
0-!
0.!
1/!
10!
11!
12!
13!
14!
05!
06!
17!
08!
19!
0:!
0;!
0<!
1=!
1>!
0?!
0@!
0A!
0B!
1C!
0D!
0E!
0F!
0G!
0H!
0I!
0J!
0K!
0L!
0M!
0N!
0O!
0!
0"
0#
0$
0%
0&
1'
1(
0)
0*
0+
0,
0-
1.
1/
00
01
02
03
04
0F
0G
0H
0I
0J
0K
1L
1M
0N
0O
0P
0Q
0R
1S
1T
0U
0V
0W
0X
0Y
0Z
0[
0\
0]
0^
0_
1`
0a
05
06
07
08
09
0:
1;
0<
$end
#70000
1%
1&
0(
0M
1K
1J
1)!
1-!
0o
0p
1.!
1*!
0C!
16!
1?!
1@!
0t
1A!
1F!
1d
1_
1:
#80000
0.
0/
10
14
1U
0T
0S
1Y
1q
0+!
01!
1k
1m
02!
0,!
1B!
1D!
0?!
1<!
04!
1r
1t
1;!
1?!
15!
1C!
06!
1e
0F!
1^
1b
19
1a
1<
#140000
1.
1/
04
13
1T
1S
0Y
1X
1j
0q
1+!
11!
12!
1,!
0r
0;!
0=!
0@!
0B!
1;!
0?!
05!
0<!
14!
1?!
0>!
0C!
16!
0A!
0b
1F!
0D!
1A!
0a
1b
0<
1G!
1a
0d
0c
1<
0_
0`
1d
0e
0;
0:
1_
0^
1f
1:
09
1]
18
#150000
0%
0&
1(
0'
1M
0L
0K
0J
0)!
0-!
0/!
1o
1p
00!
0.!
0*!
1C!
06!
0?!
1<!
04!
0t
03!
0<!
14!
0;!
1?!
15!
1>!
0A!
0F!
1D!
0G!
0C!
1A!
0?!
05!
0>!
1C!
0A!
0D!
1e
0d
1c
0b
1D!
1^
0_
1`
0a
0c
1d
0f
0<
1;
0:
19
0`
1_
0]
0e
0d
0;
1:
08
0^
0_
1e
0:
09
1^
19
#200000
0/
1-
12
0T
1R
1W
1l
1'!
01!
0m
1s
1v
1|
1"!
1&!
0,!
1?!
15!
1F!
1I!
1K!
1:!
1O!
1M!
1J!
1G!
0C!
1A!
0D!
1d
1f
1g
1h
1i
1_
1]
1\
1[
1Z
0e
1:
18
17
16
15
0^
09
#210000
1%
1&
0(
1$
0M
1K
1J
1I
1#!
1)!
1-!
0o
0p
1.!
1*!
1$!
0F!
07!
1C!
0?!
05!
1t
13!
1<!
04!
1;!
0C!
16!
0A!
1D!
0I!
18!
0G!
0K!
09!
0J!
1F!
0D!
1?!
15!
1>!
1C!
06!
1A!
1G!
0:!
0M!
0f
1e
0d
1b
0O!
0F!
1D!
0]
1^
0_
1a
1c
0e
0g
1<
0:
19
08
0G!
1`
0^
0\
0h
1f
1d
1;
09
07
0[
1]
1_
1e
0i
1:
18
06
1^
0Z
0f
19
05
0]
08
#270000
0%
0$
1'
00
1L
0J
0I
0U
0k
0#!
0)!
1/!
10!
0*!
0$!
1m
0t
03!
1F!
17!
0C!
0<!
14!
0?!
05!
0>!
0D!
1I!
08!
1G!
1<!
0;!
1>!
1K!
19!
1J!
1C!
0A!
1D!
1:!
1M!
0b
1f
0e
0c
1O!
0a
1]
0^
0`
0d
1g
1c
0<
0;
09
18
0_
1\
1`
1h
1e
1;
0:
17
1[
1^
1i
19
16
1Z
15
#280000
02
14
03
1Y
0X
0W
0l
0j
1q
1r
1=!
0>!
1@!
0D!
1E!
0G!
1H!
0J!
1L!
0M!
1N!
0O!
0m
0s
0v
0|
0"!
0&!
1(!
1,!
02!
0<!
1?!
0C!
16!
1B!
0F!
0E!
0I!
0H!
0K!
0L!
0:!
0N!
0r
13!
1O!
1M!
1J!
1G!
1A!
1>!
1;!
1<!
04!
0;!
0O!
0M!
0J!
0G!
1F!
1D!
0i
0h
0g
0f
0e
0c
0?!
0Z
0[
0\
0]
0^
0`
1b
1c
1d
1f
1g
1h
1i
0;
09
08
07
06
05
1a
1`
1_
1]
1\
1[
1Z
1e
0f
0g
0h
0i
0b
1<
1;
1:
18
17
16
15
1^
0]
0\
0[
0Z
0a
0<
19
08
07
06
05
#340000
0'
0&
0L
0K
0-!
0/!
00!
0.!
1?!
15!
0<!
0=!
0>!
1C!
06!
0F!
0c
0`
0;
#350000
10
0-
1U
0R
0'!
1k
1m
0(!
0C!
0B!
1r
1t
1;!
0D!
0e
1b
0^
1a
1<
09
#360000
12
13
1X
1W
1l
1j
0;!
0@!
0m
1s
1v
1|
1"!
1&!
1(!
0,!
12!
1<!
0?!
1C!
1F!
1I!
1K!
1:!
0A!
1;!
0b
0a
0d
0<
0_
1b
0:
1a
1<
#460000
02
1'
1&
04
1/
0.
0Y
0W
1L
1K
1T
0S
0+!
11!
1-!
1/!
0l
0q
0r
1>!
1D!
1G!
1J!
1M!
1O!
1m
0s
0v
0|
0"!
0&!
0(!
10!
1.!
1?!
0<!
14!
0C!
0F!
0I!
0K!
0:!
0O!
0M!
0J!
0G!
0D!
0?!
05!
0>!
1A!
1i
1h
1g
1f
1e
1c
1C!
0A!
1Z
1[
1\
1]
1^
1`
1;
19
18
17
16
15
1D!
1d
0c
0e
0f
0g
0h
0i
1_
0`
0^
0]
0\
0[
0Z
0d
0;
1:
09
08
07
06
05
0_
1e
0:
1^
19
#550000
0'
0&
0/
1.
03
00
0L
0K
0U
0T
1S
0X
0j
1+!
01!
0k
0-!
0/!
00!
0.!
0m
02!
1,!
0;!
1=!
0D!
1>!
0t
04!
0=!
0>!
1?!
15!
0e
0b
0C!
0^
0a
1c
0<
09
1`
0c
1;
0`
0;
