lab2/lab2_01/simulation/qsim/lab2_01.msim.vcd
$comment
	File created using the following command:
		vcd file lab2_01.msim.vcd -direction
$end
$date
	Sun Oct 02 12:55:12 2022
$end
$version
	ModelSim Version 10.5b
$end
$timescale
	1ps
$end

$scope module lab2_01_vhd_vec_tst $end
$var wire 1 ! Cout $end
$var wire 1 " seg [13] $end
$var wire 1 # seg [12] $end
$var wire 1 $ seg [11] $end
$var wire 1 % seg [10] $end
$var wire 1 & seg [9] $end
$var wire 1 ' seg [8] $end
$var wire 1 ( seg [7] $end
$var wire 1 ) seg [6] $end
$var wire 1 * seg [5] $end
$var wire 1 + seg [4] $end
$var wire 1 , seg [3] $end
$var wire 1 - seg [2] $end
$var wire 1 . seg [1] $end
$var wire 1 / seg [0] $end
$var wire 1 0 x [7] $end
$var wire 1 1 x [6] $end
$var wire 1 2 x [5] $end
$var wire 1 3 x [4] $end
$var wire 1 4 x [3] $end
$var wire 1 5 x [2] $end
$var wire 1 6 x [1] $end
$var wire 1 7 x [0] $end
$var wire 1 8 y [7] $end
$var wire 1 9 y [6] $end
$var wire 1 : y [5] $end
$var wire 1 ; y [4] $end
$var wire 1 < y [3] $end
$var wire 1 = y [2] $end
$var wire 1 > y [1] $end
$var wire 1 ? y [0] $end

$scope module i1 $end
$var wire 1 @ gnd $end
$var wire 1 A vcc $end
$var wire 1 B unknown $end
$var wire 1 C devoe $end
$var wire 1 D devclrn $end
$var wire 1 E devpor $end
$var wire 1 F ww_devoe $end
$var wire 1 G ww_devclrn $end
$var wire 1 H ww_devpor $end
$var wire 1 I ww_x [7] $end
$var wire 1 J ww_x [6] $end
$var wire 1 K ww_x [5] $end
$var wire 1 L ww_x [4] $end
$var wire 1 M ww_x [3] $end
$var wire 1 N ww_x [2] $end
$var wire 1 O ww_x [1] $end
$var wire 1 P ww_x [0] $end
$var wire 1 Q ww_y [7] $end
$var wire 1 R ww_y [6] $end
$var wire 1 S ww_y [5] $end
$var wire 1 T ww_y [4] $end
$var wire 1 U ww_y [3] $end
$var wire 1 V ww_y [2] $end
$var wire 1 W ww_y [1] $end
$var wire 1 X ww_y [0] $end
$var wire 1 Y ww_Cout $end
$var wire 1 Z ww_seg [13] $end
$var wire 1 [ ww_seg [12] $end
$var wire 1 \ ww_seg [11] $end
$var wire 1 ] ww_seg [10] $end
$var wire 1 ^ ww_seg [9] $end
$var wire 1 _ ww_seg [8] $end
$var wire 1 ` ww_seg [7] $end
$var wire 1 a ww_seg [6] $end
$var wire 1 b ww_seg [5] $end
$var wire 1 c ww_seg [4] $end
$var wire 1 d ww_seg [3] $end
$var wire 1 e ww_seg [2] $end
$var wire 1 f ww_seg [1] $end
$var wire 1 g ww_seg [0] $end
$var wire 1 h \Cout~output_o\ $end
$var wire 1 i \seg[0]~output_o\ $end
$var wire 1 j \seg[1]~output_o\ $end
$var wire 1 k \seg[2]~output_o\ $end
$var wire 1 l \seg[3]~output_o\ $end
$var wire 1 m \seg[4]~output_o\ $end
$var wire 1 n \seg[5]~output_o\ $end
$var wire 1 o \seg[6]~output_o\ $end
$var wire 1 p \seg[7]~output_o\ $end
$var wire 1 q \seg[8]~output_o\ $end
$var wire 1 r \seg[9]~output_o\ $end
$var wire 1 s \seg[10]~output_o\ $end
$var wire 1 t \seg[11]~output_o\ $end
$var wire 1 u \seg[12]~output_o\ $end
$var wire 1 v \seg[13]~output_o\ $end
$var wire 1 w \y[6]~input_o\ $end
$var wire 1 x \x[4]~input_o\ $end
$var wire 1 y \y[4]~input_o\ $end
$var wire 1 z \y[3]~input_o\ $end
$var wire 1 { \x[3]~input_o\ $end
$var wire 1 | \x[2]~input_o\ $end
$var wire 1 } \y[2]~input_o\ $end
$var wire 1 ~ \y[1]~input_o\ $end
$var wire 1 !! \y[0]~input_o\ $end
$var wire 1 "! \x[1]~input_o\ $end
$var wire 1 #! \x[0]~input_o\ $end
$var wire 1 $! \stage1|Cout~0_combout\ $end
$var wire 1 %! \stage2|Cout~0_combout\ $end
$var wire 1 &! \stage3|Cout~0_combout\ $end
$var wire 1 '! \stage4|Cout~0_combout\ $end
$var wire 1 (! \x[5]~input_o\ $end
$var wire 1 )! \y[5]~input_o\ $end
$var wire 1 *! \stage5|Cout~0_combout\ $end
$var wire 1 +! \x[6]~input_o\ $end
$var wire 1 ,! \stage6|Cout~0_combout\ $end
$var wire 1 -! \x[7]~input_o\ $end
$var wire 1 .! \y[7]~input_o\ $end
$var wire 1 /! \stage7|Cout~0_combout\ $end
$var wire 1 0! \stage3|s~combout\ $end
$var wire 1 1! \stage2|s~0_combout\ $end
$var wire 1 2! \stage1|s~0_combout\ $end
$var wire 1 3! \stage0|s~0_combout\ $end
$var wire 1 4! \stage8|g0~0_combout\ $end
$var wire 1 5! \stage8|f0~0_combout\ $end
$var wire 1 6! \stage8|e0~0_combout\ $end
$var wire 1 7! \stage8|d0~0_combout\ $end
$var wire 1 8! \stage8|c0~0_combout\ $end
$var wire 1 9! \stage8|b0~0_combout\ $end
$var wire 1 :! \stage8|a0~0_combout\ $end
$var wire 1 ;! \stage4|s~combout\ $end
$var wire 1 <! \stage5|s~combout\ $end
$var wire 1 =! \stage6|s~combout\ $end
$var wire 1 >! \stage7|s~0_combout\ $end
$var wire 1 ?! \stage7|s~combout\ $end
$var wire 1 @! \stage8|g1~0_combout\ $end
$var wire 1 A! \stage8|f1~0_combout\ $end
$var wire 1 B! \stage8|e1~0_combout\ $end
$var wire 1 C! \stage8|d1~0_combout\ $end
$var wire 1 D! \stage8|c1~0_combout\ $end
$var wire 1 E! \stage8|b1~0_combout\ $end
$var wire 1 F! \stage8|a1~0_combout\ $end
$upscope $end
$upscope $end
$enddefinitions $end
#0
$dumpvars
0!
0@
1A
xB
1C
1D
1E
1F
1G
1H
0Y
0h
1i
0j
0k
0l
0m
0n
0o
1p
0q
0r
0s
0t
0u
0v
0w
0x
0y
0z
0{
0|
0}
0~
0!!
0"!
0#!
0$!
0%!
0&!
0'!
0(!
0)!
0*!
0+!
0,!
0-!
0.!
0/!
00!
01!
02!
03!
14!
05!
06!
07!
08!
09!
0:!
0;!
0<!
0=!
0>!
0?!
1@!
0A!
0B!
0C!
0D!
0E!
0F!
00
01
02
03
04
05
06
07
08
09
0:
0;
0<
0=
0>
0?
0I
0J
0K
0L
0M
0N
0O
0P
0Q
0R
0S
0T
0U
0V
0W
0X
0Z
0[
0\
0]
0^
0_
1`
0a
0b
0c
0d
0e
0f
1g
0"
0#
0$
0%
0&
0'
1(
0)
0*
0+
0,
0-
0.
1/
$end
#10000
17
1?
1P
1X
1!!
1#!
12!
04!
15!
18!
1m
1j
0i
1c
1f
0g
0/
1.
1+
#20000
07
0?
16
1>
0P
1O
0X
1W
1~
0!!
1"!
0#!
1$!
02!
14!
05!
08!
11!
04!
16!
17!
1:!
0m
0j
1i
0c
0f
1g
1o
1l
1k
0i
1/
0.
0+
1a
1d
1e
0g
0/
1-
1,
1)
#30000
17
1?
1P
1X
1!!
1#!
12!
06!
07!
19!
0:!
0o
1n
0l
0k
0a
1b
0d
0e
0-
0,
1*
0)
#40000
07
0?
06
0>
15
1=
0P
0O
1N
0X
0W
1V
1}
0~
0!!
1|
0"!
0#!
0$!
02!
1%!
10!
16!
17!
09!
1:!
01!
06!
07!
0:!
1o
0n
1l
1k
1a
0b
1d
1e
0o
0l
0k
1-
1,
0*
1)
0a
0d
0e
0-
0,
0)
#50000
17
1?
1P
1X
1!!
1#!
12!
17!
1l
1d
1,
#60000
07
0?
16
1>
0P
1O
0X
1W
1~
0!!
1"!
0#!
1$!
02!
07!
11!
15!
18!
19!
1:!
0l
0d
1o
1n
1m
1j
0,
1a
1b
1c
1f
1.
1+
1*
1)
#70000
17
1?
1P
1X
1!!
1#!
12!
05!
0:!
0o
0j
0a
0f
0.
0)
#80000
07
0?
06
0>
05
0=
0P
0O
0N
0X
0W
0V
0}
0~
0!!
0|
0"!
0#!
0$!
02!
0%!
00!
15!
1:!
01!
14!
05!
08!
09!
0:!
1o
1j
1a
1f
0o
0n
0m
0j
1i
1.
1)
0a
0b
0c
0f
1g
1/
0.
0+
0*
0)
#90000
17
1?
1P
1X
1!!
1#!
12!
04!
15!
18!
1m
1j
0i
1c
1f
0g
0/
1.
1+
#100000
07
0?
16
1>
0P
1O
0X
1W
1~
0!!
1"!
0#!
1$!
02!
14!
05!
08!
11!
04!
16!
17!
1:!
0m
0j
1i
0c
0f
1g
1o
1l
1k
0i
1/
0.
0+
1a
1d
1e
0g
0/
1-
1,
1)
#110000
17
1?
1P
1X
1!!
1#!
12!
06!
07!
19!
0:!
0o
1n
0l
0k
0a
1b
0d
0e
0-
0,
1*
0)
#120000
07
0?
06
0>
15
1=
0P
0O
1N
0X
0W
1V
1}
0~
0!!
1|
0"!
0#!
0$!
02!
1%!
10!
16!
17!
09!
1:!
01!
06!
07!
0:!
1o
0n
1l
1k
1a
0b
1d
1e
0o
0l
0k
1-
1,
0*
1)
0a
0d
0e
0-
0,
0)
#130000
17
1?
1P
1X
1!!
1#!
12!
17!
1l
1d
1,
#140000
07
0?
16
1>
0P
1O
0X
1W
1~
0!!
1"!
0#!
1$!
02!
07!
11!
15!
18!
19!
1:!
0l
0d
1o
1n
1m
1j
0,
1a
1b
1c
1f
1.
1+
1*
1)
#150000
17
1?
1P
1X
1!!
1#!
12!
05!
0:!
0o
0j
0a
0f
0.
0)
#160000
07
0?
06
0>
05
0=
0P
0O
0N
0X
0W
0V
0}
0~
0!!
0|
0"!
0#!
0$!
02!
0%!
00!
15!
1:!
01!
14!
05!
08!
09!
0:!
1o
1j
1a
1f
0o
0n
0m
0j
1i
1.
1)
0a
0b
0c
0f
1g
1/
0.
0+
0*
0)
#170000
17
1?
1P
1X
1!!
1#!
12!
04!
15!
18!
1m
1j
0i
1c
1f
0g
0/
1.
1+
#180000
07
0?
16
1>
0P
1O
0X
1W
1~
0!!
1"!
0#!
1$!
02!
14!
05!
08!
11!
04!
16!
17!
1:!
0m
0j
1i
0c
0f
1g
1o
1l
1k
0i
1/
0.
0+
1a
1d
1e
0g
0/
1-
1,
1)
#190000
17
1?
1P
1X
1!!
1#!
12!
06!
07!
19!
0:!
0o
1n
0l
0k
0a
1b
0d
0e
0-
0,
1*
0)
#200000
07
0?
06
0>
15
1=
0P
0O
1N
0X
0W
1V
1}
0~
0!!
1|
0"!
0#!
0$!
02!
1%!
10!
16!
17!
09!
1:!
01!
06!
07!
0:!
1o
0n
1l
1k
1a
0b
1d
1e
0o
0l
0k
1-
1,
0*
1)
0a
0d
0e
0-
0,
0)
#210000
17
1?
1P
1X
1!!
1#!
12!
17!
1l
1d
1,
#220000
07
0?
16
1>
0P
1O
0X
1W
1~
0!!
1"!
0#!
1$!
02!
07!
11!
15!
18!
19!
1:!
0l
0d
1o
1n
1m
1j
0,
1a
1b
1c
1f
1.
1+
1*
1)
#230000
17
1?
1P
1X
1!!
1#!
12!
05!
0:!
0o
0j
0a
0f
0.
0)
#240000
07
0?
06
0>
05
0=
0P
0O
0N
0X
0W
0V
0}
0~
0!!
0|
0"!
0#!
0$!
02!
0%!
00!
15!
1:!
01!
14!
05!
08!
09!
0:!
1o
1j
1a
1f
0o
0n
0m
0j
1i
1.
1)
0a
0b
0c
0f
1g
1/
0.
0+
0*
0)
#250000
17
1?
1P
1X
1!!
1#!
12!
04!
15!
18!
1m
1j
0i
1c
1f
0g
0/
1.
1+
#260000
07
0?
16
1>
0P
1O
0X
1W
1~
0!!
1"!
0#!
1$!
02!
14!
05!
08!
11!
04!
16!
17!
1:!
0m
0j
1i
0c
0f
1g
1o
1l
1k
0i
1/
0.
0+
1a
1d
1e
0g
0/
1-
1,
1)
#270000
17
1?
1P
1X
1!!
1#!
12!
06!
07!
19!
0:!
0o
1n
0l
0k
0a
1b
0d
0e
0-
0,
1*
0)
#280000
07
0?
06
0>
15
1=
0P
0O
1N
0X
0W
1V
1}
0~
0!!
1|
0"!
0#!
0$!
02!
1%!
10!
16!
17!
09!
1:!
01!
06!
07!
0:!
1o
0n
1l
1k
1a
0b
1d
1e
0o
0l
0k
1-
1,
0*
1)
0a
0d
0e
0-
0,
0)
#290000
17
1?
1P
1X
1!!
1#!
12!
17!
1l
1d
1,
#300000
07
0?
16
1>
0P
1O
0X
1W
1~
0!!
1"!
0#!
1$!
02!
07!
11!
15!
18!
19!
1:!
0l
0d
1o
1n
1m
1j
0,
1a
1b
1c
1f
1.
1+
1*
1)
#310000
17
1?
1P
1X
1!!
1#!
12!
05!
0:!
0o
0j
0a
0f
0.
0)
#320000
07
0?
06
0>
05
0=
0P
0O
0N
0X
0W
0V
0}
0~
0!!
0|
0"!
0#!
0$!
02!
0%!
00!
15!
1:!
01!
14!
05!
08!
09!
0:!
1o
1j
1a
1f
0o
0n
0m
0j
1i
1.
1)
0a
0b
0c
0f
1g
1/
0.
0+
0*
0)
#330000
17
1?
1P
1X
1!!
1#!
12!
04!
15!
18!
1m
1j
0i
1c
1f
0g
0/
1.
1+
#340000
07
0?
16
1>
0P
1O
0X
1W
1~
0!!
1"!
0#!
1$!
02!
14!
05!
08!
11!
04!
16!
17!
1:!
0m
0j
1i
0c
0f
1g
1o
1l
1k
0i
1/
0.
0+
1a
1d
1e
0g
0/
1-
1,
1)
#350000
17
1?
1P
1X
1!!
1#!
12!
06!
07!
19!
0:!
0o
1n
0l
0k
0a
1b
0d
0e
0-
0,
1*
0)
#360000
07
0?
06
0>
15
1=
0P
0O
1N
0X
0W
1V
1}
0~
0!!
1|
0"!
0#!
0$!
02!
1%!
10!
16!
17!
09!
1:!
01!
06!
07!
0:!
1o
0n
1l
1k
1a
0b
1d
1e
0o
0l
0k
1-
1,
0*
1)
0a
0d
0e
0-
0,
0)
#370000
17
1?
1P
1X
1!!
1#!
12!
17!
1l
1d
1,
#380000
07
0?
16
1>
0P
1O
0X
1W
1~
0!!
1"!
0#!
1$!
02!
07!
11!
15!
18!
19!
1:!
0l
0d
1o
1n
1m
1j
0,
1a
1b
1c
1f
1.
1+
1*
1)
#390000
17
1?
1P
1X
1!!
1#!
12!
05!
0:!
0o
0j
0a
0f
0.
0)
#400000
07
0?
06
0>
05
0=
0P
0O
0N
0X
0W
0V
0}
0~
0!!
0|
0"!
0#!
0$!
02!
0%!
00!
15!
1:!
01!
14!
05!
08!
09!
0:!
1o
1j
1a
1f
0o
0n
0m
0j
1i
1.
1)
0a
0b
0c
0f
1g
1/
0.
0+
0*
0)
#410000
17
1?
1P
1X
1!!
1#!
12!
04!
15!
18!
1m
1j
0i
1c
1f
0g
0/
1.
1+
#420000
07
0?
16
1>
0P
1O
0X
1W
1~
0!!
1"!
0#!
1$!
02!
14!
05!
08!
11!
04!
16!
17!
1:!
0m
0j
1i
0c
0f
1g
1o
1l
1k
0i
1/
0.
0+
1a
1d
1e
0g
0/
1-
1,
1)
#430000
17
1?
1P
1X
1!!
1#!
12!
06!
07!
19!
0:!
0o
1n
0l
0k
0a
1b
0d
0e
0-
0,
1*
0)
#440000
07
0?
06
0>
15
1=
0P
0O
1N
0X
0W
1V
1}
0~
0!!
1|
0"!
0#!
0$!
02!
1%!
10!
16!
17!
09!
1:!
01!
06!
07!
0:!
1o
0n
1l
1k
1a
0b
1d
1e
0o
0l
0k
1-
1,
0*
1)
0a
0d
0e
0-
0,
0)
#450000
17
1?
1P
1X
1!!
1#!
12!
17!
1l
1d
1,
#460000
07
0?
16
1>
0P
1O
0X
1W
1~
0!!
1"!
0#!
1$!
02!
07!
11!
15!
18!
19!
1:!
0l
0d
1o
1n
1m
1j
0,
1a
1b
1c
1f
1.
1+
1*
1)
#470000
17
1?
1P
1X
1!!
1#!
12!
05!
0:!
0o
0j
0a
0f
0.
0)
#480000
07
0?
06
0>
05
0=
0P
0O
0N
0X
0W
0V
0}
0~
0!!
0|
0"!
0#!
0$!
02!
0%!
00!
15!
1:!
01!
14!
05!
08!
09!
0:!
1o
1j
1a
1f
0o
0n
0m
0j
1i
1.
1)
0a
0b
0c
0f
1g
1/
0.
0+
0*
0)
#490000
17
1?
1P
1X
1!!
1#!
12!
04!
15!
18!
1m
1j
0i
1c
1f
0g
0/
1.
1+
#500000
07
0?
16
1>
0P
1O
0X
1W
1~
0!!
1"!
0#!
1$!
02!
14!
05!
08!
11!
04!
16!
17!
1:!
0m
0j
1i
0c
0f
1g
1o
1l
1k
0i
1/
0.
0+
1a
1d
1e
0g
0/
1-
1,
1)
#510000
17
1?
1P
1X
1!!
1#!
12!
06!
07!
19!
0:!
0o
1n
0l
0k
0a
1b
0d
0e
0-
0,
1*
0)
#520000
07
0?
06
0>
15
1=
0P
0O
1N
0X
0W
1V
1}
0~
0!!
1|
0"!
0#!
0$!
02!
1%!
10!
16!
17!
09!
1:!
01!
06!
07!
0:!
1o
0n
1l
1k
1a
0b
1d
1e
0o
0l
0k
1-
1,
0*
1)
0a
0d
0e
0-
0,
0)
#530000
17
1?
1P
1X
1!!
1#!
12!
17!
1l
1d
1,
#540000
07
0?
16
1>
0P
1O
0X
1W
1~
0!!
1"!
0#!
1$!
02!
07!
11!
15!
18!
19!
1:!
0l
0d
1o
1n
1m
1j
0,
1a
1b
1c
1f
1.
1+
1*
1)
#550000
17
1?
1P
1X
1!!
1#!
12!
05!
0:!
0o
0j
0a
0f
0.
0)
#560000
07
0?
06
0>
05
0=
0P
0O
0N
0X
0W
0V
0}
0~
0!!
0|
0"!
0#!
0$!
02!
0%!
00!
15!
1:!
01!
14!
05!
08!
09!
0:!
1o
1j
1a
1f
0o
0n
0m
0j
1i
1.
1)
0a
0b
0c
0f
1g
1/
0.
0+
0*
0)
#570000
17
1?
1P
1X
1!!
1#!
12!
04!
15!
18!
1m
1j
0i
1c
1f
0g
0/
1.
1+
#580000
07
0?
16
1>
0P
1O
0X
1W
1~
0!!
1"!
0#!
1$!
02!
14!
05!
08!
11!
04!
16!
17!
1:!
0m
0j
1i
0c
0f
1g
1o
1l
1k
0i
1/
0.
0+
1a
1d
1e
0g
0/
1-
1,
1)
#590000
17
1?
1P
1X
1!!
1#!
12!
06!
07!
19!
0:!
0o
1n
0l
0k
0a
1b
0d
0e
0-
0,
1*
0)
#600000
07
0?
06
0>
15
1=
0P
0O
1N
0X
0W
1V
1}
0~
0!!
1|
0"!
0#!
0$!
02!
1%!
10!
16!
17!
09!
1:!
01!
06!
07!
0:!
1o
0n
1l
1k
1a
0b
1d
1e
0o
0l
0k
1-
1,
0*
1)
0a
0d
0e
0-
0,
0)
#610000
17
1?
1P
1X
1!!
1#!
12!
17!
1l
1d
1,
#620000
07
0?
16
1>
0P
1O
0X
1W
1~
0!!
1"!
0#!
1$!
02!
07!
11!
15!
18!
19!
1:!
0l
0d
1o
1n
1m
1j
0,
1a
1b
1c
1f
1.
1+
1*
1)
#630000
17
1?
1P
1X
1!!
1#!
12!
05!
0:!
0o
0j
0a
0f
0.
0)
#640000
07
0?
06
0>
05
0=
0P
0O
0N
0X
0W
0V
0}
0~
0!!
0|
0"!
0#!
0$!
02!
0%!
00!
15!
1:!
01!
14!
05!
08!
09!
0:!
1o
1j
1a
1f
0o
0n
0m
0j
1i
1.
1)
0a
0b
0c
0f
1g
1/
0.
0+
0*
0)
#650000
17
1?
1P
1X
1!!
1#!
12!
04!
15!
18!
1m
1j
0i
1c
1f
0g
0/
1.
1+
#660000
07
0?
16
1>
0P
1O
0X
1W
1~
0!!
1"!
0#!
1$!
02!
14!
05!
08!
11!
04!
16!
17!
1:!
0m
0j
1i
0c
0f
1g
1o
1l
1k
0i
1/
0.
0+
1a
1d
1e
0g
0/
1-
1,
1)
#670000
17
1?
1P
1X
1!!
1#!
12!
06!
07!
19!
0:!
0o
1n
0l
0k
0a
1b
0d
0e
0-
0,
1*
0)
#680000
07
0?
06
0>
15
1=
0P
0O
1N
0X
0W
1V
1}
0~
0!!
1|
0"!
0#!
0$!
02!
1%!
10!
16!
17!
09!
1:!
01!
06!
07!
0:!
1o
0n
1l
1k
1a
0b
1d
1e
0o
0l
0k
1-
1,
0*
1)
0a
0d
0e
0-
0,
0)
#690000
17
1?
1P
1X
1!!
1#!
12!
17!
1l
1d
1,
#700000
07
0?
16
1>
0P
1O
0X
1W
1~
0!!
1"!
0#!
1$!
02!
07!
11!
15!
18!
19!
1:!
0l
0d
1o
1n
1m
1j
0,
1a
1b
1c
1f
1.
1+
1*
1)
#710000
17
1?
1P
1X
1!!
1#!
12!
05!
0:!
0o
0j
0a
0f
0.
0)
#720000
07
0?
06
0>
05
0=
0P
0O
0N
0X
0W
0V
0}
0~
0!!
0|
0"!
0#!
0$!
02!
0%!
00!
15!
1:!
01!
14!
05!
08!
09!
0:!
1o
1j
1a
1f
0o
0n
0m
0j
1i
1.
1)
0a
0b
0c
0f
1g
1/
0.
0+
0*
0)
#730000
17
1?
1P
1X
1!!
1#!
12!
04!
15!
18!
1m
1j
0i
1c
1f
0g
0/
1.
1+
#740000
07
0?
16
1>
0P
1O
0X
1W
1~
0!!
1"!
0#!
1$!
02!
14!
05!
08!
11!
04!
16!
17!
1:!
0m
0j
1i
0c
0f
1g
1o
1l
1k
0i
1/
0.
0+
1a
1d
1e
0g
0/
1-
1,
1)
#750000
17
1?
1P
1X
1!!
1#!
12!
06!
07!
19!
0:!
0o
1n
0l
0k
0a
1b
0d
0e
0-
0,
1*
0)
#760000
07
0?
06
0>
15
1=
0P
0O
1N
0X
0W
1V
1}
0~
0!!
1|
0"!
0#!
0$!
02!
1%!
10!
16!
17!
09!
1:!
01!
06!
07!
0:!
1o
0n
1l
1k
1a
0b
1d
1e
0o
0l
0k
1-
1,
0*
1)
0a
0d
0e
0-
0,
0)
#770000
17
1?
1P
1X
1!!
1#!
12!
17!
1l
1d
1,
#780000
07
0?
16
1>
0P
1O
0X
1W
1~
0!!
1"!
0#!
1$!
02!
07!
11!
15!
18!
19!
1:!
0l
0d
1o
1n
1m
1j
0,
1a
1b
1c
1f
1.
1+
1*
1)
#790000
17
1?
1P
1X
1!!
1#!
12!
05!
0:!
0o
0j
0a
0f
0.
0)
#800000
07
0?
06
0>
05
0=
0P
0O
0N
0X
0W
0V
0}
0~
0!!
0|
0"!
0#!
0$!
02!
0%!
00!
15!
1:!
01!
14!
05!
08!
09!
0:!
1o
1j
1a
1f
0o
0n
0m
0j
1i
1.
1)
0a
0b
0c
0f
1g
1/
0.
0+
0*
0)
#810000
17
1?
1P
1X
1!!
1#!
12!
04!
15!
18!
1m
1j
0i
1c
1f
0g
0/
1.
1+
#820000
07
0?
16
1>
0P
1O
0X
1W
1~
0!!
1"!
0#!
1$!
02!
14!
05!
08!
11!
04!
16!
17!
1:!
0m
0j
1i
0c
0f
1g
1o
1l
1k
0i
1/
0.
0+
1a
1d
1e
0g
0/
1-
1,
1)
#830000
17
1?
1P
1X
1!!
1#!
12!
06!
07!
19!
0:!
0o
1n
0l
0k
0a
1b
0d
0e
0-
0,
1*
0)
#840000
07
0?
06
0>
15
1=
0P
0O
1N
0X
0W
1V
1}
0~
0!!
1|
0"!
0#!
0$!
02!
1%!
10!
16!
17!
09!
1:!
01!
06!
07!
0:!
1o
0n
1l
1k
1a
0b
1d
1e
0o
0l
0k
1-
1,
0*
1)
0a
0d
0e
0-
0,
0)
#850000
17
1?
1P
1X
1!!
1#!
12!
17!
1l
1d
1,
#860000
07
0?
16
1>
0P
1O
0X
1W
1~
0!!
1"!
0#!
1$!
02!
07!
11!
15!
18!
19!
1:!
0l
0d
1o
1n
1m
1j
0,
1a
1b
1c
1f
1.
1+
1*
1)
#870000
17
1?
1P
1X
1!!
1#!
12!
05!
0:!
0o
0j
0a
0f
0.
0)
#880000
07
0?
06
0>
05
0=
0P
0O
0N
0X
0W
0V
0}
0~
0!!
0|
0"!
0#!
0$!
02!
0%!
00!
15!
1:!
01!
14!
05!
08!
09!
0:!
1o
1j
1a
1f
0o
0n
0m
0j
1i
1.
1)
0a
0b
0c
0f
1g
1/
0.
0+
0*
0)
#890000
17
1?
1P
1X
1!!
1#!
12!
04!
15!
18!
1m
1j
0i
1c
1f
0g
0/
1.
1+
#900000
07
0?
16
1>
0P
1O
0X
1W
1~
0!!
1"!
0#!
1$!
02!
14!
05!
08!
11!
04!
16!
17!
1:!
0m
0j
1i
0c
0f
1g
1o
1l
1k
0i
1/
0.
0+
1a
1d
1e
0g
0/
1-
1,
1)
#910000
17
1?
1P
1X
1!!
1#!
12!
06!
07!
19!
0:!
0o
1n
0l
0k
0a
1b
0d
0e
0-
0,
1*
0)
#920000
07
0?
06
0>
15
1=
0P
0O
1N
0X
0W
1V
1}
0~
0!!
1|
0"!
0#!
0$!
02!
1%!
10!
16!
17!
09!
1:!
01!
06!
07!
0:!
1o
0n
1l
1k
1a
0b
1d
1e
0o
0l
0k
1-
1,
0*
1)
0a
0d
0e
0-
0,
0)
#930000
17
1?
1P
1X
1!!
1#!
12!
17!
1l
1d
1,
#940000
07
0?
16
1>
0P
1O
0X
1W
1~
0!!
1"!
0#!
1$!
02!
07!
11!
15!
18!
19!
1:!
0l
0d
1o
1n
1m
1j
0,
1a
1b
1c
1f
1.
1+
1*
1)
#950000
17
1?
1P
1X
1!!
1#!
12!
05!
0:!
0o
0j
0a
0f
0.
0)
#960000
07
0?
06
0>
05
0=
0P
0O
0N
0X
0W
0V
0}
0~
0!!
0|
0"!
0#!
0$!
02!
0%!
00!
15!
1:!
01!
14!
05!
08!
09!
0:!
1o
1j
1a
1f
0o
0n
0m
0j
1i
1.
1)
0a
0b
0c
0f
1g
1/
0.
0+
0*
0)
#970000
17
1?
1P
1X
1!!
1#!
12!
04!
15!
18!
1m
1j
0i
1c
1f
0g
0/
1.
1+
#980000
07
0?
16
1>
0P
1O
0X
1W
1~
0!!
1"!
0#!
1$!
02!
14!
05!
08!
11!
04!
16!
17!
1:!
0m
0j
1i
0c
0f
1g
1o
1l
1k
0i
1/
0.
0+
1a
1d
1e
0g
0/
1-
1,
1)
#990000
17
1?
1P
1X
1!!
1#!
12!
06!
07!
19!
0:!
0o
1n
0l
0k
0a
1b
0d
0e
0-
0,
1*
0)
