lab4/simulation/qsim/lab4_01.msim.vcd
$comment
	File created using the following command:
		vcd file lab4_01.msim.vcd -direction
$end
$date
	Thu Oct 20 22:03:20 2022
$end
$version
	ModelSim Version 10.5b
$end
$timescale
	1ps
$end

$scope module lab4_01_vhd_vec_tst $end
$var wire 1 ! A [6] $end
$var wire 1 " A [5] $end
$var wire 1 # A [4] $end
$var wire 1 $ A [3] $end
$var wire 1 % A [2] $end
$var wire 1 & A [1] $end
$var wire 1 ' A [0] $end
$var wire 1 ( B [6] $end
$var wire 1 ) B [5] $end
$var wire 1 * B [4] $end
$var wire 1 + B [3] $end
$var wire 1 , B [2] $end
$var wire 1 - B [1] $end
$var wire 1 . B [0] $end
$var wire 1 / Ctrol [3] $end
$var wire 1 0 Ctrol [2] $end
$var wire 1 1 Ctrol [1] $end
$var wire 1 2 Ctrol [0] $end
$var wire 1 3 Result [6] $end
$var wire 1 4 Result [5] $end
$var wire 1 5 Result [4] $end
$var wire 1 6 Result [3] $end
$var wire 1 7 Result [2] $end
$var wire 1 8 Result [1] $end
$var wire 1 9 Result [0] $end
$var wire 1 : seg [13] $end
$var wire 1 ; seg [12] $end
$var wire 1 < seg [11] $end
$var wire 1 = seg [10] $end
$var wire 1 > seg [9] $end
$var wire 1 ? seg [8] $end
$var wire 1 @ seg [7] $end
$var wire 1 A seg [6] $end
$var wire 1 B seg [5] $end
$var wire 1 C seg [4] $end
$var wire 1 D seg [3] $end
$var wire 1 E seg [2] $end
$var wire 1 F seg [1] $end
$var wire 1 G seg [0] $end

$scope module i1 $end
$var wire 1 H gnd $end
$var wire 1 I vcc $end
$var wire 1 J unknown $end
$var wire 1 K devoe $end
$var wire 1 L devclrn $end
$var wire 1 M devpor $end
$var wire 1 N ww_devoe $end
$var wire 1 O ww_devclrn $end
$var wire 1 P ww_devpor $end
$var wire 1 Q ww_A [6] $end
$var wire 1 R ww_A [5] $end
$var wire 1 S ww_A [4] $end
$var wire 1 T ww_A [3] $end
$var wire 1 U ww_A [2] $end
$var wire 1 V ww_A [1] $end
$var wire 1 W ww_A [0] $end
$var wire 1 X ww_B [6] $end
$var wire 1 Y ww_B [5] $end
$var wire 1 Z ww_B [4] $end
$var wire 1 [ ww_B [3] $end
$var wire 1 \ ww_B [2] $end
$var wire 1 ] ww_B [1] $end
$var wire 1 ^ ww_B [0] $end
$var wire 1 _ ww_Ctrol [3] $end
$var wire 1 ` ww_Ctrol [2] $end
$var wire 1 a ww_Ctrol [1] $end
$var wire 1 b ww_Ctrol [0] $end
$var wire 1 c ww_seg [13] $end
$var wire 1 d ww_seg [12] $end
$var wire 1 e ww_seg [11] $end
$var wire 1 f ww_seg [10] $end
$var wire 1 g ww_seg [9] $end
$var wire 1 h ww_seg [8] $end
$var wire 1 i ww_seg [7] $end
$var wire 1 j ww_seg [6] $end
$var wire 1 k ww_seg [5] $end
$var wire 1 l ww_seg [4] $end
$var wire 1 m ww_seg [3] $end
$var wire 1 n ww_seg [2] $end
$var wire 1 o ww_seg [1] $end
$var wire 1 p ww_seg [0] $end
$var wire 1 q ww_Result [6] $end
$var wire 1 r ww_Result [5] $end
$var wire 1 s ww_Result [4] $end
$var wire 1 t ww_Result [3] $end
$var wire 1 u ww_Result [2] $end
$var wire 1 v ww_Result [1] $end
$var wire 1 w ww_Result [0] $end
$var wire 1 x \seg[0]~output_o\ $end
$var wire 1 y \seg[1]~output_o\ $end
$var wire 1 z \seg[2]~output_o\ $end
$var wire 1 { \seg[3]~output_o\ $end
$var wire 1 | \seg[4]~output_o\ $end
$var wire 1 } \seg[5]~output_o\ $end
$var wire 1 ~ \seg[6]~output_o\ $end
$var wire 1 !! \seg[7]~output_o\ $end
$var wire 1 "! \seg[8]~output_o\ $end
$var wire 1 #! \seg[9]~output_o\ $end
$var wire 1 $! \seg[10]~output_o\ $end
$var wire 1 %! \seg[11]~output_o\ $end
$var wire 1 &! \seg[12]~output_o\ $end
$var wire 1 '! \seg[13]~output_o\ $end
$var wire 1 (! \Result[0]~output_o\ $end
$var wire 1 )! \Result[1]~output_o\ $end
$var wire 1 *! \Result[2]~output_o\ $end
$var wire 1 +! \Result[3]~output_o\ $end
$var wire 1 ,! \Result[4]~output_o\ $end
$var wire 1 -! \Result[5]~output_o\ $end
$var wire 1 .! \Result[6]~output_o\ $end
$var wire 1 /! \B[0]~input_o\ $end
$var wire 1 0! \Ctrol[3]~input_o\ $end
$var wire 1 1! \Ctrol[0]~input_o\ $end
$var wire 1 2! \Ctrol[1]~input_o\ $end
$var wire 1 3! \A[0]~input_o\ $end
$var wire 1 4! \G1:0:G3:compute2|Mux0~1_combout\ $end
$var wire 1 5! \Ctrol[2]~input_o\ $end
$var wire 1 6! \G1:0:G3:compute2|Mux0~2_combout\ $end
$var wire 1 7! \G1:0:G3:compute2|set~0_combout\ $end
$var wire 1 8! \B[5]~input_o\ $end
$var wire 1 9! \G1:5:G2:compute1|bt~0_combout\ $end
$var wire 1 :! \A[5]~input_o\ $end
$var wire 1 ;! \B[4]~input_o\ $end
$var wire 1 <! \G1:4:G2:compute1|bt~0_combout\ $end
$var wire 1 =! \A[3]~input_o\ $end
$var wire 1 >! \A[2]~input_o\ $end
$var wire 1 ?! \B[2]~input_o\ $end
$var wire 1 @! \G1:2:G2:compute1|bt~0_combout\ $end
$var wire 1 A! \G1:0:G3:compute2|Cout~0_combout\ $end
$var wire 1 B! \B[1]~input_o\ $end
$var wire 1 C! \G1:1:G2:compute1|bt~0_combout\ $end
$var wire 1 D! \A[1]~input_o\ $end
$var wire 1 E! \G1:1:G2:compute1|Cout~0_combout\ $end
$var wire 1 F! \G1:2:G2:compute1|Cout~0_combout\ $end
$var wire 1 G! \B[3]~input_o\ $end
$var wire 1 H! \G1:3:G2:compute1|bt~0_combout\ $end
$var wire 1 I! \G1:3:G2:compute1|Cout~0_combout\ $end
$var wire 1 J! \A[4]~input_o\ $end
$var wire 1 K! \G1:4:G2:compute1|Cout~0_combout\ $end
$var wire 1 L! \G1:5:G2:compute1|Cout~0_combout\ $end
$var wire 1 M! \A[6]~input_o\ $end
$var wire 1 N! \B[6]~input_o\ $end
$var wire 1 O! \G1:6:G2:compute1|bt~0_combout\ $end
$var wire 1 P! \G1:6:G2:compute1|set~combout\ $end
$var wire 1 Q! \G1:0:G3:compute2|Mux0~0_combout\ $end
$var wire 1 R! \G1:2:G2:compute1|Mux0~0_combout\ $end
$var wire 1 S! \G1:2:G2:compute1|Mux0~1_combout\ $end
$var wire 1 T! \G1:3:G2:compute1|Mux0~0_combout\ $end
$var wire 1 U! \G1:3:G2:compute1|Mux0~1_combout\ $end
$var wire 1 V! \G1:1:G2:compute1|Mux0~0_combout\ $end
$var wire 1 W! \G1:1:G2:compute1|Mux0~1_combout\ $end
$var wire 1 X! \stage1|g0~0_combout\ $end
$var wire 1 Y! \stage1|f0~0_combout\ $end
$var wire 1 Z! \stage1|e0~0_combout\ $end
$var wire 1 [! \stage1|d0~0_combout\ $end
$var wire 1 \! \stage1|c0~0_combout\ $end
$var wire 1 ]! \stage1|b0~0_combout\ $end
$var wire 1 ^! \stage1|a0~0_combout\ $end
$var wire 1 _! \G1:6:G2:compute1|Mux0~0_combout\ $end
$var wire 1 `! \G1:6:G2:compute1|Mux0~1_combout\ $end
$var wire 1 a! \G1:5:G2:compute1|Mux0~0_combout\ $end
$var wire 1 b! \G1:5:G2:compute1|Mux0~1_combout\ $end
$var wire 1 c! \G1:6:G2:compute1|Cout~0_combout\ $end
$var wire 1 d! \G1:4:G2:compute1|Mux0~0_combout\ $end
$var wire 1 e! \G1:4:G2:compute1|Mux0~1_combout\ $end
$var wire 1 f! \stage1|g1~0_combout\ $end
$var wire 1 g! \stage1|f1~0_combout\ $end
$var wire 1 h! \stage1|e1~0_combout\ $end
$var wire 1 i! \stage1|d1~0_combout\ $end
$var wire 1 j! \stage1|c1~0_combout\ $end
$var wire 1 k! \stage1|b1~0_combout\ $end
$var wire 1 l! \stage1|a1~0_combout\ $end
$upscope $end
$upscope $end
$enddefinitions $end
#0
$dumpvars
0H
1I
xJ
1K
1L
1M
1N
1O
1P
1x
1y
1z
1{
0|
0}
1~
1!!
0"!
0#!
0$!
0%!
0&!
0'!
1(!
0)!
0*!
0+!
0,!
0-!
0.!
1/!
00!
01!
02!
13!
14!
05!
16!
07!
08!
09!
0:!
0;!
0<!
0=!
1>!
0?!
0@!
1A!
0B!
0C!
1D!
1E!
1F!
0G!
0H!
0I!
0J!
0K!
0L!
0M!
0N!
0O!
0P!
1Q!
1R!
0S!
0T!
0U!
1V!
0W!
1X!
1Y!
1Z!
1[!
0\!
0]!
1^!
0_!
0`!
0a!
0b!
0c!
0d!
0e!
1f!
0g!
0h!
0i!
0j!
0k!
0l!
0!
0"
0#
0$
1%
1&
1'
0(
0)
0*
0+
0,
0-
1.
0/
00
01
02
03
04
05
06
07
08
19
0Q
0R
0S
0T
1U
1V
1W
0X
0Y
0Z
0[
0\
0]
1^
0_
0`
0a
0b
0c
0d
0e
0f
0g
0h
1i
1j
0k
0l
1m
1n
1o
1p
0q
0r
0s
0t
0u
0v
1w
0:
0;
0<
0=
0>
0?
1@
1A
0B
0C
1D
1E
1F
1G
$end
#80000
0%
0&
0'
0.
12
0W
0V
0U
0^
1b
11!
0/!
0>!
0D!
03!
0E!
0V!
0F!
0R!
0A!
04!
1S!
1W!
0^!
06!
0S!
0W!
1^!
0Q!
1)!
1*!
0Y!
0Z!
0[!
0^!
1v
1u
0)!
0*!
0~
18
17
0v
0u
0j
0(!
1~
08
07
0A
0w
1j
0~
0{
0z
0y
09
1A
0j
0m
0n
0o
0F
0E
0D
0A
#160000
1%
1&
1'
1.
02
1$
1,
1-
11
1W
1V
1U
1T
1^
1]
1\
0b
1a
12!
01!
1?!
1B!
1/!
1=!
1>!
1D!
13!
1A!
1C!
1@!
1R!
1T!
1V!
1U!
1F!
1E!
0V!
1W!
0R!
1I!
0T!
0X!
0U!
1d!
1S!
1[!
1+!
1e!
0[!
1]!
1t
0x
1)!
16
1g!
1h!
1i!
1l!
0p
1v
1{
1*!
0+!
0G
18
1m
1u
0t
1}
0{
1,!
1D
17
06
1k
0m
1s
1'!
1$!
1#!
1"!
0D
1B
15
1c
1f
1g
1h
1?
1>
1=
1:
#240000
0%
0&
0'
0.
12
0$
0,
0-
0W
0V
0U
0T
0^
0]
0\
1b
11!
0?!
0B!
0/!
0=!
0>!
0D!
03!
1V!
1R!
0I!
1T!
0A!
0C!
0@!
14!
0S!
0W!
0e!
0g!
0h!
0i!
0l!
1X!
0]!
16!
0F!
0E!
0V!
0d!
0R!
0T!
0,!
0)!
0*!
0s
0v
0u
0}
1x
0'!
0$!
0#!
0"!
08
07
05
0k
1p
0c
0f
0g
0h
1G
0B
0?
0>
0=
0:
#320000
02
01
10
0b
0a
1`
15!
02!
01!
04!
1Q!
19!
1<!
1@!
1A!
1C!
1H!
1O!
1P!
1E!
1Y!
1Z!
1[!
1^!
06!
1F!
0Q!
1(!
0Y!
0Z!
0[!
0^!
1I!
1w
1~
1{
1z
1y
19
1K!
1j
1m
1n
1o
0(!
1F
1E
1D
1A
1L!
0w
0~
0{
0z
0y
09
0P!
1c!
0j
0m
0n
0o
0F
0E
0D
0A
0f!
0!!
0i
0@
#400000
12
1b
11!
16!
1S!
1U!
1W!
1_!
1b!
1e!
1k!
1l!
1`!
0X!
1\!
1]!
1Q!
1[!
1i!
1j!
0l!
1,!
1-!
1)!
1+!
1*!
1s
1r
1v
1t
1u
1(!
1}
1|
0x
1.!
1'!
1&!
18
17
16
15
14
1w
1k
1l
0p
1q
1c
1d
0'!
1%!
1$!
1{
19
13
0G
1C
1B
1;
1:
0c
1e
1f
1m
1D
1=
1<
0:
#480000
02
11
1.
0b
1a
1^
1/!
12!
01!
0_!
0Q!
1R!
1T!
1V!
0`!
1a!
1d!
06!
17!
0A!
0E!
0V!
1Q!
0e!
0b!
0i!
0j!
1l!
0W!
0U!
0S!
0[!
0k!
0l!
1X!
1Y!
1Z!
1[!
0\!
0]!
1^!
1W!
0F!
0R!
0.!
0(!
1S!
0I!
0T!
0X!
0[!
0^!
0q
0w
0{
0*!
0+!
0)!
1'!
0%!
0$!
0-!
0,!
1(!
09
03
1U!
0K!
0d!
1X!
1[!
0m
0u
0t
0v
1c
0e
0f
0r
0s
1w
1)!
1~
0}
0|
1{
1z
1y
1x
0'!
0&!
0D
0=
0<
1:
19
08
07
06
05
04
1e!
0L!
0a!
0X!
0Y!
0Z!
1\!
1]!
1v
1j
0k
0l
1m
1n
1o
1p
0c
0d
0~
0{
0x
1*!
18
1G
1F
1E
1D
0C
0B
1A
0;
0:
1b!
1P!
0c!
1h!
1i!
0j
0m
0p
1u
1{
1x
1+!
0G
0D
0A
17
1`!
1g!
0i!
1m
1p
1t
1}
1|
0z
0y
0x
1,!
1G
1D
16
1f!
1i!
1k
1l
0n
0o
0p
1s
1$!
1#!
1-!
0G
0F
0E
1C
1B
15
1f
1g
1r
0$!
1"!
1.!
1>
1=
14
0f
1h
1q
1$!
1!!
1?
0=
13
1f
1i
1@
1=
#560000
12
0.
1b
0^
0/!
11!
14!
0S!
0U!
0W!
1_!
0`!
0b!
0e!
16!
07!
1A!
1E!
1V!
0g!
0h!
0i!
1X!
1Y!
1Z!
0\!
0]!
1^!
1F!
1R!
0,!
0-!
0.!
0)!
0+!
0*!
1I!
1T!
0s
0r
0q
0v
0t
0u
1~
0}
0|
1z
1y
1x
0$!
0#!
0"!
08
07
06
05
04
03
1K!
1d!
1j
0k
0l
1n
1o
1p
0f
0g
0h
1G
1F
1E
0C
0B
1A
0?
0>
0=
1L!
1a!
0P!
1c!
0f!
0Q!
0Y!
0Z!
0[!
0^!
0(!
0!!
0w
0i
0~
0{
0z
0y
09
0@
0j
0m
0n
0o
0F
0E
0D
0A
#640000
02
01
00
1/
0b
0a
0`
1_
10!
05!
02!
01!
1Q!
1S!
1U!
1W!
1`!
1b!
1e!
06!
09!
0<!
0@!
0C!
0H!
0O!
17!
0A!
1P!
0P!
0_!
0U!
0E!
0W!
0S!
0e!
0b!
0Q!
1i!
1j!
1k!
0X!
1[!
1\!
1]!
1g!
0i!
1l!
0F!
1X!
0[!
0\!
0]!
0`!
1,!
1-!
1.!
1)!
1+!
1*!
1(!
0g!
0j!
0k!
0l!
0I!
1s
1r
1q
1v
1t
1u
1w
1}
1|
1{
0x
1&!
1%!
1$!
0(!
0-!
0,!
0*!
0)!
0+!
19
18
17
16
15
14
13
0K!
1k
1l
1m
0p
1d
1e
1f
0w
0r
0s
0u
0v
0t
0.!
0}
0|
0{
1x
1'!
0$!
1"!
0G
1D
1C
1B
1=
1<
1;
09
08
07
06
05
04
0L!
0q
0k
0l
0m
1p
1c
0f
1h
0'!
0&!
0%!
0"!
03
1G
0D
0C
0B
1?
0=
1:
1P!
0c!
0c
0d
0e
0h
0?
0<
0;
0:
1f!
1!!
1i
1@
#720000
12
1b
11!
16!
1S!
1U!
1W!
1_!
1b!
1e!
0f!
1g!
1h!
1`!
0X!
1\!
1]!
1Q!
1[!
1f!
1i!
1,!
1-!
1)!
1+!
1*!
1s
1r
1v
1t
1u
1(!
1}
1|
0x
1.!
1#!
1"!
0!!
18
17
16
15
14
1w
1k
1l
0p
1q
1g
1h
0i
1$!
1!!
1{
19
13
0G
1C
1B
0@
1?
1>
1f
1i
1m
1D
1@
1=
#800000
02
11
0b
1a
12!
01!
06!
0_!
04!
#880000
12
1b
11!
14!
0S!
0U!
0W!
1_!
0`!
0b!
0e!
0g!
0h!
0i!
1X!
1Y!
1Z!
0\!
0]!
1^!
16!
0,!
0-!
0.!
0)!
0+!
0*!
0s
0r
0q
0v
0t
0u
1~
0}
0|
1z
1y
1x
0$!
0#!
0"!
08
07
06
05
04
03
1j
0k
0l
1n
1o
1p
0f
0g
0h
1G
1F
1E
0C
0B
1A
0?
0>
0=
#960000
02
01
10
0b
0a
1`
15!
02!
01!
0_!
1`!
19!
1<!
1@!
1A!
1C!
1H!
1O!
0P!
1_!
1c!
1I!
1U!
1W!
1E!
1F!
1S!
1K!
1e!
1L!
1b!
0f!
1h!
1i!
1l!
0`!
1P!
0X!
0Y!
0Z!
1\!
1]!
0^!
0h!
0i!
1k!
1`!
1.!
1i!
1j!
0l!
1q
0.!
1'!
1$!
1#!
0!!
1-!
1,!
1*!
1)!
1+!
13
0q
1c
1f
1g
0i
1r
1s
1u
1v
1t
1.!
1&!
0$!
0#!
0~
1}
1|
0z
0y
0x
18
17
16
15
14
03
0@
1>
1=
1:
1q
1d
0f
0g
0j
1k
1l
0n
0o
0p
0'!
1%!
1$!
13
0G
0F
0E
1C
1B
0A
0>
0=
1;
0c
1e
1f
1=
1<
0:
